<?xml version="1.0" encoding="UTF-8" standalone="no"?>
<!DOCTYPE svg PUBLIC "-//W3C//DTD SVG 1.1//EN"
 "http://www.w3.org/Graphics/SVG/1.1/DTD/svg11.dtd">
<!-- Generated by graphviz version 2.38.0 (20140413.2041)
 -->
<!-- Title: src/3dSceneModelBuilder/App3dSceneModelBuilder.cpp Pages: 1 -->
<!--zoomable 363 -->
<svg id="main" version="1.1" xmlns="http://www.w3.org/2000/svg" xmlns:xlink="http://www.w3.org/1999/xlink" xml:space="preserve" onload="init(evt)">
<style type="text/css"><![CDATA[
.edge:hover path { stroke: red; }
.edge:hover polygon { stroke: red; fill: red; }
]]></style>
<script type="text/javascript"><![CDATA[
var edges = document.getElementsByTagName('g');
if (edges && edges.length) {
  for (var i=0;i<edges.length;i++) {
    if (edges[i].id.substr(0,4)=='edge') {
      edges[i].setAttribute('class','edge');
    }
  }
}
]]></script>
        <defs>
                <circle id="rim" cx="0" cy="0" r="7"/>
                <circle id="rim2" cx="0" cy="0" r="3.5"/>
                <g id="zoomPlus">
                        <use xlink:href="#rim" fill="#404040">
                                <set attributeName="fill" to="#808080" begin="zoomplus.mouseover" end="zoomplus.mouseout"/>
                        </use>
                        <path d="M-4,0h8M0,-4v8" fill="none" stroke="white" stroke-width="1.5" pointer-events="none"/>
                </g>
                <g id="zoomMin">
                        <use xlink:href="#rim" fill="#404040">
                                <set attributeName="fill" to="#808080" begin="zoomminus.mouseover" end="zoomminus.mouseout"/>
                        </use>
                        <path d="M-4,0h8" fill="none" stroke="white" stroke-width="1.5" pointer-events="none"/>
                </g>
                <g id="dirArrow">
                        <path fill="none" stroke="white" stroke-width="1.5" d="M0,-3.0v7 M-2.5,-0.5L0,-3.0L2.5,-0.5"/>
                </g>
               <g id="resetDef">
                       <use xlink:href="#rim2" fill="#404040">
                               <set attributeName="fill" to="#808080" begin="reset.mouseover" end="reset.mouseout"/>
                       </use>
               </g>
        </defs>

<script type="text/javascript">
var viewWidth = 6707;
var viewHeight = 363;
var sectionId = 'dynsection-0';
</script>
<script xlink:href="svgpan.js"/>
<svg id="graph" class="graph">
<g id="viewport">
<title>src/3dSceneModelBuilder/App3dSceneModelBuilder.cpp</title>
<polygon fill="white" stroke="none" points="-4,4 -4,-359 6702.5,-359 6702.5,4 -4,4"/>
<!-- Node0 -->
<g id="node1" class="node"><title>Node0</title>
<polygon fill="#bfbfbf" stroke="black" points="2535.5,-324.5 2535.5,-354.5 2684.5,-354.5 2684.5,-324.5 2535.5,-324.5"/>
<text text-anchor="start" x="2543.5" y="-342.5" font-family="FreeSans" font-size="10.00">src/3dSceneModelBuilder</text>
<text text-anchor="middle" x="2610" y="-331.5" font-family="FreeSans" font-size="10.00">/App3dSceneModelBuilder.cpp</text>
</g>
<!-- Node1 -->
<g id="node2" class="node"><title>Node1</title>
<polygon fill="white" stroke="#bfbfbf" points="808.5,-6 808.5,-25 849.5,-25 849.5,-6 808.5,-6"/>
<text text-anchor="middle" x="829" y="-13" font-family="FreeSans" font-size="10.00">string</text>
</g>
<!-- Node0&#45;&gt;Node1 -->
<g id="edge1" class="edge"><title>Node0&#45;&gt;Node1</title>
<path fill="none" stroke="midnightblue" d="M2535.49,-338.008C2163.93,-335.399 525.199,-322 423,-288 325.639,-255.61 281.997,-245.212 235,-154 228.689,-141.752 225.882,-133.329 235,-123 277.685,-74.6472 459.349,-97.4201 523,-87 646.522,-66.7785 680.394,-70.9908 799,-31 800.62,-30.4536 802.267,-29.8401 803.911,-29.1821"/>
<polygon fill="midnightblue" stroke="midnightblue" points="805.404,-32.349 813.119,-25.0875 802.559,-25.9529 805.404,-32.349"/>
</g>
<!-- Node2 -->
<g id="node3" class="node"><title>Node2</title>
<polygon fill="white" stroke="#bfbfbf" points="1609.5,-257.5 1609.5,-276.5 1660.5,-276.5 1660.5,-257.5 1609.5,-257.5"/>
<text text-anchor="middle" x="1635" y="-264.5" font-family="FreeSans" font-size="10.00">memory</text>
</g>
<!-- Node0&#45;&gt;Node2 -->
<g id="edge2" class="edge"><title>Node0&#45;&gt;Node2</title>
<path fill="none" stroke="midnightblue" d="M2535.26,-338.915C2342.37,-339.281 1831.57,-335.584 1670,-288 1665.06,-286.544 1660.06,-284.272 1655.45,-281.772"/>
<polygon fill="midnightblue" stroke="midnightblue" points="1657.06,-278.652 1646.68,-276.513 1653.46,-284.656 1657.06,-278.652"/>
</g>
<!-- Node3 -->
<g id="node4" class="node"><title>Node3</title>
<polygon fill="white" stroke="#bfbfbf" points="1679,-257.5 1679,-276.5 1717,-276.5 1717,-257.5 1679,-257.5"/>
<text text-anchor="middle" x="1698" y="-264.5" font-family="FreeSans" font-size="10.00">tuple</text>
</g>
<!-- Node0&#45;&gt;Node3 -->
<g id="edge3" class="edge"><title>Node0&#45;&gt;Node3</title>
<path fill="none" stroke="midnightblue" d="M2535.4,-336.542C2336.31,-330.991 1802.39,-313.86 1727,-288 1723.08,-286.654 1719.2,-284.618 1715.61,-282.352"/>
<polygon fill="midnightblue" stroke="midnightblue" points="1717.62,-279.487 1707.46,-276.506 1713.55,-285.177 1717.62,-279.487"/>
</g>
<!-- Node4 -->
<g id="node5" class="node"><title>Node4</title>
<polygon fill="white" stroke="#bfbfbf" points="1379.5,-6 1379.5,-25 1414.5,-25 1414.5,-6 1379.5,-6"/>
<text text-anchor="middle" x="1397" y="-13" font-family="FreeSans" font-size="10.00">map</text>
</g>
<!-- Node0&#45;&gt;Node4 -->
<g id="edge4" class="edge"><title>Node0&#45;&gt;Node4</title>
<path fill="none" stroke="midnightblue" d="M2535.47,-337.469C2306.21,-333.952 1624.83,-320.775 1591,-288 1520.22,-219.431 1635.45,-143.235 1573,-67 1554.21,-44.0633 1469.35,-27.7391 1424.69,-20.5697"/>
<polygon fill="midnightblue" stroke="midnightblue" points="1425.19,-17.1066 1414.77,-19.0232 1424.12,-24.023 1425.19,-17.1066"/>
</g>
<!-- Node5 -->
<g id="node6" class="node"><title>Node5</title>
<polygon fill="white" stroke="#bfbfbf" points="650,-129 650,-148 694,-148 694,-129 650,-129"/>
<text text-anchor="middle" x="672" y="-136" font-family="FreeSans" font-size="10.00">vector</text>
</g>
<!-- Node0&#45;&gt;Node5 -->
<g id="edge5" class="edge"><title>Node0&#45;&gt;Node5</title>
<path fill="none" stroke="midnightblue" d="M2535.27,-337.963C2236.71,-335.573 1138.36,-324.369 987,-288 869.366,-259.734 743.17,-184.925 693.67,-153.605"/>
<polygon fill="midnightblue" stroke="midnightblue" points="695.389,-150.55 685.078,-148.115 691.62,-156.449 695.389,-150.55"/>
</g>
<!-- Node6 -->
<g id="node7" class="node"><title>Node6</title>
<polygon fill="white" stroke="#bfbfbf" points="1521.5,-6 1521.5,-25 1570.5,-25 1570.5,-6 1521.5,-6"/>
<text text-anchor="middle" x="1546" y="-13" font-family="FreeSans" font-size="10.00">cstddef</text>
</g>
<!-- Node0&#45;&gt;Node6 -->
<g id="edge6" class="edge"><title>Node0&#45;&gt;Node6</title>
<path fill="none" stroke="midnightblue" d="M2535.28,-337.545C2307.14,-334.268 1633.11,-321.757 1601,-288 1588.13,-274.475 1599.99,-264.639 1601,-246 1605.31,-166.437 1646.03,-138.568 1611,-67 1603.17,-50.9958 1587.54,-38.6016 1573.58,-30.0975"/>
<polygon fill="midnightblue" stroke="midnightblue" points="1575.16,-26.9715 1564.74,-25.072 1571.7,-33.0569 1575.16,-26.9715"/>
</g>
<!-- Node7 -->
<g id="node8" class="node"><title>Node7</title>
<polygon fill="white" stroke="#bfbfbf" points="1735.5,-257.5 1735.5,-276.5 1784.5,-276.5 1784.5,-257.5 1735.5,-257.5"/>
<text text-anchor="middle" x="1760" y="-264.5" font-family="FreeSans" font-size="10.00">random</text>
</g>
<!-- Node0&#45;&gt;Node7 -->
<g id="edge7" class="edge"><title>Node0&#45;&gt;Node7</title>
<path fill="none" stroke="midnightblue" d="M2535.34,-338.307C2360.95,-337.146 1931.26,-329.974 1794,-288 1789.38,-286.588 1784.73,-284.435 1780.41,-282.058"/>
<polygon fill="midnightblue" stroke="midnightblue" points="1781.99,-278.921 1771.63,-276.694 1778.34,-284.895 1781.99,-278.921"/>
</g>
<!-- Node8 -->
<g id="node9" class="node"><title>Node8</title>
<polygon fill="white" stroke="#bfbfbf" points="33.5,-6 33.5,-25 92.5,-25 92.5,-6 33.5,-6"/>
<text text-anchor="middle" x="63" y="-13" font-family="FreeSans" font-size="10.00">functional</text>
</g>
<!-- Node0&#45;&gt;Node8 -->
<g id="edge8" class="edge"><title>Node0&#45;&gt;Node8</title>
<path fill="none" stroke="midnightblue" d="M2535.18,-338.025C2119.01,-335.259 105.988,-320.23 51,-288 12.332,-265.336 0,-245.821 0,-201 0,-201 0,-201 0,-137.5 0,-96.1015 29.3716,-54.8247 48.005,-32.804"/>
<polygon fill="midnightblue" stroke="midnightblue" points="50.8015,-34.9234 54.7639,-25.0974 45.5388,-30.3078 50.8015,-34.9234"/>
</g>
<!-- Node9 -->
<g id="node10" class="node"><title>Node9</title>
<polygon fill="white" stroke="#bfbfbf" points="1802.5,-257.5 1802.5,-276.5 1845.5,-276.5 1845.5,-257.5 1802.5,-257.5"/>
<text text-anchor="middle" x="1824" y="-264.5" font-family="FreeSans" font-size="10.00">omp.h</text>
</g>
<!-- Node0&#45;&gt;Node9 -->
<g id="edge9" class="edge"><title>Node0&#45;&gt;Node9</title>
<path fill="none" stroke="midnightblue" d="M2535.32,-338.238C2370.37,-336.895 1979.71,-329.309 1855,-288 1850.94,-286.656 1846.9,-284.655 1843.13,-282.429"/>
<polygon fill="midnightblue" stroke="midnightblue" points="1844.76,-279.309 1834.49,-276.683 1840.88,-285.136 1844.76,-279.309"/>
</g>
<!-- Node10 -->
<g id="node11" class="node"><title>Node10</title>
<polygon fill="white" stroke="#bfbfbf" points="1863.5,-257.5 1863.5,-276.5 1976.5,-276.5 1976.5,-257.5 1863.5,-257.5"/>
<text text-anchor="middle" x="1920" y="-264.5" font-family="FreeSans" font-size="10.00">boost/lexical_cast.hpp</text>
</g>
<!-- Node0&#45;&gt;Node10 -->
<g id="edge10" class="edge"><title>Node0&#45;&gt;Node10</title>
<path fill="none" stroke="midnightblue" d="M2535.35,-337.588C2417.59,-335.003 2181.95,-325.175 1986,-288 1975.33,-285.975 1963.92,-282.872 1953.65,-279.71"/>
<polygon fill="midnightblue" stroke="midnightblue" points="1954.42,-276.281 1943.83,-276.567 1952.29,-282.948 1954.42,-276.281"/>
</g>
<!-- Node11 -->
<g id="node12" class="node"><title>Node11</title>
<polygon fill="white" stroke="#bfbfbf" points="712,-129 712,-148 840,-148 840,-129 712,-129"/>
<text text-anchor="middle" x="776" y="-136" font-family="FreeSans" font-size="10.00">boost/range/algorithm.hpp</text>
</g>
<!-- Node0&#45;&gt;Node11 -->
<g id="edge11" class="edge"><title>Node0&#45;&gt;Node11</title>
<path fill="none" stroke="midnightblue" d="M2535.49,-337.632C2252.57,-334.109 1253.89,-319.543 1115,-288 989.098,-259.407 851.989,-184.212 798.83,-153.187"/>
<polygon fill="midnightblue" stroke="midnightblue" points="800.577,-150.154 790.184,-148.096 797.025,-156.186 800.577,-150.154"/>
</g>
<!-- Node12 -->
<g id="node13" class="node"><title>Node12</title>
<polygon fill="white" stroke="#bfbfbf" points="1994.5,-252 1994.5,-282 2097.5,-282 2097.5,-252 1994.5,-252"/>
<text text-anchor="start" x="2002.5" y="-270" font-family="FreeSans" font-size="10.00">boost/range/adaptor</text>
<text text-anchor="middle" x="2046" y="-259" font-family="FreeSans" font-size="10.00">/map.hpp</text>
</g>
<!-- Node0&#45;&gt;Node12 -->
<g id="edge12" class="edge"><title>Node0&#45;&gt;Node12</title>
<path fill="none" stroke="midnightblue" d="M2535.08,-336.04C2436.11,-331.643 2256.84,-319.693 2107,-288 2102.89,-287.131 2098.67,-286.084 2094.46,-284.931"/>
<polygon fill="midnightblue" stroke="midnightblue" points="2095.29,-281.527 2084.71,-282.081 2093.32,-288.246 2095.29,-281.527"/>
</g>
<!-- Node13 -->
<g id="node14" class="node"><title>Node13</title>
<polygon fill="white" stroke="#bfbfbf" points="2115.5,-252 2115.5,-282 2234.5,-282 2234.5,-252 2115.5,-252"/>
<text text-anchor="start" x="2123.5" y="-270" font-family="FreeSans" font-size="10.00">SeeSaw/Modified/boost</text>
<text text-anchor="middle" x="2175" y="-259" font-family="FreeSans" font-size="10.00">_dynamic_bitset.hpp</text>
</g>
<!-- Node0&#45;&gt;Node13 -->
<g id="edge13" class="edge"><title>Node0&#45;&gt;Node13</title>
<path fill="none" stroke="midnightblue" d="M2535.5,-331.421C2461.15,-323.608 2343.91,-309.256 2244,-288 2239.36,-287.014 2234.58,-285.88 2229.81,-284.663"/>
<polygon fill="midnightblue" stroke="midnightblue" points="2230.61,-281.255 2220.04,-282.072 2228.81,-288.021 2230.61,-281.255"/>
</g>
<!-- Node14 -->
<g id="node15" class="node"><title>Node14</title>
<polygon fill="white" stroke="#bfbfbf" points="2252.5,-257.5 2252.5,-276.5 2323.5,-276.5 2323.5,-257.5 2252.5,-257.5"/>
<text text-anchor="middle" x="2288" y="-264.5" font-family="FreeSans" font-size="10.00">Eigen/Dense</text>
</g>
<!-- Node0&#45;&gt;Node14 -->
<g id="edge14" class="edge"><title>Node0&#45;&gt;Node14</title>
<path fill="none" stroke="midnightblue" d="M2535.37,-329.796C2478.95,-322.045 2400.03,-308.681 2333,-288 2326.67,-286.048 2320.06,-283.447 2313.91,-280.768"/>
<polygon fill="midnightblue" stroke="midnightblue" points="2315.28,-277.547 2304.73,-276.577 2312.37,-283.915 2315.28,-277.547"/>
</g>
<!-- Node15 -->
<g id="node16" class="node"><title>Node15</title>
<polygon fill="white" stroke="#bfbfbf" points="2341.5,-257.5 2341.5,-276.5 2446.5,-276.5 2446.5,-257.5 2341.5,-257.5"/>
<text text-anchor="middle" x="2394" y="-264.5" font-family="FreeSans" font-size="10.00">opencv2/highgui.hpp</text>
</g>
<!-- Node0&#45;&gt;Node15 -->
<g id="edge15" class="edge"><title>Node0&#45;&gt;Node15</title>
<path fill="none" stroke="midnightblue" d="M2567.07,-324.487C2526.86,-311.364 2467.47,-291.981 2429.77,-279.675"/>
<polygon fill="midnightblue" stroke="midnightblue" points="2430.8,-276.331 2420.21,-276.555 2428.63,-282.985 2430.8,-276.331"/>
</g>
<!-- Node16 -->
<g id="node17" class="node"><title>Node16</title>
<polygon fill="white" stroke="#bfbfbf" points="244.5,-129 244.5,-148 349.5,-148 349.5,-129 244.5,-129"/>
<text text-anchor="middle" x="297" y="-136" font-family="FreeSans" font-size="10.00">opencv2/videoio.hpp</text>
</g>
<!-- Node0&#45;&gt;Node16 -->
<g id="edge16" class="edge"><title>Node0&#45;&gt;Node16</title>
<path fill="none" stroke="midnightblue" d="M2535.35,-337.836C2173.16,-334.468 612.368,-318.25 514,-288 428.321,-261.652 346.41,-188.356 312.895,-155.634"/>
<polygon fill="midnightblue" stroke="midnightblue" points="315.008,-152.801 305.444,-148.243 310.078,-157.77 315.008,-152.801"/>
</g>
<!-- Node17 -->
<g id="node18" class="node"><title>Node17</title>
<polygon fill="white" stroke="#bfbfbf" points="1091.5,-6 1091.5,-25 1184.5,-25 1184.5,-6 1091.5,-6"/>
<text text-anchor="middle" x="1138" y="-13" font-family="FreeSans" font-size="10.00">opencv2/core.hpp</text>
</g>
<!-- Node0&#45;&gt;Node17 -->
<g id="edge17" class="edge"><title>Node0&#45;&gt;Node17</title>
<path fill="none" stroke="midnightblue" d="M2535.16,-337.483C2301.48,-333.969 1598.81,-320.718 1563,-288 1508.33,-238.061 1589.11,-178.413 1540,-123 1494.44,-71.5962 1294.54,-37.7725 1194.89,-23.7918"/>
<polygon fill="midnightblue" stroke="midnightblue" points="1195.08,-20.2853 1184.7,-22.3821 1194.13,-27.2193 1195.08,-20.2853"/>
</g>
<!-- Node18 -->
<g id="node19" class="node"><title>Node18</title>
<polygon fill="white" stroke="#bfbfbf" points="522.5,-129 522.5,-148 631.5,-148 631.5,-129 522.5,-129"/>
<text text-anchor="middle" x="577" y="-136" font-family="FreeSans" font-size="10.00">opencv2/imgproc.hpp</text>
</g>
<!-- Node0&#45;&gt;Node18 -->
<g id="edge18" class="edge"><title>Node0&#45;&gt;Node18</title>
<path fill="none" stroke="midnightblue" d="M2535.38,-338.269C2223.23,-337.043 1030.82,-329.648 868,-288 758.501,-259.991 643.15,-185.609 597.405,-154.018"/>
<polygon fill="midnightblue" stroke="midnightblue" points="599.169,-150.981 588.966,-148.128 595.162,-156.721 599.169,-150.981"/>
</g>
<!-- Node19 -->
<g id="node20" class="node"><title>Node19</title>
<polygon fill="white" stroke="#bfbfbf" points="2464.5,-257.5 2464.5,-276.5 2605.5,-276.5 2605.5,-257.5 2464.5,-257.5"/>
<text text-anchor="middle" x="2535" y="-264.5" font-family="FreeSans" font-size="10.00">opencv2/cudafeatures2d.hpp</text>
</g>
<!-- Node0&#45;&gt;Node19 -->
<g id="edge19" class="edge"><title>Node0&#45;&gt;Node19</title>
<path fill="none" stroke="midnightblue" d="M2594.82,-324.233C2582.35,-312.505 2564.68,-295.904 2551.79,-283.78"/>
<polygon fill="midnightblue" stroke="midnightblue" points="2554.14,-281.192 2544.46,-276.893 2549.35,-286.292 2554.14,-281.192"/>
</g>
<!-- Node20 -->
<g id="node21" class="node"><title>Node20</title>
<polygon fill="white" stroke="#bfbfbf" points="2624,-257.5 2624,-276.5 2746,-276.5 2746,-257.5 2624,-257.5"/>
<text text-anchor="middle" x="2685" y="-264.5" font-family="FreeSans" font-size="10.00">opencv2/cudaarithm.hpp</text>
</g>
<!-- Node0&#45;&gt;Node20 -->
<g id="edge20" class="edge"><title>Node0&#45;&gt;Node20</title>
<path fill="none" stroke="midnightblue" d="M2625.18,-324.233C2637.65,-312.505 2655.32,-295.904 2668.21,-283.78"/>
<polygon fill="midnightblue" stroke="midnightblue" points="2670.65,-286.292 2675.54,-276.893 2665.86,-281.192 2670.65,-286.292"/>
</g>
<!-- Node21 -->
<g id="node22" class="node"><title>Node21</title>
<polygon fill="white" stroke="#bfbfbf" points="2764.5,-257.5 2764.5,-276.5 2893.5,-276.5 2893.5,-257.5 2764.5,-257.5"/>
<text text-anchor="middle" x="2829" y="-264.5" font-family="FreeSans" font-size="10.00">opencv2/cudawarping.hpp</text>
</g>
<!-- Node0&#45;&gt;Node21 -->
<g id="edge21" class="edge"><title>Node0&#45;&gt;Node21</title>
<path fill="none" stroke="midnightblue" d="M2653.53,-324.487C2694.29,-311.364 2754.51,-291.981 2792.73,-279.675"/>
<polygon fill="midnightblue" stroke="midnightblue" points="2793.98,-282.951 2802.42,-276.555 2791.83,-276.288 2793.98,-282.951"/>
</g>
<!-- Node22 -->
<g id="node23" class="node"><title>Node22</title>
<polygon fill="white" stroke="#bfbfbf" points="2912,-257.5 2912,-276.5 3042,-276.5 3042,-257.5 2912,-257.5"/>
<text text-anchor="middle" x="2977" y="-264.5" font-family="FreeSans" font-size="10.00">opencv2/cudaimgproc.hpp</text>
</g>
<!-- Node0&#45;&gt;Node22 -->
<g id="edge22" class="edge"><title>Node0&#45;&gt;Node22</title>
<path fill="none" stroke="midnightblue" d="M2684.74,-327.588C2744.17,-318.438 2829.28,-304.277 2903,-288 2914.44,-285.474 2926.77,-282.319 2938.01,-279.268"/>
<polygon fill="midnightblue" stroke="midnightblue" points="2939.28,-282.55 2947.98,-276.515 2937.41,-275.803 2939.28,-282.55"/>
</g>
<!-- Node23 -->
<g id="node24" class="node"><title>Node23</title>
<polygon fill="white" stroke="#bfbfbf" points="1253,-129 1253,-148 1373,-148 1373,-129 1253,-129"/>
<text text-anchor="middle" x="1313" y="-136" font-family="FreeSans" font-size="10.00">opencv2/features2d.hpp</text>
</g>
<!-- Node0&#45;&gt;Node23 -->
<g id="edge23" class="edge"><title>Node0&#45;&gt;Node23</title>
<path fill="none" stroke="midnightblue" d="M2535.26,-338.35C2295.98,-337.438 1558.74,-331.12 1461,-288 1396.44,-259.517 1344.79,-189.013 1323.51,-156.465"/>
<polygon fill="midnightblue" stroke="midnightblue" points="1326.45,-154.559 1318.12,-148.013 1320.55,-158.325 1326.45,-154.559"/>
</g>
<!-- Node24 -->
<g id="node25" class="node"><title>Node24</title>
<polygon fill="white" stroke="#bfbfbf" points="3060,-252 3060,-282 3164,-282 3164,-252 3060,-252"/>
<text text-anchor="start" x="3068" y="-270" font-family="FreeSans" font-size="10.00">SeeSaw/Application</text>
<text text-anchor="middle" x="3112" y="-259" font-family="FreeSans" font-size="10.00">/Application.h</text>
</g>
<!-- Node0&#45;&gt;Node24 -->
<g id="edge24" class="edge"><title>Node0&#45;&gt;Node24</title>
<path fill="none" stroke="midnightblue" d="M2684.88,-334.562C2773.23,-328.852 2924.15,-315.757 3051,-288 3055.04,-287.116 3059.19,-286.067 3063.34,-284.921"/>
<polygon fill="midnightblue" stroke="midnightblue" points="3064.34,-288.275 3072.95,-282.099 3062.37,-281.559 3064.34,-288.275"/>
</g>
<!-- Node25 -->
<g id="node26" class="node"><title>Node25</title>
<polygon fill="white" stroke="#bfbfbf" points="141.5,-0.5 141.5,-30.5 284.5,-30.5 284.5,-0.5 141.5,-0.5"/>
<text text-anchor="start" x="149.5" y="-18.5" font-family="FreeSans" font-size="10.00">SeeSaw/ApplicationInterface</text>
<text text-anchor="middle" x="213" y="-7.5" font-family="FreeSans" font-size="10.00">/InterfaceUtility.h</text>
</g>
<!-- Node0&#45;&gt;Node25 -->
<g id="edge25" class="edge"><title>Node0&#45;&gt;Node25</title>
<path fill="none" stroke="midnightblue" d="M2535.25,-338.2C2136.69,-336.447 275.345,-326.23 160,-288 96.7846,-267.048 38,-267.597 38,-201 38,-201 38,-201 38,-137.5 38,-82.96 96.2186,-51.0814 145.497,-33.867"/>
<polygon fill="midnightblue" stroke="midnightblue" points="146.84,-37.1085 155.213,-30.6173 144.62,-30.4699 146.84,-37.1085"/>
</g>
<!-- Node26 -->
<g id="node27" class="node"><title>Node26</title>
<polygon fill="white" stroke="#bfbfbf" points="3182.5,-252 3182.5,-282 3325.5,-282 3325.5,-252 3182.5,-252"/>
<text text-anchor="start" x="3190.5" y="-270" font-family="FreeSans" font-size="10.00">SeeSaw/ApplicationInterface</text>
<text text-anchor="middle" x="3254" y="-259" font-family="FreeSans" font-size="10.00">/InterfaceSfMPipeline.h</text>
</g>
<!-- Node0&#45;&gt;Node26 -->
<g id="edge26" class="edge"><title>Node0&#45;&gt;Node26</title>
<path fill="none" stroke="midnightblue" d="M2684.69,-335.431C2792.95,-330.163 2999.5,-317.026 3173,-288 3179.19,-286.965 3185.6,-285.707 3191.98,-284.333"/>
<polygon fill="midnightblue" stroke="midnightblue" points="3192.97,-287.699 3201.96,-282.091 3191.43,-280.869 3192.97,-287.699"/>
</g>
<!-- Node27 -->
<g id="node28" class="node"><title>Node27</title>
<polygon fill="white" stroke="#bfbfbf" points="3344,-246.5 3344,-287.5 3510,-287.5 3510,-246.5 3344,-246.5"/>
<text text-anchor="start" x="3352" y="-275.5" font-family="FreeSans" font-size="10.00">SeeSaw/ApplicationInterface</text>
<text text-anchor="start" x="3352" y="-264.5" font-family="FreeSans" font-size="10.00">/InterfaceSparse3DReconstruction</text>
<text text-anchor="middle" x="3427" y="-253.5" font-family="FreeSans" font-size="10.00">Pipeline.h</text>
</g>
<!-- Node0&#45;&gt;Node27 -->
<g id="edge27" class="edge"><title>Node0&#45;&gt;Node27</title>
<path fill="none" stroke="midnightblue" d="M2684.74,-336.851C2814.83,-333.202 3091.39,-321.992 3333.79,-288.063"/>
<polygon fill="midnightblue" stroke="midnightblue" points="3334.44,-291.506 3343.85,-286.639 3333.46,-284.575 3334.44,-291.506"/>
</g>
<!-- Node28 -->
<g id="node29" class="node"><title>Node28</title>
<polygon fill="white" stroke="#bfbfbf" points="1391,-129 1391,-148 1531,-148 1531,-129 1391,-129"/>
<text text-anchor="middle" x="1461" y="-136" font-family="FreeSans" font-size="10.00">SeeSaw/Elements/Feature.h</text>
</g>
<!-- Node0&#45;&gt;Node28 -->
<g id="edge28" class="edge"><title>Node0&#45;&gt;Node28</title>
<path fill="none" stroke="midnightblue" d="M2535.29,-337.634C2291.22,-334.481 1530.65,-321.959 1491,-288 1453.46,-255.846 1454.87,-190.878 1458.27,-158.598"/>
<polygon fill="midnightblue" stroke="midnightblue" points="1461.79,-158.66 1459.55,-148.306 1454.84,-157.799 1461.79,-158.66"/>
</g>
<!-- Node29 -->
<g id="node30" class="node"><title>Node29</title>
<polygon fill="white" stroke="#bfbfbf" points="3528.5,-252 3528.5,-282 3673.5,-282 3673.5,-252 3528.5,-252"/>
<text text-anchor="start" x="3536.5" y="-270" font-family="FreeSans" font-size="10.00">SeeSaw/Elements/Geometric</text>
<text text-anchor="middle" x="3601" y="-259" font-family="FreeSans" font-size="10.00">Entity.h</text>
</g>
<!-- Node0&#45;&gt;Node29 -->
<g id="edge29" class="edge"><title>Node0&#45;&gt;Node29</title>
<path fill="none" stroke="midnightblue" d="M2684.7,-338.975C2840.63,-338.952 3211.79,-333.603 3519,-288 3525.72,-287.003 3532.69,-285.71 3539.61,-284.263"/>
<polygon fill="midnightblue" stroke="midnightblue" points="3540.66,-287.617 3549.67,-282.048 3539.15,-280.781 3540.66,-287.617"/>
</g>
<!-- Node30 -->
<g id="node31" class="node"><title>Node30</title>
<polygon fill="white" stroke="#bfbfbf" points="3692,-257.5 3692,-276.5 3846,-276.5 3846,-257.5 3692,-257.5"/>
<text text-anchor="middle" x="3769" y="-264.5" font-family="FreeSans" font-size="10.00">SeeSaw/Elements/Coordinate.h</text>
</g>
<!-- Node0&#45;&gt;Node30 -->
<g id="edge30" class="edge"><title>Node0&#45;&gt;Node30</title>
<path fill="none" stroke="midnightblue" d="M2684.57,-336.753C2894.81,-331.546 3489.62,-314.811 3683,-288 3697.91,-285.933 3714.03,-282.511 3728.24,-279.076"/>
<polygon fill="midnightblue" stroke="midnightblue" points="3729.35,-282.406 3738.2,-276.592 3727.66,-275.614 3729.35,-282.406"/>
</g>
<!-- Node31 -->
<g id="node32" class="node"><title>Node31</title>
<polygon fill="white" stroke="#bfbfbf" points="3864.5,-257.5 3864.5,-276.5 4005.5,-276.5 4005.5,-257.5 3864.5,-257.5"/>
<text text-anchor="middle" x="3935" y="-264.5" font-family="FreeSans" font-size="10.00">SeeSaw/Elements/Camera.h</text>
</g>
<!-- Node0&#45;&gt;Node31 -->
<g id="edge31" class="edge"><title>Node0&#45;&gt;Node31</title>
<path fill="none" stroke="midnightblue" d="M2684.69,-337.472C2917.34,-333.956 3627.09,-320.759 3855,-288 3868.89,-286.004 3883.87,-282.604 3897.07,-279.169"/>
<polygon fill="midnightblue" stroke="midnightblue" points="3898.02,-282.536 3906.77,-276.557 3896.21,-275.777 3898.02,-282.536"/>
</g>
<!-- Node32 -->
<g id="node33" class="node"><title>Node32</title>
<polygon fill="white" stroke="#bfbfbf" points="4024,-257.5 4024,-276.5 4202,-276.5 4202,-257.5 4024,-257.5"/>
<text text-anchor="middle" x="4113" y="-264.5" font-family="FreeSans" font-size="10.00">SeeSaw/Elements/Correspondence.h</text>
</g>
<!-- Node0&#45;&gt;Node32 -->
<g id="edge32" class="edge"><title>Node0&#45;&gt;Node32</title>
<path fill="none" stroke="midnightblue" d="M2684.76,-337.445C2936.76,-333.633 3753.85,-319.124 4015,-288 4032.56,-285.907 4051.66,-282.313 4068.3,-278.744"/>
<polygon fill="midnightblue" stroke="midnightblue" points="4069.29,-282.11 4078.3,-276.539 4067.78,-275.274 4069.29,-282.11"/>
</g>
<!-- Node33 -->
<g id="node34" class="node"><title>Node33</title>
<polygon fill="white" stroke="#bfbfbf" points="4220.5,-257.5 4220.5,-276.5 4357.5,-276.5 4357.5,-257.5 4220.5,-257.5"/>
<text text-anchor="middle" x="4289" y="-264.5" font-family="FreeSans" font-size="10.00">SeeSaw/Metrics/Distance.h</text>
</g>
<!-- Node0&#45;&gt;Node33 -->
<g id="edge33" class="edge"><title>Node0&#45;&gt;Node33</title>
<path fill="none" stroke="midnightblue" d="M2684.57,-338.317C2958.75,-337.306 3910.56,-330.727 4211,-288 4224.54,-286.074 4239.13,-282.699 4251.98,-279.263"/>
<polygon fill="midnightblue" stroke="midnightblue" points="4253.16,-282.568 4261.86,-276.522 4251.29,-275.822 4253.16,-282.568"/>
</g>
<!-- Node34 -->
<g id="node35" class="node"><title>Node34</title>
<polygon fill="white" stroke="#bfbfbf" points="4375.5,-252 4375.5,-282 4512.5,-282 4512.5,-252 4375.5,-252"/>
<text text-anchor="start" x="4383.5" y="-270" font-family="FreeSans" font-size="10.00">SeeSaw/Metrics/Geometric</text>
<text text-anchor="middle" x="4444" y="-259" font-family="FreeSans" font-size="10.00">Constraint.h</text>
</g>
<!-- Node0&#45;&gt;Node34 -->
<g id="edge34" class="edge"><title>Node0&#45;&gt;Node34</title>
<path fill="none" stroke="midnightblue" d="M2684.75,-338.592C2975.94,-338.603 4034.67,-335.316 4367,-288 4373.37,-287.093 4379.97,-285.853 4386.51,-284.433"/>
<polygon fill="midnightblue" stroke="midnightblue" points="4387.74,-287.741 4396.69,-282.073 4386.16,-280.921 4387.74,-287.741"/>
</g>
<!-- Node35 -->
<g id="node36" class="node"><title>Node35</title>
<polygon fill="white" stroke="#bfbfbf" points="4531,-252 4531,-282 4675,-282 4675,-252 4531,-252"/>
<text text-anchor="start" x="4539" y="-270" font-family="FreeSans" font-size="10.00">SeeSaw/GeometryEstimation</text>
<text text-anchor="middle" x="4603" y="-259" font-family="FreeSans" font-size="10.00">Pipeline/SfMPipeline.h</text>
</g>
<!-- Node0&#45;&gt;Node35 -->
<g id="edge35" class="edge"><title>Node0&#45;&gt;Node35</title>
<path fill="none" stroke="midnightblue" d="M2684.7,-338.677C2991.73,-339.073 4157.45,-337.233 4522,-288 4528.85,-287.075 4535.96,-285.801 4542.99,-284.339"/>
<polygon fill="midnightblue" stroke="midnightblue" points="4544.19,-287.657 4553.2,-282.082 4542.68,-280.822 4544.19,-287.657"/>
</g>
<!-- Node36 -->
<g id="node37" class="node"><title>Node36</title>
<polygon fill="white" stroke="#bfbfbf" points="4693,-246.5 4693,-287.5 4855,-287.5 4855,-246.5 4693,-246.5"/>
<text text-anchor="start" x="4701" y="-275.5" font-family="FreeSans" font-size="10.00">SeeSaw/GeometryEstimation</text>
<text text-anchor="start" x="4701" y="-264.5" font-family="FreeSans" font-size="10.00">Pipeline/Sparse3DReconstruction</text>
<text text-anchor="middle" x="4774" y="-253.5" font-family="FreeSans" font-size="10.00">Pipeline.h</text>
</g>
<!-- Node0&#45;&gt;Node36 -->
<g id="edge36" class="edge"><title>Node0&#45;&gt;Node36</title>
<path fill="none" stroke="midnightblue" d="M2684.63,-338.625C3004.87,-338.867 4264.84,-336.712 4682.67,-288.008"/>
<polygon fill="midnightblue" stroke="midnightblue" points="4683.17,-291.473 4692.69,-286.812 4682.34,-284.522 4683.17,-291.473"/>
</g>
<!-- Node37 -->
<g id="node38" class="node"><title>Node37</title>
<polygon fill="white" stroke="#bfbfbf" points="4873.5,-257.5 4873.5,-276.5 5028.5,-276.5 5028.5,-257.5 4873.5,-257.5"/>
<text text-anchor="middle" x="4951" y="-264.5" font-family="FreeSans" font-size="10.00">SeeSaw/Geometry/P4PSolver.h</text>
</g>
<!-- Node0&#45;&gt;Node37 -->
<g id="edge37" class="edge"><title>Node0&#45;&gt;Node37</title>
<path fill="none" stroke="midnightblue" d="M2684.75,-338.869C3024.84,-340.232 4428.26,-342.39 4864,-288 4879.49,-286.066 4896.27,-282.557 4910.91,-279.011"/>
<polygon fill="midnightblue" stroke="midnightblue" points="4911.82,-282.392 4920.67,-276.57 4910.12,-275.602 4911.82,-282.392"/>
</g>
<!-- Node38 -->
<g id="node39" class="node"><title>Node38</title>
<polygon fill="white" stroke="#bfbfbf" points="5046.5,-257.5 5046.5,-276.5 5209.5,-276.5 5209.5,-257.5 5046.5,-257.5"/>
<text text-anchor="middle" x="5128" y="-264.5" font-family="FreeSans" font-size="10.00">SeeSaw/Geometry/Projection32.h</text>
</g>
<!-- Node0&#45;&gt;Node38 -->
<g id="edge38" class="edge"><title>Node0&#45;&gt;Node38</title>
<path fill="none" stroke="midnightblue" d="M2684.73,-337.827C3067.51,-334.259 4799.92,-316.643 5038,-288 5054.01,-286.074 5071.36,-282.566 5086.51,-279.02"/>
<polygon fill="midnightblue" stroke="midnightblue" points="5087.71,-282.331 5096.61,-276.578 5086.07,-275.527 5087.71,-282.331"/>
</g>
<!-- Node39 -->
<g id="node40" class="node"><title>Node39</title>
<polygon fill="white" stroke="#bfbfbf" points="5227.5,-252 5227.5,-282 5370.5,-282 5370.5,-252 5227.5,-252"/>
<text text-anchor="start" x="5235.5" y="-270" font-family="FreeSans" font-size="10.00">SeeSaw/Geometry/Multiview</text>
<text text-anchor="middle" x="5299" y="-259" font-family="FreeSans" font-size="10.00">Triangulation.h</text>
</g>
<!-- Node0&#45;&gt;Node39 -->
<g id="edge39" class="edge"><title>Node0&#45;&gt;Node39</title>
<path fill="none" stroke="midnightblue" d="M2684.64,-338.06C3084.28,-335.568 4962.39,-322.114 5219,-288 5225.87,-287.087 5232.99,-285.805 5240.04,-284.326"/>
<polygon fill="midnightblue" stroke="midnightblue" points="5241.27,-287.638 5250.26,-282.039 5239.74,-280.807 5241.27,-287.638"/>
</g>
<!-- Node40 -->
<g id="node41" class="node"><title>Node40</title>
<polygon fill="white" stroke="#bfbfbf" points="5389,-252 5389,-282 5537,-282 5537,-252 5389,-252"/>
<text text-anchor="start" x="5397" y="-270" font-family="FreeSans" font-size="10.00">SeeSaw/Geometry/Coordinate</text>
<text text-anchor="middle" x="5463" y="-259" font-family="FreeSans" font-size="10.00">Statistics.h</text>
</g>
<!-- Node0&#45;&gt;Node40 -->
<g id="edge40" class="edge"><title>Node0&#45;&gt;Node40</title>
<path fill="none" stroke="midnightblue" d="M2684.78,-338.112C3099.31,-335.828 5106.42,-323.028 5380,-288 5387.36,-287.058 5395.02,-285.719 5402.57,-284.175"/>
<polygon fill="midnightblue" stroke="midnightblue" points="5403.38,-287.582 5412.41,-282.043 5401.89,-280.74 5403.38,-287.582"/>
</g>
<!-- Node41 -->
<g id="node42" class="node"><title>Node41</title>
<polygon fill="white" stroke="#bfbfbf" points="5555,-252 5555,-282 5707,-282 5707,-252 5555,-252"/>
<text text-anchor="start" x="5563" y="-270" font-family="FreeSans" font-size="10.00">SeeSaw/UncertaintyEstimation</text>
<text text-anchor="middle" x="5631" y="-259" font-family="FreeSans" font-size="10.00">/MultivariateGaussian.h</text>
</g>
<!-- Node0&#45;&gt;Node41 -->
<g id="edge41" class="edge"><title>Node0&#45;&gt;Node41</title>
<path fill="none" stroke="midnightblue" d="M2684.65,-338.171C3113.52,-336.155 5254.89,-324.327 5546,-288 5553.62,-287.05 5561.54,-285.693 5569.36,-284.128"/>
<polygon fill="midnightblue" stroke="midnightblue" points="5570.12,-287.546 5579.18,-282.049 5568.67,-280.698 5570.12,-287.546"/>
</g>
<!-- Node42 -->
<g id="node43" class="node"><title>Node42</title>
<polygon fill="white" stroke="#bfbfbf" points="5725.5,-257.5 5725.5,-276.5 5906.5,-276.5 5906.5,-257.5 5725.5,-257.5"/>
<text text-anchor="middle" x="5816" y="-264.5" font-family="FreeSans" font-size="10.00">SeeSaw/Wrappers/BoostFilesystem.h</text>
</g>
<!-- Node0&#45;&gt;Node42 -->
<g id="edge42" class="edge"><title>Node0&#45;&gt;Node42</title>
<path fill="none" stroke="midnightblue" d="M2684.58,-338.097C3127.77,-335.596 5406.41,-321.199 5716,-288 5734.25,-286.043 5754.11,-282.392 5771.29,-278.739"/>
<polygon fill="midnightblue" stroke="midnightblue" points="5772.05,-282.158 5781.07,-276.602 5770.55,-275.319 5772.05,-282.158"/>
</g>
<!-- Node43 -->
<g id="node44" class="node"><title>Node43</title>
<polygon fill="white" stroke="#bfbfbf" points="5925,-257.5 5925,-276.5 6047,-276.5 6047,-257.5 5925,-257.5"/>
<text text-anchor="middle" x="5986" y="-264.5" font-family="FreeSans" font-size="10.00">SeeSaw/IO/CameraIO.h</text>
</g>
<!-- Node0&#45;&gt;Node43 -->
<g id="edge43" class="edge"><title>Node0&#45;&gt;Node43</title>
<path fill="none" stroke="midnightblue" d="M2684.52,-338.536C3144.34,-338.601 5587,-336.643 5916,-288 5928.09,-286.213 5941.03,-282.923 5952.46,-279.52"/>
<polygon fill="midnightblue" stroke="midnightblue" points="5953.54,-282.849 5962.05,-276.536 5951.46,-276.165 5953.54,-282.849"/>
</g>
<!-- Node44 -->
<g id="node45" class="node"><title>Node44</title>
<polygon fill="white" stroke="#bfbfbf" points="6065.5,-257.5 6065.5,-276.5 6214.5,-276.5 6214.5,-257.5 6065.5,-257.5"/>
<text text-anchor="middle" x="6140" y="-264.5" font-family="FreeSans" font-size="10.00">SeeSaw/IO/SceneFeatureIO.h</text>
</g>
<!-- Node0&#45;&gt;Node44 -->
<g id="edge44" class="edge"><title>Node0&#45;&gt;Node44</title>
<path fill="none" stroke="midnightblue" d="M2684.57,-338.388C3155.77,-337.55 5711.27,-331.036 6056,-288 6070.96,-286.132 6087.14,-282.644 6101.26,-279.098"/>
<polygon fill="midnightblue" stroke="midnightblue" points="6102.34,-282.434 6111.13,-276.528 6100.57,-275.66 6102.34,-282.434"/>
</g>
<!-- Node45 -->
<g id="node46" class="node"><title>Node45</title>
<polygon fill="white" stroke="#bfbfbf" points="6233,-257.5 6233,-276.5 6343,-276.5 6343,-257.5 6233,-257.5"/>
<text text-anchor="middle" x="6288" y="-264.5" font-family="FreeSans" font-size="10.00">SeeSaw/IO/ArrayIO.h</text>
</g>
<!-- Node0&#45;&gt;Node45 -->
<g id="edge45" class="edge"><title>Node0&#45;&gt;Node45</title>
<path fill="none" stroke="midnightblue" d="M2684.65,-338.068C3185.57,-335.092 6043.14,-316.895 6224,-288 6234.78,-286.278 6246.24,-283.135 6256.45,-279.843"/>
<polygon fill="midnightblue" stroke="midnightblue" points="6257.82,-283.075 6266.16,-276.548 6255.57,-276.446 6257.82,-283.075"/>
</g>
<!-- Node46 -->
<g id="node47" class="node"><title>Node46</title>
<polygon fill="white" stroke="#bfbfbf" points="6361,-257.5 6361,-276.5 6531,-276.5 6531,-257.5 6361,-257.5"/>
<text text-anchor="middle" x="6446" y="-264.5" font-family="FreeSans" font-size="10.00">SeeSaw/Matcher/FeatureMatcher.h</text>
</g>
<!-- Node0&#45;&gt;Node46 -->
<g id="edge46" class="edge"><title>Node0&#45;&gt;Node46</title>
<path fill="none" stroke="midnightblue" d="M2684.88,-338.373C3180.11,-337.416 5975.59,-330.17 6352,-288 6369,-286.095 6387.46,-282.508 6403.49,-278.891"/>
<polygon fill="midnightblue" stroke="midnightblue" points="6404.69,-282.206 6413.63,-276.527 6403.1,-275.389 6404.69,-282.206"/>
</g>
<!-- Node47 -->
<g id="node48" class="node"><title>Node47</title>
<polygon fill="white" stroke="#bfbfbf" points="6549.5,-252 6549.5,-282 6698.5,-282 6698.5,-252 6549.5,-252"/>
<text text-anchor="start" x="6557.5" y="-270" font-family="FreeSans" font-size="10.00">SeeSaw/Matcher/SceneImage</text>
<text text-anchor="middle" x="6624" y="-259" font-family="FreeSans" font-size="10.00">FeatureMatchingProblem.h</text>
</g>
<!-- Node0&#45;&gt;Node47 -->
<g id="edge47" class="edge"><title>Node0&#45;&gt;Node47</title>
<path fill="none" stroke="midnightblue" d="M2684.53,-338.533C3193.09,-338.628 6144.17,-337.053 6540,-288 6547.45,-287.077 6555.2,-285.75 6562.84,-284.213"/>
<polygon fill="midnightblue" stroke="midnightblue" points="6563.75,-287.598 6572.8,-282.087 6562.29,-280.752 6563.75,-287.598"/>
</g>
<!-- Node48 -->
<g id="node49" class="node"><title>Node48</title>
<g id="a_node49"><a xlink:href="OCVFeatures2d_8h.html" target="_top" xlink:title="../Utility/OCVFeatures2d.h">
<polygon fill="white" stroke="black" points="1124.5,-257.5 1124.5,-276.5 1253.5,-276.5 1253.5,-257.5 1124.5,-257.5"/>
<text text-anchor="middle" x="1189" y="-264.5" font-family="FreeSans" font-size="10.00">../Utility/OCVFeatures2d.h</text>
</a>
</g>
</g>
<!-- Node0&#45;&gt;Node48 -->
<g id="edge48" class="edge"><title>Node0&#45;&gt;Node48</title>
<path fill="none" stroke="midnightblue" d="M2535.32,-337.548C2340.8,-334.623 1802.6,-323.679 1356,-288 1324.62,-285.493 1290.06,-281.552 1260.56,-277.828"/>
<polygon fill="midnightblue" stroke="midnightblue" points="1260.71,-274.319 1250.35,-276.523 1259.83,-281.263 1260.71,-274.319"/>
</g>
<!-- Node54 -->
<g id="node55" class="node"><title>Node54</title>
<g id="a_node55"><a xlink:href="VideoAppConfigInterface_8h.html" target="_top" xlink:title="../Utility/VideoAppConfig\lInterface.h">
<polygon fill="white" stroke="black" points="66.5,-123.5 66.5,-153.5 187.5,-153.5 187.5,-123.5 66.5,-123.5"/>
<text text-anchor="start" x="74.5" y="-141.5" font-family="FreeSans" font-size="10.00">../Utility/VideoAppConfig</text>
<text text-anchor="middle" x="127" y="-130.5" font-family="FreeSans" font-size="10.00">Interface.h</text>
</a>
</g>
</g>
<!-- Node0&#45;&gt;Node54 -->
<g id="edge61" class="edge"><title>Node0&#45;&gt;Node54</title>
<path fill="none" stroke="midnightblue" d="M2535.35,-337.986C2134.38,-335.095 252.572,-319.85 202,-288 158.115,-260.361 138.894,-198.433 131.329,-163.917"/>
<polygon fill="midnightblue" stroke="midnightblue" points="134.685,-162.856 129.265,-153.752 127.825,-164.248 134.685,-162.856"/>
</g>
<!-- Node60 -->
<g id="node61" class="node"><title>Node60</title>
<g id="a_node61"><a xlink:href="VideoInputDevice_8h.html" target="_top" xlink:title="../Utility/VideoInputDevice.h">
<polygon fill="white" stroke="black" points="523,-257.5 523,-276.5 659,-276.5 659,-257.5 523,-257.5"/>
<text text-anchor="middle" x="591" y="-264.5" font-family="FreeSans" font-size="10.00">../Utility/VideoInputDevice.h</text>
</a>
</g>
</g>
<!-- Node0&#45;&gt;Node60 -->
<g id="edge71" class="edge"><title>Node0&#45;&gt;Node60</title>
<path fill="none" stroke="midnightblue" d="M2535.27,-337.761C2230.75,-334.554 1082.57,-320.516 721,-288 696.632,-285.809 669.889,-281.948 647.029,-278.2"/>
<polygon fill="midnightblue" stroke="midnightblue" points="647.595,-274.746 637.155,-276.549 646.441,-281.65 647.595,-274.746"/>
</g>
<!-- Node49 -->
<g id="node50" class="node"><title>Node49</title>
<g id="a_node50"><a xlink:href="OCVFeatures2d_8ipp.html" target="_top" xlink:title="OCVFeatures2d.ipp">
<polygon fill="white" stroke="black" points="999.5,-190.5 999.5,-209.5 1100.5,-209.5 1100.5,-190.5 999.5,-190.5"/>
<text text-anchor="middle" x="1050" y="-197.5" font-family="FreeSans" font-size="10.00">OCVFeatures2d.ipp</text>
</a>
</g>
</g>
<!-- Node48&#45;&gt;Node49 -->
<g id="edge49" class="edge"><title>Node48&#45;&gt;Node49</title>
<path fill="none" stroke="midnightblue" d="M1170.54,-257.369C1146.76,-246.248 1105.21,-226.817 1077.65,-213.929"/>
<polygon fill="midnightblue" stroke="midnightblue" points="1079.08,-210.733 1068.53,-209.667 1076.11,-217.074 1079.08,-210.733"/>
</g>
<!-- Node49&#45;&gt;Node5 -->
<g id="edge50" class="edge"><title>Node49&#45;&gt;Node5</title>
<path fill="none" stroke="midnightblue" d="M999.302,-197.302C930.815,-193.915 805.51,-183.837 703,-154 701.117,-153.452 699.205,-152.804 697.302,-152.092"/>
<polygon fill="midnightblue" stroke="midnightblue" points="698.615,-148.847 688.043,-148.15 695.873,-155.288 698.615,-148.847"/>
</g>
<!-- Node49&#45;&gt;Node11 -->
<g id="edge55" class="edge"><title>Node49&#45;&gt;Node11</title>
<path fill="none" stroke="midnightblue" d="M1010.74,-190.475C961.809,-179.849 878.162,-161.685 825.055,-150.152"/>
<polygon fill="midnightblue" stroke="midnightblue" points="825.7,-146.711 815.185,-148.009 824.214,-153.552 825.7,-146.711"/>
</g>
<!-- Node49&#45;&gt;Node17 -->
<g id="edge56" class="edge"><title>Node49&#45;&gt;Node17</title>
<path fill="none" stroke="midnightblue" d="M1083.22,-190.452C1101.86,-183.789 1123.6,-172.473 1135,-154 1157.81,-117.031 1149.71,-63.1618 1143.12,-35.0854"/>
<polygon fill="midnightblue" stroke="midnightblue" points="1146.43,-33.8865 1140.56,-25.061 1139.64,-35.6157 1146.43,-33.8865"/>
</g>
<!-- Node49&#45;&gt;Node18 -->
<g id="edge58" class="edge"><title>Node49&#45;&gt;Node18</title>
<path fill="none" stroke="midnightblue" d="M999.374,-195.285C921.85,-189.179 769.221,-175.508 641,-154 634.659,-152.936 628.003,-151.637 621.48,-150.257"/>
<polygon fill="midnightblue" stroke="midnightblue" points="621.919,-146.771 611.402,-148.046 620.419,-153.608 621.919,-146.771"/>
</g>
<!-- Node49&#45;&gt;Node23 -->
<g id="edge57" class="edge"><title>Node49&#45;&gt;Node23</title>
<path fill="none" stroke="midnightblue" d="M1087.68,-190.475C1134.55,-179.871 1214.61,-161.76 1265.6,-150.224"/>
<polygon fill="midnightblue" stroke="midnightblue" points="1266.41,-153.629 1275.39,-148.009 1264.86,-146.802 1266.41,-153.629"/>
</g>
<!-- Node49&#45;&gt;Node25 -->
<g id="edge60" class="edge"><title>Node49&#45;&gt;Node25</title>
<path fill="none" stroke="midnightblue" d="M999.406,-192.117C964.716,-185.843 918.54,-174.34 882,-154 864.417,-144.213 867.421,-131.1 849,-123 651.947,-36.3508 574.405,-140.901 366,-87 322.121,-75.6511 275.3,-52.2079 245.178,-35.4716"/>
<polygon fill="midnightblue" stroke="midnightblue" points="246.817,-32.3779 236.388,-30.5138 243.378,-38.475 246.817,-32.3779"/>
</g>
<!-- Node49&#45;&gt;Node28 -->
<g id="edge59" class="edge"><title>Node49&#45;&gt;Node28</title>
<path fill="none" stroke="midnightblue" d="M1100.73,-192.873C1165.95,-184.825 1282.63,-169.845 1382,-154 1389.93,-152.736 1398.29,-151.306 1406.48,-149.85"/>
<polygon fill="midnightblue" stroke="midnightblue" points="1407.14,-153.289 1416.36,-148.07 1405.9,-146.4 1407.14,-153.289"/>
</g>
<!-- Node50 -->
<g id="node51" class="node"><title>Node50</title>
<polygon fill="white" stroke="#bfbfbf" points="1079.5,-129 1079.5,-148 1126.5,-148 1126.5,-129 1079.5,-129"/>
<text text-anchor="middle" x="1103" y="-136" font-family="FreeSans" font-size="10.00">iterator</text>
</g>
<!-- Node49&#45;&gt;Node50 -->
<g id="edge51" class="edge"><title>Node49&#45;&gt;Node50</title>
<path fill="none" stroke="midnightblue" d="M1057.59,-190.475C1065.7,-181.373 1078.73,-166.741 1088.76,-155.483"/>
<polygon fill="midnightblue" stroke="midnightblue" points="1091.38,-157.804 1095.42,-148.009 1086.16,-153.148 1091.38,-157.804"/>
</g>
<!-- Node51 -->
<g id="node52" class="node"><title>Node51</title>
<polygon fill="white" stroke="#bfbfbf" points="1183.5,-129 1183.5,-148 1234.5,-148 1234.5,-129 1183.5,-129"/>
<text text-anchor="middle" x="1209" y="-136" font-family="FreeSans" font-size="10.00">numeric</text>
</g>
<!-- Node49&#45;&gt;Node51 -->
<g id="edge52" class="edge"><title>Node49&#45;&gt;Node51</title>
<path fill="none" stroke="midnightblue" d="M1072.78,-190.475C1100.05,-180.269 1145.91,-163.108 1176.8,-151.549"/>
<polygon fill="midnightblue" stroke="midnightblue" points="1178.12,-154.792 1186.26,-148.009 1175.67,-148.236 1178.12,-154.792"/>
</g>
<!-- Node52 -->
<g id="node53" class="node"><title>Node52</title>
<polygon fill="white" stroke="#bfbfbf" points="613,-0.5 613,-30.5 713,-30.5 713,-0.5 613,-0.5"/>
<text text-anchor="start" x="621" y="-18.5" font-family="FreeSans" font-size="10.00">boost/property_tree</text>
<text text-anchor="middle" x="663" y="-7.5" font-family="FreeSans" font-size="10.00">/ptree.hpp</text>
</g>
<!-- Node49&#45;&gt;Node52 -->
<g id="edge53" class="edge"><title>Node49&#45;&gt;Node52</title>
<path fill="none" stroke="midnightblue" d="M1018.94,-190.464C993.01,-182.725 955.504,-170.079 925,-154 904.158,-143.014 902.224,-135.085 882,-123 822.999,-87.7429 750.616,-54.316 705.641,-34.6133"/>
<polygon fill="midnightblue" stroke="midnightblue" points="706.766,-31.2856 696.2,-30.5026 703.971,-37.7037 706.766,-31.2856"/>
</g>
<!-- Node53 -->
<g id="node54" class="node"><title>Node53</title>
<polygon fill="white" stroke="#bfbfbf" points="934.5,-129 934.5,-148 1061.5,-148 1061.5,-129 934.5,-129"/>
<text text-anchor="middle" x="998" y="-136" font-family="FreeSans" font-size="10.00">boost/dynamic_bitset.hpp</text>
</g>
<!-- Node49&#45;&gt;Node53 -->
<g id="edge54" class="edge"><title>Node49&#45;&gt;Node53</title>
<path fill="none" stroke="midnightblue" d="M1042.55,-190.475C1034.67,-181.462 1022.06,-167.025 1012.26,-155.812"/>
<polygon fill="midnightblue" stroke="midnightblue" points="1014.65,-153.236 1005.44,-148.009 1009.38,-157.842 1014.65,-153.236"/>
</g>
<!-- Node55 -->
<g id="node56" class="node"><title>Node55</title>
<g id="a_node56"><a xlink:href="VideoAppConfigInterface_8ipp.html" target="_top" xlink:title="VideoAppConfigInterface.ipp">
<polygon fill="white" stroke="black" points="375.5,-67.5 375.5,-86.5 514.5,-86.5 514.5,-67.5 375.5,-67.5"/>
<text text-anchor="middle" x="445" y="-74.5" font-family="FreeSans" font-size="10.00">VideoAppConfigInterface.ipp</text>
</a>
</g>
</g>
<!-- Node54&#45;&gt;Node55 -->
<g id="edge62" class="edge"><title>Node54&#45;&gt;Node55</title>
<path fill="none" stroke="midnightblue" d="M187.574,-125.747C192.454,-124.813 197.309,-123.888 202,-123 265.758,-110.933 338.996,-97.4179 388.259,-88.3772"/>
<polygon fill="midnightblue" stroke="midnightblue" points="389.19,-91.7648 398.395,-86.5181 387.928,-84.8797 389.19,-91.7648"/>
</g>
<!-- Node55&#45;&gt;Node1 -->
<g id="edge63" class="edge"><title>Node55&#45;&gt;Node1</title>
<path fill="none" stroke="midnightblue" d="M514.599,-68.3753C609.938,-57.7432 772.421,-38.8834 799,-31 800.872,-30.4448 802.771,-29.784 804.659,-29.0551"/>
<polygon fill="midnightblue" stroke="midnightblue" points="806.077,-32.2552 813.813,-25.0162 803.251,-25.8509 806.077,-32.2552"/>
</g>
<!-- Node55&#45;&gt;Node8 -->
<g id="edge65" class="edge"><title>Node55&#45;&gt;Node8</title>
<path fill="none" stroke="midnightblue" d="M376.719,-67.4702C313.176,-59.2276 215.93,-45.8361 132,-31 122.528,-29.3257 112.37,-27.3131 102.84,-25.3276"/>
<polygon fill="midnightblue" stroke="midnightblue" points="103.315,-21.8507 92.8064,-23.2011 101.863,-28.6985 103.315,-21.8507"/>
</g>
<!-- Node55&#45;&gt;Node25 -->
<g id="edge70" class="edge"><title>Node55&#45;&gt;Node25</title>
<path fill="none" stroke="midnightblue" d="M411.76,-67.4751C376.888,-58.5317 321.196,-44.2486 277.624,-33.0738"/>
<polygon fill="midnightblue" stroke="midnightblue" points="278.234,-29.617 267.678,-30.523 276.495,-36.3976 278.234,-29.617"/>
</g>
<!-- Node55&#45;&gt;Node52 -->
<g id="edge67" class="edge"><title>Node55&#45;&gt;Node52</title>
<path fill="none" stroke="midnightblue" d="M476.234,-67.4751C509.19,-58.4803 561.935,-44.0843 602.981,-32.8814"/>
<polygon fill="midnightblue" stroke="midnightblue" points="604.152,-36.1899 612.877,-30.1803 602.309,-29.4369 604.152,-36.1899"/>
</g>
<!-- Node56 -->
<g id="node57" class="node"><title>Node56</title>
<polygon fill="white" stroke="#bfbfbf" points="409,-6 409,-25 481,-25 481,-6 409,-6"/>
<text text-anchor="middle" x="445" y="-13" font-family="FreeSans" font-size="10.00">initializer_list</text>
</g>
<!-- Node55&#45;&gt;Node56 -->
<g id="edge64" class="edge"><title>Node55&#45;&gt;Node56</title>
<path fill="none" stroke="midnightblue" d="M445,-67.4751C445,-59.0803 445,-45.9806 445,-35.1631"/>
<polygon fill="midnightblue" stroke="midnightblue" points="448.5,-35.0091 445,-25.0091 441.5,-35.0091 448.5,-35.0091"/>
</g>
<!-- Node57 -->
<g id="node58" class="node"><title>Node57</title>
<polygon fill="white" stroke="#bfbfbf" points="731.5,-6 731.5,-25 790.5,-25 790.5,-6 731.5,-6"/>
<text text-anchor="middle" x="761" y="-13" font-family="FreeSans" font-size="10.00">stdexcept</text>
</g>
<!-- Node55&#45;&gt;Node57 -->
<g id="edge66" class="edge"><title>Node55&#45;&gt;Node57</title>
<path fill="none" stroke="midnightblue" d="M514.656,-68.5016C571.152,-61.5108 652.525,-49.3706 722,-31 724.815,-30.2556 727.711,-29.3861 730.592,-28.4493"/>
<polygon fill="midnightblue" stroke="midnightblue" points="731.91,-31.6963 740.192,-25.0894 729.597,-25.0893 731.91,-31.6963"/>
</g>
<!-- Node58 -->
<g id="node59" class="node"><title>Node58</title>
<polygon fill="white" stroke="#bfbfbf" points="499.5,-6 499.5,-25 594.5,-25 594.5,-6 499.5,-6"/>
<text text-anchor="middle" x="547" y="-13" font-family="FreeSans" font-size="10.00">boost/optional.hpp</text>
</g>
<!-- Node55&#45;&gt;Node58 -->
<g id="edge68" class="edge"><title>Node55&#45;&gt;Node58</title>
<path fill="none" stroke="midnightblue" d="M459.614,-67.4751C476.353,-57.7106 504.004,-41.5807 523.719,-30.0808"/>
<polygon fill="midnightblue" stroke="midnightblue" points="525.539,-33.0711 532.413,-25.0091 522.012,-27.0246 525.539,-33.0711"/>
</g>
<!-- Node59 -->
<g id="node60" class="node"><title>Node59</title>
<polygon fill="white" stroke="#bfbfbf" points="303,-6 303,-25 391,-25 391,-6 303,-6"/>
<text text-anchor="middle" x="347" y="-13" font-family="FreeSans" font-size="10.00">boost/bimap.hpp</text>
</g>
<!-- Node55&#45;&gt;Node59 -->
<g id="edge69" class="edge"><title>Node55&#45;&gt;Node59</title>
<path fill="none" stroke="midnightblue" d="M430.959,-67.4751C414.949,-57.7548 388.55,-41.7266 369.626,-30.2372"/>
<polygon fill="midnightblue" stroke="midnightblue" points="371.379,-27.2072 361.015,-25.0091 367.746,-33.1907 371.379,-27.2072"/>
</g>
<!-- Node61 -->
<g id="node62" class="node"><title>Node61</title>
<g id="a_node62"><a xlink:href="VideoInputDevice_8ipp.html" target="_top" xlink:title="VideoInputDevice.ipp">
<polygon fill="white" stroke="black" points="402,-190.5 402,-209.5 510,-209.5 510,-190.5 402,-190.5"/>
<text text-anchor="middle" x="456" y="-197.5" font-family="FreeSans" font-size="10.00">VideoInputDevice.ipp</text>
</a>
</g>
</g>
<!-- Node60&#45;&gt;Node61 -->
<g id="edge72" class="edge"><title>Node60&#45;&gt;Node61</title>
<path fill="none" stroke="midnightblue" d="M573.073,-257.369C550.077,-246.296 509.971,-226.986 483.203,-214.098"/>
<polygon fill="midnightblue" stroke="midnightblue" points="484.53,-210.852 474.001,-209.667 481.493,-217.159 484.53,-210.852"/>
</g>
<!-- Node61&#45;&gt;Node16 -->
<g id="edge74" class="edge"><title>Node61&#45;&gt;Node16</title>
<path fill="none" stroke="midnightblue" d="M433.219,-190.475C405.945,-180.269 360.087,-163.108 329.199,-151.549"/>
<polygon fill="midnightblue" stroke="midnightblue" points="330.331,-148.236 319.739,-148.009 327.878,-154.792 330.331,-148.236"/>
</g>
<!-- Node61&#45;&gt;Node17 -->
<g id="edge73" class="edge"><title>Node61&#45;&gt;Node17</title>
<path fill="none" stroke="midnightblue" d="M459.465,-190.477C466.652,-174.052 484.894,-138.291 513,-123 614.553,-67.7486 922.556,-124.253 1032,-87 1066.81,-75.151 1101.15,-48.925 1120.92,-32.0147"/>
<polygon fill="midnightblue" stroke="midnightblue" points="1123.49,-34.4207 1128.7,-25.1963 1118.87,-29.1573 1123.49,-34.4207"/>
</g>
<!-- Node61&#45;&gt;Node18 -->
<g id="edge75" class="edge"><title>Node61&#45;&gt;Node18</title>
<path fill="none" stroke="midnightblue" d="M473.336,-190.475C493.553,-180.534 527.187,-163.995 550.642,-152.461"/>
<polygon fill="midnightblue" stroke="midnightblue" points="552.267,-155.563 559.696,-148.009 549.178,-149.281 552.267,-155.563"/>
</g>
<!-- Node61&#45;&gt;Node54 -->
<g id="edge76" class="edge"><title>Node61&#45;&gt;Node54</title>
<path fill="none" stroke="midnightblue" d="M408.862,-190.475C353.628,-180.486 261.557,-163.835 197.745,-152.294"/>
<polygon fill="midnightblue" stroke="midnightblue" points="198.219,-148.823 187.756,-150.488 196.973,-155.712 198.219,-148.823"/>
</g>
<!-- Node62 -->
<g id="node63" class="node"><title>Node62</title>
<g id="a_node63"><a xlink:href="DecklinkWrapper_8h.html" target="_top" xlink:title="DecklinkWrapper.h">
<polygon fill="white" stroke="black" points="368,-129 368,-148 466,-148 466,-129 368,-129"/>
<text text-anchor="middle" x="417" y="-136" font-family="FreeSans" font-size="10.00">DecklinkWrapper.h</text>
</a>
</g>
</g>
<!-- Node61&#45;&gt;Node62 -->
<g id="edge77" class="edge"><title>Node61&#45;&gt;Node62</title>
<path fill="none" stroke="midnightblue" d="M450.412,-190.475C444.62,-181.638 435.411,-167.589 428.126,-156.475"/>
<polygon fill="midnightblue" stroke="midnightblue" points="430.987,-154.454 422.577,-148.009 425.132,-158.291 430.987,-154.454"/>
</g>
<!-- Node63 -->
<g id="node64" class="node"><title>Node63</title>
<g id="a_node64"><a xlink:href="DecklinkWrapper_8ipp.html" target="_top" xlink:title="DecklinkWrapper.ipp">
<polygon fill="white" stroke="black" points="918.5,-67.5 918.5,-86.5 1023.5,-86.5 1023.5,-67.5 918.5,-67.5"/>
<text text-anchor="middle" x="971" y="-74.5" font-family="FreeSans" font-size="10.00">DecklinkWrapper.ipp</text>
</a>
</g>
</g>
<!-- Node62&#45;&gt;Node63 -->
<g id="edge78" class="edge"><title>Node62&#45;&gt;Node63</title>
<path fill="none" stroke="midnightblue" d="M450.185,-128.98C459.756,-126.763 470.248,-124.562 480,-123 632.755,-98.5355 814.535,-86.1859 908.23,-81.0385"/>
<polygon fill="midnightblue" stroke="midnightblue" points="908.593,-84.5241 918.39,-80.4897 908.216,-77.5343 908.593,-84.5241"/>
</g>
<!-- Node63&#45;&gt;Node1 -->
<g id="edge81" class="edge"><title>Node63&#45;&gt;Node1</title>
<path fill="none" stroke="midnightblue" d="M950.655,-67.4751C926.613,-57.4013 886.403,-40.5525 858.837,-29.0023"/>
<polygon fill="midnightblue" stroke="midnightblue" points="859.883,-25.6457 849.307,-25.0091 857.178,-32.1018 859.883,-25.6457"/>
</g>
<!-- Node63&#45;&gt;Node4 -->
<g id="edge82" class="edge"><title>Node63&#45;&gt;Node4</title>
<path fill="none" stroke="midnightblue" d="M1023.66,-68.6445C1114.74,-55.9242 1298.63,-30.239 1368.86,-20.4297"/>
<polygon fill="midnightblue" stroke="midnightblue" points="1369.71,-23.8458 1379.13,-18.9961 1368.74,-16.9131 1369.71,-23.8458"/>
</g>
<!-- Node63&#45;&gt;Node6 -->
<g id="edge79" class="edge"><title>Node63&#45;&gt;Node6</title>
<path fill="none" stroke="midnightblue" d="M1023.69,-71.0981C1108.2,-63.1619 1279.24,-46.7911 1424,-31 1453.37,-27.7964 1486.67,-23.8149 1511.05,-20.835"/>
<polygon fill="midnightblue" stroke="midnightblue" points="1511.75,-24.2758 1521.25,-19.5837 1510.9,-17.3279 1511.75,-24.2758"/>
</g>
<!-- Node63&#45;&gt;Node17 -->
<g id="edge86" class="edge"><title>Node63&#45;&gt;Node17</title>
<path fill="none" stroke="midnightblue" d="M994.927,-67.4751C1023.7,-57.2246 1072.16,-39.9593 1104.6,-28.3994"/>
<polygon fill="midnightblue" stroke="midnightblue" points="1105.87,-31.6624 1114.12,-25.0091 1103.52,-25.0684 1105.87,-31.6624"/>
</g>
<!-- Node63&#45;&gt;Node57 -->
<g id="edge80" class="edge"><title>Node63&#45;&gt;Node57</title>
<path fill="none" stroke="midnightblue" d="M933.758,-67.4935C898.693,-59.1934 844.853,-45.6985 799,-31 796.588,-30.2267 794.105,-29.3854 791.62,-28.5103"/>
<polygon fill="midnightblue" stroke="midnightblue" points="792.753,-25.1981 782.16,-25.0403 790.343,-31.77 792.753,-25.1981"/>
</g>
<!-- Node64 -->
<g id="node65" class="node"><title>Node64</title>
<polygon fill="white" stroke="#bfbfbf" points="948,-6 948,-25 994,-25 994,-6 948,-6"/>
<text text-anchor="middle" x="971" y="-13" font-family="FreeSans" font-size="10.00">chrono</text>
</g>
<!-- Node63&#45;&gt;Node64 -->
<g id="edge83" class="edge"><title>Node63&#45;&gt;Node64</title>
<path fill="none" stroke="midnightblue" d="M971,-67.4751C971,-59.0803 971,-45.9806 971,-35.1631"/>
<polygon fill="midnightblue" stroke="midnightblue" points="974.5,-35.0091 971,-25.0091 967.5,-35.0091 974.5,-35.0091"/>
</g>
<!-- Node65 -->
<g id="node66" class="node"><title>Node65</title>
<polygon fill="white" stroke="#bfbfbf" points="1012,-6 1012,-25 1056,-25 1056,-6 1012,-6"/>
<text text-anchor="middle" x="1034" y="-13" font-family="FreeSans" font-size="10.00">thread</text>
</g>
<!-- Node63&#45;&gt;Node65 -->
<g id="edge84" class="edge"><title>Node63&#45;&gt;Node65</title>
<path fill="none" stroke="midnightblue" d="M980.026,-67.4751C989.757,-58.285 1005.46,-43.4563 1017.42,-32.156"/>
<polygon fill="midnightblue" stroke="midnightblue" points="1020.12,-34.4199 1024.99,-25.0091 1015.32,-29.3308 1020.12,-34.4199"/>
</g>
<!-- Node66 -->
<g id="node67" class="node"><title>Node66</title>
<polygon fill="white" stroke="#bfbfbf" points="884,-6 884,-25 930,-25 930,-6 884,-6"/>
<text text-anchor="middle" x="907" y="-13" font-family="FreeSans" font-size="10.00">atomic</text>
</g>
<!-- Node63&#45;&gt;Node66 -->
<g id="edge85" class="edge"><title>Node63&#45;&gt;Node66</title>
<path fill="none" stroke="midnightblue" d="M961.83,-67.4751C951.85,-58.1966 935.688,-43.1706 923.491,-31.831"/>
<polygon fill="midnightblue" stroke="midnightblue" points="925.86,-29.2547 916.153,-25.0091 921.093,-34.3814 925.86,-29.2547"/>
</g>
</g>
</svg>
        <g id="navigator" transform="translate(0 0)" fill="#404254">
                <rect fill="#f2f5e9" fill-opacity="0.5" stroke="#606060" stroke-width=".5" x="0" y="0" width="60" height="60"/>
                <use id="zoomplus" xlink:href="#zoomPlus" x="17" y="9" onmousedown="handleZoom(evt,'in')"/>
                <use id="zoomminus" xlink:href="#zoomMin" x="42" y="9" onmousedown="handleZoom(evt,'out')"/>
                <use id="reset" xlink:href="#resetDef" x="30" y="36" onmousedown="handleReset()"/>
                <g id="arrowUp" xlink:href="#dirArrow" transform="translate(30 24)" onmousedown="handlePan(0,-1)">
                  <use xlink:href="#rim" fill="#404040">
                        <set attributeName="fill" to="#808080" begin="arrowUp.mouseover" end="arrowUp.mouseout"/>
                  </use>
                  <path fill="none" stroke="white" stroke-width="1.5" d="M0,-3.0v7 M-2.5,-0.5L0,-3.0L2.5,-0.5"/>
                </g>
                <g id="arrowRight" xlink:href="#dirArrow" transform="rotate(90) translate(36 -43)" onmousedown="handlePan(1,0)">
                  <use xlink:href="#rim" fill="#404040">
                        <set attributeName="fill" to="#808080" begin="arrowRight.mouseover" end="arrowRight.mouseout"/>
                  </use>
                  <path fill="none" stroke="white" stroke-width="1.5" d="M0,-3.0v7 M-2.5,-0.5L0,-3.0L2.5,-0.5"/>
                </g>
                <g id="arrowDown" xlink:href="#dirArrow" transform="rotate(180) translate(-30 -48)" onmousedown="handlePan(0,1)">
                  <use xlink:href="#rim" fill="#404040">
                        <set attributeName="fill" to="#808080" begin="arrowDown.mouseover" end="arrowDown.mouseout"/>
                  </use>
                  <path fill="none" stroke="white" stroke-width="1.5" d="M0,-3.0v7 M-2.5,-0.5L0,-3.0L2.5,-0.5"/>
                </g>
                <g id="arrowLeft" xlink:href="#dirArrow" transform="rotate(270) translate(-36 17)" onmousedown="handlePan(-1,0)">
                  <use xlink:href="#rim" fill="#404040">
                        <set attributeName="fill" to="#808080" begin="arrowLeft.mouseover" end="arrowLeft.mouseout"/>
                  </use>
                  <path fill="none" stroke="white" stroke-width="1.5" d="M0,-3.0v7 M-2.5,-0.5L0,-3.0L2.5,-0.5"/>
                </g>
        </g>
        <svg viewBox="0 0 15 15" width="100%" height="30px" preserveAspectRatio="xMaxYMin meet">
         <g id="arrow_out" transform="scale(0.3 0.3)">
          <a xlink:href="App3dSceneModelBuilder_8cpp__incl_org.svg" target="_base">
           <rect id="button" ry="5" rx="5" y="6" x="6" height="38" width="38"
                fill="#f2f5e9" fill-opacity="0.5" stroke="#606060" stroke-width="1.0"/>
           <path id="arrow"
             d="M 11.500037,31.436501 C 11.940474,20.09759 22.043105,11.32322 32.158766,21.979434 L 37.068811,17.246167 C 37.068811,17.246167 37.088388,32 37.088388,32 L 22.160133,31.978069 C 22.160133,31.978069 26.997745,27.140456 26.997745,27.140456 C 18.528582,18.264221 13.291696,25.230495 11.500037,31.436501 z"
             style="fill:#404040;"/>
          </a>
         </g>
        </svg>
</svg>
