<?xml version="1.0" encoding="UTF-8" standalone="no"?>
<!DOCTYPE svg PUBLIC "-//W3C//DTD SVG 1.1//EN"
 "http://www.w3.org/Graphics/SVG/1.1/DTD/svg11.dtd">
<!-- Generated by graphviz version 2.38.0 (20140413.2041)
 -->
<!-- Title: src/NodalCameraTracker/AppNodalCameraTracker.cpp Pages: 1 -->
<svg width="5238pt" height="352pt"
 viewBox="0.00 0.00 5237.50 352.00" xmlns="http://www.w3.org/2000/svg" xmlns:xlink="http://www.w3.org/1999/xlink">
<g id="graph0" class="graph" transform="scale(1 1) rotate(0) translate(4 348)">
<title>src/NodalCameraTracker/AppNodalCameraTracker.cpp</title>
<polygon fill="white" stroke="none" points="-4,4 -4,-348 5233.5,-348 5233.5,4 -4,4"/>
<!-- Node0 -->
<g id="node1" class="node"><title>Node0</title>
<polygon fill="#bfbfbf" stroke="black" points="2331.5,-313.5 2331.5,-343.5 2478.5,-343.5 2478.5,-313.5 2331.5,-313.5"/>
<text text-anchor="start" x="2339.5" y="-331.5" font-family="FreeSans" font-size="10.00">src/NodalCameraTracker</text>
<text text-anchor="middle" x="2405" y="-320.5" font-family="FreeSans" font-size="10.00">/AppNodalCameraTracker.cpp</text>
</g>
<!-- Node1 -->
<g id="node2" class="node"><title>Node1</title>
<polygon fill="white" stroke="#bfbfbf" points="0,-252 0,-271 54,-271 54,-252 0,-252"/>
<text text-anchor="middle" x="27" y="-259" font-family="FreeSans" font-size="10.00">iostream</text>
</g>
<!-- Node0&#45;&gt;Node1 -->
<g id="edge1" class="edge"><title>Node0&#45;&gt;Node1</title>
<path fill="none" stroke="midnightblue" d="M2331.47,-327.3C1959.59,-326.1 294.74,-318.44 68,-277 64.2911,-276.322 60.4691,-275.357 56.7192,-274.242"/>
<polygon fill="midnightblue" stroke="midnightblue" points="57.6823,-270.874 47.0887,-271.038 55.4721,-277.516 57.6823,-270.874"/>
</g>
<!-- Node2 -->
<g id="node3" class="node"><title>Node2</title>
<polygon fill="white" stroke="#bfbfbf" points="2347.5,-6 2347.5,-25 2388.5,-25 2388.5,-6 2347.5,-6"/>
<text text-anchor="middle" x="2368" y="-13" font-family="FreeSans" font-size="10.00">string</text>
</g>
<!-- Node0&#45;&gt;Node2 -->
<g id="edge2" class="edge"><title>Node0&#45;&gt;Node2</title>
<path fill="none" stroke="midnightblue" d="M2478.71,-325.215C2627.88,-320.015 2955.01,-305.486 2997,-277 3028.25,-255.797 3035,-238.765 3035,-201 3035,-201 3035,-201 3035,-137.5 3035,-71.9656 2530.06,-28.8705 2398.85,-18.7782"/>
<polygon fill="midnightblue" stroke="midnightblue" points="2398.93,-15.274 2388.69,-18.0055 2398.4,-22.2538 2398.93,-15.274"/>
</g>
<!-- Node3 -->
<g id="node4" class="node"><title>Node3</title>
<polygon fill="white" stroke="#bfbfbf" points="1523.5,-129 1523.5,-148 1574.5,-148 1574.5,-129 1523.5,-129"/>
<text text-anchor="middle" x="1549" y="-136" font-family="FreeSans" font-size="10.00">memory</text>
</g>
<!-- Node0&#45;&gt;Node3 -->
<g id="edge3" class="edge"><title>Node0&#45;&gt;Node3</title>
<path fill="none" stroke="midnightblue" d="M2331.17,-326.211C2116.89,-322.113 1508.16,-307.797 1479,-277 1444,-240.041 1499.53,-182.192 1530.47,-154.828"/>
<polygon fill="midnightblue" stroke="midnightblue" points="1532.81,-157.438 1538.1,-148.259 1528.24,-152.134 1532.81,-157.438"/>
</g>
<!-- Node4 -->
<g id="node5" class="node"><title>Node4</title>
<polygon fill="white" stroke="#bfbfbf" points="3647.5,-6 3647.5,-25 3682.5,-25 3682.5,-6 3647.5,-6"/>
<text text-anchor="middle" x="3665" y="-13" font-family="FreeSans" font-size="10.00">map</text>
</g>
<!-- Node0&#45;&gt;Node4 -->
<g id="edge4" class="edge"><title>Node0&#45;&gt;Node4</title>
<path fill="none" stroke="midnightblue" d="M2478.64,-327.257C2890.45,-325.746 4891.58,-316.388 4941,-277 4968.23,-255.301 4960,-235.817 4960,-201 4960,-201 4960,-201 4960,-137.5 4960,-71.5657 3881.74,-25.2112 3693.02,-17.603"/>
<polygon fill="midnightblue" stroke="midnightblue" points="3692.95,-14.0974 3682.81,-17.1946 3692.67,-21.0918 3692.95,-14.0974"/>
</g>
<!-- Node5 -->
<g id="node6" class="node"><title>Node5</title>
<polygon fill="white" stroke="#bfbfbf" points="1174.5,-6 1174.5,-25 1233.5,-25 1233.5,-6 1174.5,-6"/>
<text text-anchor="middle" x="1204" y="-13" font-family="FreeSans" font-size="10.00">functional</text>
</g>
<!-- Node0&#45;&gt;Node5 -->
<g id="edge5" class="edge"><title>Node0&#45;&gt;Node5</title>
<path fill="none" stroke="midnightblue" d="M2331.13,-327.223C2073.29,-325.898 1226.72,-318.402 1187,-277 1153.97,-242.574 1186.76,-88.5976 1199.45,-34.9805"/>
<polygon fill="midnightblue" stroke="midnightblue" points="1202.89,-35.6835 1201.83,-25.1417 1196.08,-34.0427 1202.89,-35.6835"/>
</g>
<!-- Node6 -->
<g id="node7" class="node"><title>Node6</title>
<polygon fill="white" stroke="#bfbfbf" points="4321,-6 4321,-25 4367,-25 4367,-6 4321,-6"/>
<text text-anchor="middle" x="4344" y="-13" font-family="FreeSans" font-size="10.00">chrono</text>
</g>
<!-- Node0&#45;&gt;Node6 -->
<g id="edge6" class="edge"><title>Node0&#45;&gt;Node6</title>
<path fill="none" stroke="midnightblue" d="M2478.52,-327.127C2891.98,-324.9 4910.8,-312.231 4964,-277 4994.85,-256.569 4998,-238.004 4998,-201 4998,-201 4998,-201 4998,-137.5 4998,-73.6994 4510.54,-29.8741 4377.3,-19.0872"/>
<polygon fill="midnightblue" stroke="midnightblue" points="4377.52,-15.5936 4367.28,-18.2837 4376.96,-22.5712 4377.52,-15.5936"/>
</g>
<!-- Node7 -->
<g id="node8" class="node"><title>Node7</title>
<polygon fill="white" stroke="#bfbfbf" points="1098.5,-252 1098.5,-271 1139.5,-271 1139.5,-252 1098.5,-252"/>
<text text-anchor="middle" x="1119" y="-259" font-family="FreeSans" font-size="10.00">future</text>
</g>
<!-- Node0&#45;&gt;Node7 -->
<g id="edge7" class="edge"><title>Node0&#45;&gt;Node7</title>
<path fill="none" stroke="midnightblue" d="M2331.34,-327.91C2098.51,-328.676 1380.48,-326.827 1154,-277 1151.32,-276.411 1148.59,-275.629 1145.89,-274.733"/>
<polygon fill="midnightblue" stroke="midnightblue" points="1147,-271.413 1136.41,-271.127 1144.51,-277.955 1147,-271.413"/>
</g>
<!-- Node8 -->
<g id="node9" class="node"><title>Node8</title>
<polygon fill="white" stroke="#bfbfbf" points="4695,-6 4695,-25 4739,-25 4739,-6 4695,-6"/>
<text text-anchor="middle" x="4717" y="-13" font-family="FreeSans" font-size="10.00">thread</text>
</g>
<!-- Node0&#45;&gt;Node8 -->
<g id="edge8" class="edge"><title>Node0&#45;&gt;Node8</title>
<path fill="none" stroke="midnightblue" d="M2478.56,-327.045C2894.5,-324.351 4935.27,-309.495 4991,-277 5024.91,-257.228 5036,-240.255 5036,-201 5036,-201 5036,-201 5036,-137.5 5036,-76.6323 4830.4,-35.5091 4749.32,-21.6585"/>
<polygon fill="midnightblue" stroke="midnightblue" points="4749.62,-18.1605 4739.18,-19.9585 4748.46,-25.0641 4749.62,-18.1605"/>
</g>
<!-- Node9 -->
<g id="node10" class="node"><title>Node9</title>
<polygon fill="white" stroke="#bfbfbf" points="1593,-129 1593,-148 1631,-148 1631,-129 1593,-129"/>
<text text-anchor="middle" x="1612" y="-136" font-family="FreeSans" font-size="10.00">tuple</text>
</g>
<!-- Node0&#45;&gt;Node9 -->
<g id="edge9" class="edge"><title>Node0&#45;&gt;Node9</title>
<path fill="none" stroke="midnightblue" d="M2331.15,-326.146C2119.11,-321.901 1521.66,-307.291 1493,-277 1451.39,-233.019 1538.91,-177.764 1585.44,-152.812"/>
<polygon fill="midnightblue" stroke="midnightblue" points="1587.19,-155.846 1594.42,-148.1 1583.94,-149.648 1587.19,-155.846"/>
</g>
<!-- Node10 -->
<g id="node11" class="node"><title>Node10</title>
<polygon fill="white" stroke="#bfbfbf" points="3227,-129 3227,-148 3265,-148 3265,-129 3227,-129"/>
<text text-anchor="middle" x="3246" y="-136" font-family="FreeSans" font-size="10.00">array</text>
</g>
<!-- Node0&#45;&gt;Node10 -->
<g id="edge10" class="edge"><title>Node0&#45;&gt;Node10</title>
<path fill="none" stroke="midnightblue" d="M2478.63,-327.338C2875.12,-326.295 4739.73,-319.152 4781,-277 4790.64,-267.155 4790.47,-256.01 4781,-246 4756.3,-219.886 4170.88,-212.173 4135,-210 3754.44,-186.948 3649.36,-244.501 3279,-154 3276.64,-153.423 3274.24,-152.688 3271.86,-151.856"/>
<polygon fill="midnightblue" stroke="midnightblue" points="3272.98,-148.532 3262.39,-148.045 3270.36,-155.026 3272.98,-148.532"/>
</g>
<!-- Node11 -->
<g id="node12" class="node"><title>Node11</title>
<polygon fill="white" stroke="#bfbfbf" points="1649,-129 1649,-148 1693,-148 1693,-129 1649,-129"/>
<text text-anchor="middle" x="1671" y="-136" font-family="FreeSans" font-size="10.00">cmath</text>
</g>
<!-- Node0&#45;&gt;Node11 -->
<g id="edge11" class="edge"><title>Node0&#45;&gt;Node11</title>
<path fill="none" stroke="midnightblue" d="M2331.42,-328.08C2152.18,-328.726 1704.26,-325.427 1659,-277 1628.54,-244.413 1648.72,-186.52 1662,-157.35"/>
<polygon fill="midnightblue" stroke="midnightblue" points="1665.32,-158.533 1666.48,-148.002 1659,-155.511 1665.32,-158.533"/>
</g>
<!-- Node12 -->
<g id="node13" class="node"><title>Node12</title>
<polygon fill="white" stroke="#bfbfbf" points="970.5,-6 970.5,-25 1065.5,-25 1065.5,-6 970.5,-6"/>
<text text-anchor="middle" x="1018" y="-13" font-family="FreeSans" font-size="10.00">boost/optional.hpp</text>
</g>
<!-- Node0&#45;&gt;Node12 -->
<g id="edge12" class="edge"><title>Node0&#45;&gt;Node12</title>
<path fill="none" stroke="midnightblue" d="M2331.46,-326.959C2001.31,-324.343 664.084,-311.679 480,-277 321.672,-247.173 231.601,-285.843 139,-154 32.8419,-2.85542 779.293,-64.1178 961,-31 966.462,-30.0045 972.176,-28.7777 977.787,-27.4628"/>
<polygon fill="midnightblue" stroke="midnightblue" points="978.823,-30.8126 987.701,-25.0317 977.155,-24.014 978.823,-30.8126"/>
</g>
<!-- Node13 -->
<g id="node14" class="node"><title>Node13</title>
<polygon fill="white" stroke="#bfbfbf" points="2816,-129 2816,-148 2944,-148 2944,-129 2816,-129"/>
<text text-anchor="middle" x="2880" y="-136" font-family="FreeSans" font-size="10.00">boost/range/algorithm.hpp</text>
</g>
<!-- Node0&#45;&gt;Node13 -->
<g id="edge13" class="edge"><title>Node0&#45;&gt;Node13</title>
<path fill="none" stroke="midnightblue" d="M2478.54,-326.427C2625.43,-323.517 2943.97,-313.074 2977,-277 3014.62,-235.909 2942.36,-179.732 2903.05,-153.75"/>
<polygon fill="midnightblue" stroke="midnightblue" points="2904.61,-150.589 2894.31,-148.107 2900.81,-156.47 2904.61,-150.589"/>
</g>
<!-- Node14 -->
<g id="node15" class="node"><title>Node14</title>
<polygon fill="white" stroke="#bfbfbf" points="1502,-246.5 1502,-276.5 1612,-276.5 1612,-246.5 1502,-246.5"/>
<text text-anchor="start" x="1510" y="-264.5" font-family="FreeSans" font-size="10.00">boost/range/algorithm</text>
<text text-anchor="middle" x="1557" y="-253.5" font-family="FreeSans" font-size="10.00">_ext.hpp</text>
</g>
<!-- Node0&#45;&gt;Node14 -->
<g id="edge14" class="edge"><title>Node0&#45;&gt;Node14</title>
<path fill="none" stroke="midnightblue" d="M2331.35,-326.215C2192.69,-323.024 1883.64,-312.24 1626,-277 1624.74,-276.827 1623.46,-276.645 1622.18,-276.453"/>
<polygon fill="midnightblue" stroke="midnightblue" points="1622.67,-272.987 1612.24,-274.831 1621.55,-279.896 1622.67,-272.987"/>
</g>
<!-- Node15 -->
<g id="node16" class="node"><title>Node15</title>
<polygon fill="white" stroke="#bfbfbf" points="1711.5,-129 1711.5,-148 1824.5,-148 1824.5,-129 1711.5,-129"/>
<text text-anchor="middle" x="1768" y="-136" font-family="FreeSans" font-size="10.00">boost/lexical_cast.hpp</text>
</g>
<!-- Node0&#45;&gt;Node15 -->
<g id="edge15" class="edge"><title>Node0&#45;&gt;Node15</title>
<path fill="none" stroke="midnightblue" d="M2331.36,-325.546C2182.8,-320.979 1857.91,-307.586 1818,-277 1780.46,-248.228 1771.08,-188.563 1768.75,-158.17"/>
<polygon fill="midnightblue" stroke="midnightblue" points="1772.24,-157.859 1768.16,-148.08 1765.25,-158.267 1772.24,-157.859"/>
</g>
<!-- Node16 -->
<g id="node17" class="node"><title>Node16</title>
<polygon fill="white" stroke="#bfbfbf" points="1668,-252 1668,-271 1748,-271 1748,-252 1668,-252"/>
<text text-anchor="middle" x="1708" y="-259" font-family="FreeSans" font-size="10.00">boost/asio.hpp</text>
</g>
<!-- Node0&#45;&gt;Node16 -->
<g id="edge16" class="edge"><title>Node0&#45;&gt;Node16</title>
<path fill="none" stroke="midnightblue" d="M2331.17,-326.105C2211.04,-322.853 1966.16,-312.119 1762,-277 1756.62,-276.074 1751,-274.855 1745.5,-273.517"/>
<polygon fill="midnightblue" stroke="midnightblue" points="1746.37,-270.127 1735.81,-271.015 1744.62,-276.905 1746.37,-270.127"/>
</g>
<!-- Node17 -->
<g id="node18" class="node"><title>Node17</title>
<polygon fill="white" stroke="#bfbfbf" points="1842.5,-123.5 1842.5,-153.5 1953.5,-153.5 1953.5,-123.5 1842.5,-123.5"/>
<text text-anchor="start" x="1850.5" y="-141.5" font-family="FreeSans" font-size="10.00">boost/math/constants</text>
<text text-anchor="middle" x="1898" y="-130.5" font-family="FreeSans" font-size="10.00">/constants.hpp</text>
</g>
<!-- Node0&#45;&gt;Node17 -->
<g id="edge17" class="edge"><title>Node0&#45;&gt;Node17</title>
<path fill="none" stroke="midnightblue" d="M2331.46,-326.427C2184.57,-323.517 1866.03,-313.074 1833,-277 1801.41,-242.497 1844.68,-189.895 1874.32,-160.77"/>
<polygon fill="midnightblue" stroke="midnightblue" points="1877.06,-162.992 1881.88,-153.554 1872.23,-157.929 1877.06,-162.992"/>
</g>
<!-- Node18 -->
<g id="node19" class="node"><title>Node18</title>
<polygon fill="white" stroke="#bfbfbf" points="2416.5,-129 2416.5,-148 2487.5,-148 2487.5,-129 2416.5,-129"/>
<text text-anchor="middle" x="2452" y="-136" font-family="FreeSans" font-size="10.00">Eigen/Dense</text>
</g>
<!-- Node0&#45;&gt;Node18 -->
<g id="edge18" class="edge"><title>Node0&#45;&gt;Node18</title>
<path fill="none" stroke="midnightblue" d="M2331.42,-322.928C2226.16,-315.627 2042.98,-299.795 2023,-277 2013.92,-266.639 2014.48,-256.831 2023,-246 2076.57,-177.871 2318.25,-176.297 2402,-154 2405.77,-152.995 2409.7,-151.917 2413.61,-150.818"/>
<polygon fill="midnightblue" stroke="midnightblue" points="2414.58,-154.181 2423.24,-148.075 2412.66,-147.449 2414.58,-154.181"/>
</g>
<!-- Node19 -->
<g id="node20" class="node"><title>Node19</title>
<polygon fill="white" stroke="#bfbfbf" points="1361.5,-129 1361.5,-148 1466.5,-148 1466.5,-129 1361.5,-129"/>
<text text-anchor="middle" x="1414" y="-136" font-family="FreeSans" font-size="10.00">opencv2/videoio.hpp</text>
</g>
<!-- Node0&#45;&gt;Node19 -->
<g id="edge19" class="edge"><title>Node0&#45;&gt;Node19</title>
<path fill="none" stroke="midnightblue" d="M2331.42,-326.607C2102.56,-323.473 1416.6,-311.248 1384,-277 1352.52,-243.926 1382.99,-185.869 1401.73,-156.927"/>
<polygon fill="midnightblue" stroke="midnightblue" points="1404.86,-158.557 1407.54,-148.307 1399.05,-154.648 1404.86,-158.557"/>
</g>
<!-- Node20 -->
<g id="node21" class="node"><title>Node20</title>
<polygon fill="white" stroke="#bfbfbf" points="1362.5,-6 1362.5,-25 1455.5,-25 1455.5,-6 1362.5,-6"/>
<text text-anchor="middle" x="1409" y="-13" font-family="FreeSans" font-size="10.00">opencv2/core.hpp</text>
</g>
<!-- Node0&#45;&gt;Node20 -->
<g id="edge20" class="edge"><title>Node0&#45;&gt;Node20</title>
<path fill="none" stroke="midnightblue" d="M2331.13,-326.278C2114.43,-322.334 1493.7,-308.337 1464,-277 1416.8,-227.196 1493.79,-188.996 1475,-123 1464.93,-87.6457 1439.4,-52.5589 1423.2,-32.7926"/>
<polygon fill="midnightblue" stroke="midnightblue" points="1425.82,-30.4709 1416.71,-25.0727 1420.47,-34.9778 1425.82,-30.4709"/>
</g>
<!-- Node21 -->
<g id="node22" class="node"><title>Node21</title>
<polygon fill="white" stroke="#bfbfbf" points="2032.5,-252 2032.5,-271 2173.5,-271 2173.5,-252 2032.5,-252"/>
<text text-anchor="middle" x="2103" y="-259" font-family="FreeSans" font-size="10.00">opencv2/cudafeatures2d.hpp</text>
</g>
<!-- Node0&#45;&gt;Node21 -->
<g id="edge21" class="edge"><title>Node0&#45;&gt;Node21</title>
<path fill="none" stroke="midnightblue" d="M2339.84,-313.476C2283.6,-301.37 2203.56,-284.143 2152.45,-273.142"/>
<polygon fill="midnightblue" stroke="midnightblue" points="2153.14,-269.711 2142.63,-271.029 2151.67,-276.555 2153.14,-269.711"/>
</g>
<!-- Node22 -->
<g id="node23" class="node"><title>Node22</title>
<polygon fill="white" stroke="#bfbfbf" points="2192,-252 2192,-271 2322,-271 2322,-252 2192,-252"/>
<text text-anchor="middle" x="2257" y="-259" font-family="FreeSans" font-size="10.00">opencv2/cudaimgproc.hpp</text>
</g>
<!-- Node0&#45;&gt;Node22 -->
<g id="edge22" class="edge"><title>Node0&#45;&gt;Node22</title>
<path fill="none" stroke="midnightblue" d="M2372.89,-313.396C2346.92,-301.991 2310.69,-286.079 2285.68,-275.098"/>
<polygon fill="midnightblue" stroke="midnightblue" points="2286.93,-271.824 2276.37,-271.007 2284.12,-278.233 2286.93,-271.824"/>
</g>
<!-- Node23 -->
<g id="node24" class="node"><title>Node23</title>
<polygon fill="white" stroke="#bfbfbf" points="2340.5,-252 2340.5,-271 2469.5,-271 2469.5,-252 2340.5,-252"/>
<text text-anchor="middle" x="2405" y="-259" font-family="FreeSans" font-size="10.00">opencv2/cudawarping.hpp</text>
</g>
<!-- Node0&#45;&gt;Node23 -->
<g id="edge23" class="edge"><title>Node0&#45;&gt;Node23</title>
<path fill="none" stroke="midnightblue" d="M2405,-313.396C2405,-304.064 2405,-291.714 2405,-281.517"/>
<polygon fill="midnightblue" stroke="midnightblue" points="2408.5,-281.195 2405,-271.195 2401.5,-281.195 2408.5,-281.195"/>
</g>
<!-- Node24 -->
<g id="node25" class="node"><title>Node24</title>
<polygon fill="white" stroke="#bfbfbf" points="2487.5,-252 2487.5,-271 2592.5,-271 2592.5,-252 2487.5,-252"/>
<text text-anchor="middle" x="2540" y="-259" font-family="FreeSans" font-size="10.00">opencv2/highgui.hpp</text>
</g>
<!-- Node0&#45;&gt;Node24 -->
<g id="edge24" class="edge"><title>Node0&#45;&gt;Node24</title>
<path fill="none" stroke="midnightblue" d="M2434.29,-313.396C2457.77,-302.092 2490.44,-286.361 2513.23,-275.39"/>
<polygon fill="midnightblue" stroke="midnightblue" points="2514.84,-278.499 2522.33,-271.007 2511.8,-272.192 2514.84,-278.499"/>
</g>
<!-- Node25 -->
<g id="node26" class="node"><title>Node25</title>
<polygon fill="white" stroke="#bfbfbf" points="2611,-246.5 2611,-276.5 2715,-276.5 2715,-246.5 2611,-246.5"/>
<text text-anchor="start" x="2619" y="-264.5" font-family="FreeSans" font-size="10.00">SeeSaw/Application</text>
<text text-anchor="middle" x="2663" y="-253.5" font-family="FreeSans" font-size="10.00">/Application.h</text>
</g>
<!-- Node0&#45;&gt;Node25 -->
<g id="edge25" class="edge"><title>Node0&#45;&gt;Node25</title>
<path fill="none" stroke="midnightblue" d="M2460.66,-313.476C2502.03,-303.054 2558.46,-288.837 2601.22,-278.064"/>
<polygon fill="midnightblue" stroke="midnightblue" points="2602.11,-281.45 2610.95,-275.613 2600.4,-274.662 2602.11,-281.45"/>
</g>
<!-- Node26 -->
<g id="node27" class="node"><title>Node26</title>
<polygon fill="white" stroke="#bfbfbf" points="244.5,-0.5 244.5,-30.5 387.5,-30.5 387.5,-0.5 244.5,-0.5"/>
<text text-anchor="start" x="252.5" y="-18.5" font-family="FreeSans" font-size="10.00">SeeSaw/ApplicationInterface</text>
<text text-anchor="middle" x="316" y="-7.5" font-family="FreeSans" font-size="10.00">/InterfaceUtility.h</text>
</g>
<!-- Node0&#45;&gt;Node26 -->
<g id="edge26" class="edge"><title>Node0&#45;&gt;Node26</title>
<path fill="none" stroke="midnightblue" d="M2331.46,-327.487C1977.62,-327.196 458.963,-323.24 253,-277 171.852,-258.782 82,-284.168 82,-201 82,-201 82,-201 82,-137.5 82,-67.1359 166.517,-37.6442 233.964,-25.3118"/>
<polygon fill="midnightblue" stroke="midnightblue" points="234.943,-28.6946 244.202,-23.545 233.752,-21.7966 234.943,-28.6946"/>
</g>
<!-- Node27 -->
<g id="node28" class="node"><title>Node27</title>
<polygon fill="white" stroke="#bfbfbf" points="2771.5,-246.5 2771.5,-276.5 2968.5,-276.5 2968.5,-246.5 2771.5,-246.5"/>
<text text-anchor="start" x="2779.5" y="-264.5" font-family="FreeSans" font-size="10.00">SeeSaw/ApplicationInterface</text>
<text text-anchor="middle" x="2870" y="-253.5" font-family="FreeSans" font-size="10.00">/InterfaceNodalCameraTrackingPipeline.h</text>
</g>
<!-- Node0&#45;&gt;Node27 -->
<g id="edge27" class="edge"><title>Node0&#45;&gt;Node27</title>
<path fill="none" stroke="midnightblue" d="M2478.68,-317.201C2554.68,-306.578 2674.03,-289.893 2760.96,-277.742"/>
<polygon fill="midnightblue" stroke="midnightblue" points="2761.71,-281.172 2771.13,-276.321 2760.74,-274.239 2761.71,-281.172"/>
</g>
<!-- Node28 -->
<g id="node29" class="node"><title>Node28</title>
<polygon fill="white" stroke="#bfbfbf" points="148,-129 148,-148 288,-148 288,-129 148,-129"/>
<text text-anchor="middle" x="218" y="-136" font-family="FreeSans" font-size="10.00">SeeSaw/Elements/Feature.h</text>
</g>
<!-- Node0&#45;&gt;Node28 -->
<g id="edge28" class="edge"><title>Node0&#45;&gt;Node28</title>
<path fill="none" stroke="midnightblue" d="M2331.27,-326.821C2013.7,-323.708 770.814,-309.536 599,-277 460.573,-250.787 305.462,-181.388 244.564,-152.453"/>
<polygon fill="midnightblue" stroke="midnightblue" points="245.819,-149.174 235.288,-148.011 242.796,-155.487 245.819,-149.174"/>
</g>
<!-- Node29 -->
<g id="node30" class="node"><title>Node29</title>
<polygon fill="white" stroke="#bfbfbf" points="2584.5,-129 2584.5,-148 2725.5,-148 2725.5,-129 2584.5,-129"/>
<text text-anchor="middle" x="2655" y="-136" font-family="FreeSans" font-size="10.00">SeeSaw/Elements/Camera.h</text>
</g>
<!-- Node0&#45;&gt;Node29 -->
<g id="edge29" class="edge"><title>Node0&#45;&gt;Node29</title>
<path fill="none" stroke="midnightblue" d="M2478.71,-326.489C2562.91,-323.588 2693.09,-313.187 2724,-277 2756.82,-238.574 2703.43,-181.837 2673.34,-154.847"/>
<polygon fill="midnightblue" stroke="midnightblue" points="2675.4,-151.998 2665.56,-148.064 2670.8,-157.274 2675.4,-151.998"/>
</g>
<!-- Node30 -->
<g id="node31" class="node"><title>Node30</title>
<polygon fill="white" stroke="#bfbfbf" points="3063.5,-246.5 3063.5,-276.5 3256.5,-276.5 3256.5,-246.5 3063.5,-246.5"/>
<text text-anchor="start" x="3071.5" y="-264.5" font-family="FreeSans" font-size="10.00">SeeSaw/GeometryEstimation</text>
<text text-anchor="middle" x="3160" y="-253.5" font-family="FreeSans" font-size="10.00">Pipeline/NodalCameraTrackingPipeline.h</text>
</g>
<!-- Node0&#45;&gt;Node30 -->
<g id="edge30" class="edge"><title>Node0&#45;&gt;Node30</title>
<path fill="none" stroke="midnightblue" d="M2478.51,-322.975C2598.22,-315.329 2842.65,-298.554 3049,-277 3050.48,-276.845 3051.97,-276.687 3053.47,-276.525"/>
<polygon fill="midnightblue" stroke="midnightblue" points="3053.92,-279.997 3063.47,-275.413 3053.15,-273.04 3053.92,-279.997"/>
</g>
<!-- Node31 -->
<g id="node32" class="node"><title>Node31</title>
<polygon fill="white" stroke="#bfbfbf" points="3274.5,-246.5 3274.5,-276.5 3429.5,-276.5 3429.5,-246.5 3274.5,-246.5"/>
<text text-anchor="start" x="3282.5" y="-264.5" font-family="FreeSans" font-size="10.00">SeeSaw/GeometryEstimation</text>
<text text-anchor="middle" x="3352" y="-253.5" font-family="FreeSans" font-size="10.00">Components/P2PComponents.h</text>
</g>
<!-- Node0&#45;&gt;Node31 -->
<g id="edge31" class="edge"><title>Node0&#45;&gt;Node31</title>
<path fill="none" stroke="midnightblue" d="M2478.65,-325.871C2626.05,-322.024 2967.89,-310.161 3264.16,-277.133"/>
<polygon fill="midnightblue" stroke="midnightblue" points="3264.69,-280.596 3274.24,-275.999 3263.91,-273.639 3264.69,-280.596"/>
</g>
<!-- Node32 -->
<g id="node33" class="node"><title>Node32</title>
<polygon fill="white" stroke="#bfbfbf" points="3448,-246.5 3448,-276.5 3606,-276.5 3606,-246.5 3448,-246.5"/>
<text text-anchor="start" x="3456" y="-264.5" font-family="FreeSans" font-size="10.00">SeeSaw/GeometryEstimation</text>
<text text-anchor="middle" x="3527" y="-253.5" font-family="FreeSans" font-size="10.00">Components/P2PfComponents.h</text>
</g>
<!-- Node0&#45;&gt;Node32 -->
<g id="edge32" class="edge"><title>Node0&#45;&gt;Node32</title>
<path fill="none" stroke="midnightblue" d="M2478.56,-326.796C2646.76,-324.56 3072.44,-315.361 3437.92,-277.027"/>
<polygon fill="midnightblue" stroke="midnightblue" points="3438.33,-280.504 3447.9,-275.972 3437.59,-273.543 3438.33,-280.504"/>
</g>
<!-- Node33 -->
<g id="node34" class="node"><title>Node33</title>
<polygon fill="white" stroke="#bfbfbf" points="3624.5,-252 3624.5,-271 3787.5,-271 3787.5,-252 3624.5,-252"/>
<text text-anchor="middle" x="3706" y="-259" font-family="FreeSans" font-size="10.00">SeeSaw/Geometry/Projection32.h</text>
</g>
<!-- Node0&#45;&gt;Node33 -->
<g id="edge33" class="edge"><title>Node0&#45;&gt;Node33</title>
<path fill="none" stroke="midnightblue" d="M2478.52,-327.404C2667.58,-326.512 3185.87,-319.997 3615,-277 3625.97,-275.901 3637.63,-274.343 3648.81,-272.653"/>
<polygon fill="midnightblue" stroke="midnightblue" points="3649.57,-276.077 3658.91,-271.073 3648.48,-269.161 3649.57,-276.077"/>
</g>
<!-- Node34 -->
<g id="node35" class="node"><title>Node34</title>
<polygon fill="white" stroke="#bfbfbf" points="3805.5,-246.5 3805.5,-276.5 3954.5,-276.5 3954.5,-246.5 3805.5,-246.5"/>
<text text-anchor="start" x="3813.5" y="-264.5" font-family="FreeSans" font-size="10.00">SeeSaw/Matcher/SceneImage</text>
<text text-anchor="middle" x="3880" y="-253.5" font-family="FreeSans" font-size="10.00">FeatureMatchingProblem.h</text>
</g>
<!-- Node0&#45;&gt;Node34 -->
<g id="edge34" class="edge"><title>Node0&#45;&gt;Node34</title>
<path fill="none" stroke="midnightblue" d="M2478.6,-326.159C2724.62,-321.472 3518.01,-304.641 3795.37,-277.054"/>
<polygon fill="midnightblue" stroke="midnightblue" points="3795.82,-280.526 3805.41,-276.026 3795.11,-273.562 3795.82,-280.526"/>
</g>
<!-- Node35 -->
<g id="node36" class="node"><title>Node35</title>
<polygon fill="white" stroke="#bfbfbf" points="3972.5,-246.5 3972.5,-276.5 4109.5,-276.5 4109.5,-246.5 3972.5,-246.5"/>
<text text-anchor="start" x="3980.5" y="-264.5" font-family="FreeSans" font-size="10.00">SeeSaw/Metrics/Geometric</text>
<text text-anchor="middle" x="4041" y="-253.5" font-family="FreeSans" font-size="10.00">Constraint.h</text>
</g>
<!-- Node0&#45;&gt;Node35 -->
<g id="edge35" class="edge"><title>Node0&#45;&gt;Node35</title>
<path fill="none" stroke="midnightblue" d="M2478.92,-326.614C2744.41,-323.198 3650.1,-309.48 3961.84,-277.102"/>
<polygon fill="midnightblue" stroke="midnightblue" points="3962.66,-280.535 3972.23,-275.992 3961.92,-273.575 3962.66,-280.535"/>
</g>
<!-- Node36 -->
<g id="node37" class="node"><title>Node36</title>
<polygon fill="white" stroke="#bfbfbf" points="4127.5,-252 4127.5,-271 4264.5,-271 4264.5,-252 4127.5,-252"/>
<text text-anchor="middle" x="4196" y="-259" font-family="FreeSans" font-size="10.00">SeeSaw/Metrics/Distance.h</text>
</g>
<!-- Node0&#45;&gt;Node36 -->
<g id="edge36" class="edge"><title>Node0&#45;&gt;Node36</title>
<path fill="none" stroke="midnightblue" d="M2478.81,-326.866C2763.95,-324.177 3793.8,-312.191 4119,-277 4128.14,-276.011 4137.81,-274.534 4147.11,-272.896"/>
<polygon fill="midnightblue" stroke="midnightblue" points="4147.81,-276.327 4157,-271.07 4146.54,-269.443 4147.81,-276.327"/>
</g>
<!-- Node37 -->
<g id="node38" class="node"><title>Node37</title>
<polygon fill="white" stroke="#bfbfbf" points="4282.5,-252 4282.5,-271 4431.5,-271 4431.5,-252 4282.5,-252"/>
<text text-anchor="middle" x="4357" y="-259" font-family="FreeSans" font-size="10.00">SeeSaw/IO/SceneFeatureIO.h</text>
</g>
<!-- Node0&#45;&gt;Node37 -->
<g id="edge37" class="edge"><title>Node0&#45;&gt;Node37</title>
<path fill="none" stroke="midnightblue" d="M2478.7,-326.947C2779.68,-324.464 3916.51,-312.863 4274,-277 4284.04,-275.993 4294.7,-274.475 4304.91,-272.795"/>
<polygon fill="midnightblue" stroke="midnightblue" points="4305.68,-276.216 4314.94,-271.074 4304.49,-269.316 4305.68,-276.216"/>
</g>
<!-- Node38 -->
<g id="node39" class="node"><title>Node38</title>
<polygon fill="white" stroke="#bfbfbf" points="4450,-252 4450,-271 4572,-271 4572,-252 4450,-252"/>
<text text-anchor="middle" x="4511" y="-259" font-family="FreeSans" font-size="10.00">SeeSaw/IO/CameraIO.h</text>
</g>
<!-- Node0&#45;&gt;Node38 -->
<g id="edge38" class="edge"><title>Node0&#45;&gt;Node38</title>
<path fill="none" stroke="midnightblue" d="M2478.52,-327.444C2795.8,-326.932 4049.45,-322.04 4441,-277 4449.15,-276.062 4457.76,-274.642 4466.05,-273.05"/>
<polygon fill="midnightblue" stroke="midnightblue" points="4466.84,-276.461 4475.95,-271.045 4465.45,-269.6 4466.84,-276.461"/>
</g>
<!-- Node39 -->
<g id="node40" class="node"><title>Node39</title>
<polygon fill="white" stroke="#bfbfbf" points="4590.5,-252 4590.5,-271 4771.5,-271 4771.5,-252 4590.5,-252"/>
<text text-anchor="middle" x="4681" y="-259" font-family="FreeSans" font-size="10.00">SeeSaw/Wrappers/BoostFilesystem.h</text>
</g>
<!-- Node0&#45;&gt;Node39 -->
<g id="edge39" class="edge"><title>Node0&#45;&gt;Node39</title>
<path fill="none" stroke="midnightblue" d="M2478.73,-326.987C2809.56,-324.499 4159.25,-312.34 4581,-277 4593.76,-275.931 4607.37,-274.293 4620.31,-272.497"/>
<polygon fill="midnightblue" stroke="midnightblue" points="4621.12,-275.917 4630.52,-271.031 4620.12,-268.988 4621.12,-275.917"/>
</g>
<!-- Node40 -->
<g id="node41" class="node"><title>Node40</title>
<g id="a_node41"><a xlink:href="OCVFeatures2d_8h.html" target="_top" xlink:title="../Utility/OCVFeatures2d.h">
<polygon fill="white" stroke="black" points="608.5,-252 608.5,-271 737.5,-271 737.5,-252 608.5,-252"/>
<text text-anchor="middle" x="673" y="-259" font-family="FreeSans" font-size="10.00">../Utility/OCVFeatures2d.h</text>
</a>
</g>
</g>
<!-- Node0&#45;&gt;Node40 -->
<g id="edge40" class="edge"><title>Node0&#45;&gt;Node40</title>
<path fill="none" stroke="midnightblue" d="M2331.15,-324.746C2127.82,-317.163 1542.55,-295.317 1056,-277 948.932,-272.969 825.028,-268.272 747.827,-265.342"/>
<polygon fill="midnightblue" stroke="midnightblue" points="747.842,-261.84 737.717,-264.958 747.577,-268.835 747.842,-261.84"/>
</g>
<!-- Node49 -->
<g id="node50" class="node"><title>Node49</title>
<g id="a_node50"><a xlink:href="VideoAppConfigInterface_8h.html" target="_top" xlink:title="../Utility/VideoAppConfig\lInterface.h">
<polygon fill="white" stroke="black" points="1029.5,-123.5 1029.5,-153.5 1150.5,-153.5 1150.5,-123.5 1029.5,-123.5"/>
<text text-anchor="start" x="1037.5" y="-141.5" font-family="FreeSans" font-size="10.00">../Utility/VideoAppConfig</text>
<text text-anchor="middle" x="1090" y="-130.5" font-family="FreeSans" font-size="10.00">Interface.h</text>
</a>
</g>
</g>
<!-- Node0&#45;&gt;Node49 -->
<g id="edge53" class="edge"><title>Node0&#45;&gt;Node49</title>
<path fill="none" stroke="midnightblue" d="M2331.35,-327.463C2060.38,-326.971 1132.3,-321.996 1089,-277 1060.15,-247.02 1071.05,-194.125 1080.94,-163.416"/>
<polygon fill="midnightblue" stroke="midnightblue" points="1084.27,-164.511 1084.2,-153.917 1077.65,-162.24 1084.27,-164.511"/>
</g>
<!-- Node54 -->
<g id="node55" class="node"><title>Node54</title>
<g id="a_node55"><a xlink:href="VideoInputDevice_8h.html" target="_top" xlink:title="../Utility/VideoInputDevice.h">
<polygon fill="white" stroke="black" points="1196,-252 1196,-271 1332,-271 1332,-252 1196,-252"/>
<text text-anchor="middle" x="1264" y="-259" font-family="FreeSans" font-size="10.00">../Utility/VideoInputDevice.h</text>
</a>
</g>
</g>
<!-- Node0&#45;&gt;Node54 -->
<g id="edge63" class="edge"><title>Node0&#45;&gt;Node54</title>
<path fill="none" stroke="midnightblue" d="M2331.24,-327.208C2158.48,-325.823 1714.36,-318.182 1346,-277 1336.4,-275.927 1326.23,-274.427 1316.44,-272.795"/>
<polygon fill="midnightblue" stroke="midnightblue" points="1316.86,-269.317 1306.41,-271.06 1315.67,-276.214 1316.86,-269.317"/>
</g>
<!-- Node60 -->
<g id="node61" class="node"><title>Node60</title>
<g id="a_node61"><a xlink:href="BrainstormRemoteMaps_8h.html" target="_top" xlink:title="../Utility/BrainstormRemote\lMaps.h">
<polygon fill="white" stroke="black" points="1842.5,-246.5 1842.5,-276.5 1975.5,-276.5 1975.5,-246.5 1842.5,-246.5"/>
<text text-anchor="start" x="1850.5" y="-264.5" font-family="FreeSans" font-size="10.00">../Utility/BrainstormRemote</text>
<text text-anchor="middle" x="1909" y="-253.5" font-family="FreeSans" font-size="10.00">Maps.h</text>
</a>
</g>
</g>
<!-- Node0&#45;&gt;Node60 -->
<g id="edge79" class="edge"><title>Node0&#45;&gt;Node60</title>
<path fill="none" stroke="midnightblue" d="M2331.37,-319.801C2248.27,-310.819 2109.15,-294.899 1990,-277 1988.54,-276.781 1987.07,-276.556 1985.59,-276.327"/>
<polygon fill="midnightblue" stroke="midnightblue" points="1986.12,-272.867 1975.7,-274.745 1985.02,-279.78 1986.12,-272.867"/>
</g>
<!-- Node66 -->
<g id="node67" class="node"><title>Node66</title>
<g id="a_node67"><a xlink:href="PoseFilter_8h.html" target="_top" xlink:title="../Utility/PoseFilter.h">
<polygon fill="white" stroke="black" points="4828,-252 4828,-271 4932,-271 4932,-252 4828,-252"/>
<text text-anchor="middle" x="4880" y="-259" font-family="FreeSans" font-size="10.00">../Utility/PoseFilter.h</text>
</a>
</g>
</g>
<!-- Node0&#45;&gt;Node66 -->
<g id="edge98" class="edge"><title>Node0&#45;&gt;Node66</title>
<path fill="none" stroke="midnightblue" d="M2478.51,-326.815C2857.03,-323.17 4577.62,-305.169 4814,-277 4821.61,-276.093 4829.64,-274.703 4837.38,-273.138"/>
<polygon fill="midnightblue" stroke="midnightblue" points="4838.27,-276.525 4847.32,-271.003 4836.8,-269.681 4838.27,-276.525"/>
</g>
<!-- Node74 -->
<g id="node75" class="node"><title>Node74</title>
<polygon fill="white" stroke="#bfbfbf" points="5064.5,-252 5064.5,-271 5229.5,-271 5229.5,-252 5064.5,-252"/>
<text text-anchor="middle" x="5147" y="-259" font-family="FreeSans" font-size="10.00">SeeSaw/Elements/FeatureUtility.h</text>
</g>
<!-- Node0&#45;&gt;Node74 -->
<g id="edge110" class="edge"><title>Node0&#45;&gt;Node74</title>
<path fill="none" stroke="midnightblue" d="M2478.52,-327.383C2850.78,-326.592 4530.25,-320.625 5050,-277 5062.45,-275.955 5075.73,-274.318 5088.35,-272.513"/>
<polygon fill="midnightblue" stroke="midnightblue" points="5088.92,-275.968 5098.3,-271.039 5087.89,-269.043 5088.92,-275.968"/>
</g>
<!-- Node41 -->
<g id="node42" class="node"><title>Node41</title>
<g id="a_node42"><a xlink:href="OCVFeatures2d_8ipp.html" target="_top" xlink:title="OCVFeatures2d.ipp">
<polygon fill="white" stroke="black" points="615.5,-190.5 615.5,-209.5 716.5,-209.5 716.5,-190.5 615.5,-190.5"/>
<text text-anchor="middle" x="666" y="-197.5" font-family="FreeSans" font-size="10.00">OCVFeatures2d.ipp</text>
</a>
</g>
</g>
<!-- Node40&#45;&gt;Node41 -->
<g id="edge41" class="edge"><title>Node40&#45;&gt;Node41</title>
<path fill="none" stroke="midnightblue" d="M671.997,-251.975C671.009,-243.58 669.468,-230.481 668.196,-219.663"/>
<polygon fill="midnightblue" stroke="midnightblue" points="671.646,-219.032 667.001,-209.509 664.694,-219.85 671.646,-219.032"/>
</g>
<!-- Node41&#45;&gt;Node13 -->
<g id="edge47" class="edge"><title>Node41&#45;&gt;Node13</title>
<path fill="none" stroke="midnightblue" d="M716.835,-198.129C1014.68,-192.998 2527.33,-166.493 2734,-154 2757.37,-152.588 2782.77,-150.321 2805.74,-147.995"/>
<polygon fill="midnightblue" stroke="midnightblue" points="2806.17,-151.469 2815.76,-146.961 2805.46,-144.505 2806.17,-151.469"/>
</g>
<!-- Node41&#45;&gt;Node20 -->
<g id="edge48" class="edge"><title>Node41&#45;&gt;Node20</title>
<path fill="none" stroke="midnightblue" d="M698.58,-190.452C724.566,-182.897 761.386,-170.51 791,-154 810.34,-143.218 809.583,-131.568 830,-123 950.166,-72.57 992.823,-110.533 1121,-87 1210.61,-70.5481 1313.97,-43.148 1369.24,-27.801"/>
<polygon fill="midnightblue" stroke="midnightblue" points="1370.29,-31.1404 1378.98,-25.081 1368.41,-24.3981 1370.29,-31.1404"/>
</g>
<!-- Node41&#45;&gt;Node26 -->
<g id="edge52" class="edge"><title>Node41&#45;&gt;Node26</title>
<path fill="none" stroke="midnightblue" d="M615.189,-199.302C532.308,-198.658 373.384,-192.3 335,-154 305.244,-124.309 307.217,-71.2411 311.495,-40.4386"/>
<polygon fill="midnightblue" stroke="midnightblue" points="314.954,-40.9701 313.056,-30.5467 308.04,-39.8788 314.954,-40.9701"/>
</g>
<!-- Node41&#45;&gt;Node28 -->
<g id="edge51" class="edge"><title>Node41&#45;&gt;Node28</title>
<path fill="none" stroke="midnightblue" d="M615.255,-193.504C544.818,-185.698 413.491,-170.505 302,-154 293.278,-152.709 284.066,-151.233 275.065,-149.729"/>
<polygon fill="midnightblue" stroke="midnightblue" points="275.473,-146.249 265.029,-148.027 274.303,-153.15 275.473,-146.249"/>
</g>
<!-- Node42 -->
<g id="node43" class="node"><title>Node42</title>
<polygon fill="white" stroke="#bfbfbf" points="967,-129 967,-148 1011,-148 1011,-129 967,-129"/>
<text text-anchor="middle" x="989" y="-136" font-family="FreeSans" font-size="10.00">vector</text>
</g>
<!-- Node41&#45;&gt;Node42 -->
<g id="edge42" class="edge"><title>Node41&#45;&gt;Node42</title>
<path fill="none" stroke="midnightblue" d="M716.601,-195.37C775.384,-190.197 874.811,-178.476 957,-154 958.929,-153.426 960.892,-152.758 962.849,-152.032"/>
<polygon fill="midnightblue" stroke="midnightblue" points="964.504,-155.134 972.39,-148.059 961.813,-148.672 964.504,-155.134"/>
</g>
<!-- Node43 -->
<g id="node44" class="node"><title>Node43</title>
<polygon fill="white" stroke="#bfbfbf" points="482.5,-129 482.5,-148 529.5,-148 529.5,-129 482.5,-129"/>
<text text-anchor="middle" x="506" y="-136" font-family="FreeSans" font-size="10.00">iterator</text>
</g>
<!-- Node41&#45;&gt;Node43 -->
<g id="edge43" class="edge"><title>Node41&#45;&gt;Node43</title>
<path fill="none" stroke="midnightblue" d="M642.583,-190.451C618.001,-181.455 578.241,-166.847 544,-154 542.116,-153.293 540.18,-152.564 538.228,-151.826"/>
<polygon fill="midnightblue" stroke="midnightblue" points="539.08,-148.406 528.489,-148.129 536.596,-154.95 539.08,-148.406"/>
</g>
<!-- Node44 -->
<g id="node45" class="node"><title>Node44</title>
<polygon fill="white" stroke="#bfbfbf" points="586.5,-129 586.5,-148 637.5,-148 637.5,-129 586.5,-129"/>
<text text-anchor="middle" x="612" y="-136" font-family="FreeSans" font-size="10.00">numeric</text>
</g>
<!-- Node41&#45;&gt;Node44 -->
<g id="edge44" class="edge"><title>Node41&#45;&gt;Node44</title>
<path fill="none" stroke="midnightblue" d="M658.263,-190.475C650.003,-181.373 636.723,-166.741 626.506,-155.483"/>
<polygon fill="midnightblue" stroke="midnightblue" points="629.035,-153.062 619.723,-148.009 623.851,-157.766 629.035,-153.062"/>
</g>
<!-- Node45 -->
<g id="node46" class="node"><title>Node45</title>
<polygon fill="white" stroke="#bfbfbf" points="627,-0.5 627,-30.5 727,-30.5 727,-0.5 627,-0.5"/>
<text text-anchor="start" x="635" y="-18.5" font-family="FreeSans" font-size="10.00">boost/property_tree</text>
<text text-anchor="middle" x="677" y="-7.5" font-family="FreeSans" font-size="10.00">/ptree.hpp</text>
</g>
<!-- Node41&#45;&gt;Node45 -->
<g id="edge45" class="edge"><title>Node41&#45;&gt;Node45</title>
<path fill="none" stroke="midnightblue" d="M629.298,-190.349C610.166,-183.775 588.428,-172.583 577,-154 569.783,-142.264 571.928,-135.81 577,-123 591.281,-86.9278 624.198,-55.9397 648.383,-36.8388"/>
<polygon fill="midnightblue" stroke="midnightblue" points="650.724,-39.4536 656.528,-30.5895 646.463,-33.8999 650.724,-39.4536"/>
</g>
<!-- Node46 -->
<g id="node47" class="node"><title>Node46</title>
<polygon fill="white" stroke="#bfbfbf" points="655.5,-129 655.5,-148 782.5,-148 782.5,-129 655.5,-129"/>
<text text-anchor="middle" x="719" y="-136" font-family="FreeSans" font-size="10.00">boost/dynamic_bitset.hpp</text>
</g>
<!-- Node41&#45;&gt;Node46 -->
<g id="edge46" class="edge"><title>Node41&#45;&gt;Node46</title>
<path fill="none" stroke="midnightblue" d="M673.594,-190.475C681.701,-181.373 694.735,-166.741 704.763,-155.483"/>
<polygon fill="midnightblue" stroke="midnightblue" points="707.383,-157.804 711.42,-148.009 702.156,-153.148 707.383,-157.804"/>
</g>
<!-- Node47 -->
<g id="node48" class="node"><title>Node47</title>
<polygon fill="white" stroke="#bfbfbf" points="344,-129 344,-148 464,-148 464,-129 344,-129"/>
<text text-anchor="middle" x="404" y="-136" font-family="FreeSans" font-size="10.00">opencv2/features2d.hpp</text>
</g>
<!-- Node41&#45;&gt;Node47 -->
<g id="edge49" class="edge"><title>Node41&#45;&gt;Node47</title>
<path fill="none" stroke="midnightblue" d="M628.462,-190.475C581.769,-179.871 502.02,-161.76 451.223,-150.224"/>
<polygon fill="midnightblue" stroke="midnightblue" points="451.995,-146.811 441.469,-148.009 450.445,-153.637 451.995,-146.811"/>
</g>
<!-- Node48 -->
<g id="node49" class="node"><title>Node48</title>
<polygon fill="white" stroke="#bfbfbf" points="839.5,-129 839.5,-148 948.5,-148 948.5,-129 839.5,-129"/>
<text text-anchor="middle" x="894" y="-136" font-family="FreeSans" font-size="10.00">opencv2/imgproc.hpp</text>
</g>
<!-- Node41&#45;&gt;Node48 -->
<g id="edge50" class="edge"><title>Node41&#45;&gt;Node48</title>
<path fill="none" stroke="midnightblue" d="M698.667,-190.475C738.877,-179.982 807.258,-162.137 851.515,-150.587"/>
<polygon fill="midnightblue" stroke="midnightblue" points="852.602,-153.921 861.394,-148.009 850.834,-147.148 852.602,-153.921"/>
</g>
<!-- Node50 -->
<g id="node51" class="node"><title>Node50</title>
<g id="a_node51"><a xlink:href="VideoAppConfigInterface_8ipp.html" target="_top" xlink:title="VideoAppConfigInterface.ipp">
<polygon fill="white" stroke="black" points="973.5,-67.5 973.5,-86.5 1112.5,-86.5 1112.5,-67.5 973.5,-67.5"/>
<text text-anchor="middle" x="1043" y="-74.5" font-family="FreeSans" font-size="10.00">VideoAppConfigInterface.ipp</text>
</a>
</g>
</g>
<!-- Node49&#45;&gt;Node50 -->
<g id="edge54" class="edge"><title>Node49&#45;&gt;Node50</title>
<path fill="none" stroke="midnightblue" d="M1078.86,-123.399C1072.03,-114.753 1063.26,-103.642 1056.09,-94.576"/>
<polygon fill="midnightblue" stroke="midnightblue" points="1058.78,-92.3354 1049.84,-86.6578 1053.29,-96.6745 1058.78,-92.3354"/>
</g>
<!-- Node50&#45;&gt;Node2 -->
<g id="edge55" class="edge"><title>Node50&#45;&gt;Node2</title>
<path fill="none" stroke="midnightblue" d="M1112.61,-75.8551C1343.65,-75.012 2083.81,-69.3121 2319,-31 2325.06,-30.0131 2331.42,-28.5006 2337.48,-26.8186"/>
<polygon fill="midnightblue" stroke="midnightblue" points="2338.71,-30.1055 2347.29,-23.8908 2336.7,-23.3981 2338.71,-30.1055"/>
</g>
<!-- Node50&#45;&gt;Node5 -->
<g id="edge57" class="edge"><title>Node50&#45;&gt;Node5</title>
<path fill="none" stroke="midnightblue" d="M1066.39,-67.3912C1090.96,-58.3474 1130.7,-43.7006 1165,-31 1167.09,-30.2255 1169.25,-29.4269 1171.42,-28.6212"/>
<polygon fill="midnightblue" stroke="midnightblue" points="1172.75,-31.8597 1180.91,-25.0972 1170.31,-25.2976 1172.75,-31.8597"/>
</g>
<!-- Node50&#45;&gt;Node12 -->
<g id="edge60" class="edge"><title>Node50&#45;&gt;Node12</title>
<path fill="none" stroke="midnightblue" d="M1039.42,-67.4751C1035.82,-58.9035 1030.15,-45.4269 1025.56,-34.483"/>
<polygon fill="midnightblue" stroke="midnightblue" points="1028.68,-32.8726 1021.58,-25.0091 1022.22,-35.5842 1028.68,-32.8726"/>
</g>
<!-- Node50&#45;&gt;Node26 -->
<g id="edge62" class="edge"><title>Node50&#45;&gt;Node26</title>
<path fill="none" stroke="midnightblue" d="M973.292,-70.2949C838.284,-59.2454 541.776,-34.9782 397.742,-23.1901"/>
<polygon fill="midnightblue" stroke="midnightblue" points="397.892,-19.6907 387.64,-22.3632 397.321,-26.6674 397.892,-19.6907"/>
</g>
<!-- Node50&#45;&gt;Node45 -->
<g id="edge59" class="edge"><title>Node50&#45;&gt;Node45</title>
<path fill="none" stroke="midnightblue" d="M990.561,-67.4751C923.587,-56.5872 807.929,-37.785 737.357,-26.3122"/>
<polygon fill="midnightblue" stroke="midnightblue" points="737.715,-22.8245 727.283,-24.6745 736.592,-29.7338 737.715,-22.8245"/>
</g>
<!-- Node51 -->
<g id="node52" class="node"><title>Node51</title>
<polygon fill="white" stroke="#bfbfbf" points="1084,-6 1084,-25 1156,-25 1156,-6 1084,-6"/>
<text text-anchor="middle" x="1120" y="-13" font-family="FreeSans" font-size="10.00">initializer_list</text>
</g>
<!-- Node50&#45;&gt;Node51 -->
<g id="edge56" class="edge"><title>Node50&#45;&gt;Node51</title>
<path fill="none" stroke="midnightblue" d="M1054.03,-67.4751C1066.27,-58.0199 1086.23,-42.5961 1100.99,-31.1871"/>
<polygon fill="midnightblue" stroke="midnightblue" points="1103.22,-33.8931 1108.99,-25.0091 1098.94,-28.3541 1103.22,-33.8931"/>
</g>
<!-- Node52 -->
<g id="node53" class="node"><title>Node52</title>
<polygon fill="white" stroke="#bfbfbf" points="2060.5,-6 2060.5,-25 2119.5,-25 2119.5,-6 2060.5,-6"/>
<text text-anchor="middle" x="2090" y="-13" font-family="FreeSans" font-size="10.00">stdexcept</text>
</g>
<!-- Node50&#45;&gt;Node52 -->
<g id="edge58" class="edge"><title>Node50&#45;&gt;Node52</title>
<path fill="none" stroke="midnightblue" d="M1112.51,-72.05C1313.86,-60.6071 1893.22,-27.6831 2050.3,-18.7559"/>
<polygon fill="midnightblue" stroke="midnightblue" points="2050.67,-22.241 2060.45,-18.1792 2050.27,-15.2523 2050.67,-22.241"/>
</g>
<!-- Node53 -->
<g id="node54" class="node"><title>Node53</title>
<polygon fill="white" stroke="#bfbfbf" points="864,-6 864,-25 952,-25 952,-6 864,-6"/>
<text text-anchor="middle" x="908" y="-13" font-family="FreeSans" font-size="10.00">boost/bimap.hpp</text>
</g>
<!-- Node50&#45;&gt;Node53 -->
<g id="edge61" class="edge"><title>Node50&#45;&gt;Node53</title>
<path fill="none" stroke="midnightblue" d="M1023.66,-67.4751C1000.9,-57.4455 962.908,-40.7002 936.712,-29.1546"/>
<polygon fill="midnightblue" stroke="midnightblue" points="937.869,-25.8395 927.306,-25.0091 935.045,-32.2449 937.869,-25.8395"/>
</g>
<!-- Node55 -->
<g id="node56" class="node"><title>Node55</title>
<g id="a_node56"><a xlink:href="VideoInputDevice_8ipp.html" target="_top" xlink:title="VideoInputDevice.ipp">
<polygon fill="white" stroke="black" points="1206,-190.5 1206,-209.5 1314,-209.5 1314,-190.5 1206,-190.5"/>
<text text-anchor="middle" x="1260" y="-197.5" font-family="FreeSans" font-size="10.00">VideoInputDevice.ipp</text>
</a>
</g>
</g>
<!-- Node54&#45;&gt;Node55 -->
<g id="edge64" class="edge"><title>Node54&#45;&gt;Node55</title>
<path fill="none" stroke="midnightblue" d="M1263.43,-251.975C1262.86,-243.58 1261.98,-230.481 1261.25,-219.663"/>
<polygon fill="midnightblue" stroke="midnightblue" points="1264.74,-219.252 1260.57,-209.509 1257.75,-219.721 1264.74,-219.252"/>
</g>
<!-- Node55&#45;&gt;Node19 -->
<g id="edge66" class="edge"><title>Node55&#45;&gt;Node19</title>
<path fill="none" stroke="midnightblue" d="M1282.06,-190.475C1308.37,-180.313 1352.51,-163.256 1382.42,-151.7"/>
<polygon fill="midnightblue" stroke="midnightblue" points="1383.91,-154.878 1391.98,-148.009 1381.39,-148.348 1383.91,-154.878"/>
</g>
<!-- Node55&#45;&gt;Node20 -->
<g id="edge65" class="edge"><title>Node55&#45;&gt;Node20</title>
<path fill="none" stroke="midnightblue" d="M1252.78,-190.1C1241.8,-175.407 1223.45,-145.468 1236,-123 1264.19,-72.5462 1327.17,-43.0476 1368.86,-28.3496"/>
<polygon fill="midnightblue" stroke="midnightblue" points="1370.1,-31.6245 1378.44,-25.0968 1367.85,-24.9958 1370.1,-31.6245"/>
</g>
<!-- Node55&#45;&gt;Node48 -->
<g id="edge67" class="edge"><title>Node55&#45;&gt;Node48</title>
<path fill="none" stroke="midnightblue" d="M1205.79,-192.167C1145.18,-184.239 1044.23,-170.169 958,-154 952.046,-152.884 945.804,-151.605 939.651,-150.281"/>
<polygon fill="midnightblue" stroke="midnightblue" points="939.966,-146.766 929.447,-148.028 938.457,-153.601 939.966,-146.766"/>
</g>
<!-- Node55&#45;&gt;Node49 -->
<g id="edge68" class="edge"><title>Node55&#45;&gt;Node49</title>
<path fill="none" stroke="midnightblue" d="M1235.64,-190.475C1210.68,-181.739 1171.16,-167.907 1139.59,-156.855"/>
<polygon fill="midnightblue" stroke="midnightblue" points="1140.66,-153.523 1130.07,-153.523 1138.35,-160.13 1140.66,-153.523"/>
</g>
<!-- Node56 -->
<g id="node57" class="node"><title>Node56</title>
<g id="a_node57"><a xlink:href="DecklinkWrapper_8h.html" target="_top" xlink:title="DecklinkWrapper.h">
<polygon fill="white" stroke="black" points="1245,-129 1245,-148 1343,-148 1343,-129 1245,-129"/>
<text text-anchor="middle" x="1294" y="-136" font-family="FreeSans" font-size="10.00">DecklinkWrapper.h</text>
</a>
</g>
</g>
<!-- Node55&#45;&gt;Node56 -->
<g id="edge69" class="edge"><title>Node55&#45;&gt;Node56</title>
<path fill="none" stroke="midnightblue" d="M1264.87,-190.475C1269.87,-181.727 1277.79,-167.869 1284.11,-156.809"/>
<polygon fill="midnightblue" stroke="midnightblue" points="1287.22,-158.428 1289.14,-148.009 1281.14,-154.955 1287.22,-158.428"/>
</g>
<!-- Node57 -->
<g id="node58" class="node"><title>Node57</title>
<g id="a_node58"><a xlink:href="DecklinkWrapper_8ipp.html" target="_top" xlink:title="DecklinkWrapper.ipp">
<polygon fill="white" stroke="black" points="2234.5,-67.5 2234.5,-86.5 2339.5,-86.5 2339.5,-67.5 2234.5,-67.5"/>
<text text-anchor="middle" x="2287" y="-74.5" font-family="FreeSans" font-size="10.00">DecklinkWrapper.ipp</text>
</a>
</g>
</g>
<!-- Node56&#45;&gt;Node57 -->
<g id="edge70" class="edge"><title>Node56&#45;&gt;Node57</title>
<path fill="none" stroke="midnightblue" d="M1323.28,-128.989C1332.41,-126.659 1342.55,-124.394 1352,-123 1520.95,-98.0645 2042.68,-83.7418 2224.07,-79.4128"/>
<polygon fill="midnightblue" stroke="midnightblue" points="2224.33,-82.9077 2234.25,-79.172 2224.17,-75.9097 2224.33,-82.9077"/>
</g>
<!-- Node57&#45;&gt;Node2 -->
<g id="edge73" class="edge"><title>Node57&#45;&gt;Node2</title>
<path fill="none" stroke="midnightblue" d="M2298.61,-67.4751C2311.48,-58.0199 2332.47,-42.5961 2348.01,-31.1871"/>
<polygon fill="midnightblue" stroke="midnightblue" points="2350.43,-33.75 2356.42,-25.0091 2346.28,-28.1085 2350.43,-33.75"/>
</g>
<!-- Node57&#45;&gt;Node4 -->
<g id="edge74" class="edge"><title>Node57&#45;&gt;Node4</title>
<path fill="none" stroke="midnightblue" d="M2339.75,-73.7221C2567.99,-63.8673 3466.55,-25.0688 3637,-17.7088"/>
<polygon fill="midnightblue" stroke="midnightblue" points="3637.32,-21.1984 3647.16,-17.2702 3637.02,-14.2049 3637.32,-21.1984"/>
</g>
<!-- Node57&#45;&gt;Node6 -->
<g id="edge75" class="edge"><title>Node57&#45;&gt;Node6</title>
<path fill="none" stroke="midnightblue" d="M2339.65,-74.4769C2634.17,-65.9579 4072.67,-24.3484 4310.63,-17.4653"/>
<polygon fill="midnightblue" stroke="midnightblue" points="4310.85,-20.9605 4320.74,-17.1728 4310.64,-13.9635 4310.85,-20.9605"/>
</g>
<!-- Node57&#45;&gt;Node8 -->
<g id="edge76" class="edge"><title>Node57&#45;&gt;Node8</title>
<path fill="none" stroke="midnightblue" d="M2339.88,-75.2689C2576.88,-71.9061 3565.2,-56.9685 4376,-31 4489.42,-27.3675 4623.97,-21.0556 4684.57,-18.1057"/>
<polygon fill="midnightblue" stroke="midnightblue" points="4684.85,-21.5964 4694.66,-17.612 4684.5,-14.6047 4684.85,-21.5964"/>
</g>
<!-- Node57&#45;&gt;Node20 -->
<g id="edge78" class="edge"><title>Node57&#45;&gt;Node20</title>
<path fill="none" stroke="midnightblue" d="M2234.38,-72.4341C2079.44,-61.934 1625.72,-31.1868 1465.68,-20.3413"/>
<polygon fill="midnightblue" stroke="midnightblue" points="1465.79,-16.8404 1455.57,-19.6562 1465.31,-23.8244 1465.79,-16.8404"/>
</g>
<!-- Node57&#45;&gt;Node52 -->
<g id="edge72" class="edge"><title>Node57&#45;&gt;Node52</title>
<path fill="none" stroke="midnightblue" d="M2258.77,-67.4751C2224.4,-57.092 2166.19,-39.5116 2127.92,-27.9538"/>
<polygon fill="midnightblue" stroke="midnightblue" points="2128.76,-24.5499 2118.17,-25.0091 2126.73,-31.251 2128.76,-24.5499"/>
</g>
<!-- Node58 -->
<g id="node59" class="node"><title>Node58</title>
<polygon fill="white" stroke="#bfbfbf" points="2176.5,-6 2176.5,-25 2225.5,-25 2225.5,-6 2176.5,-6"/>
<text text-anchor="middle" x="2201" y="-13" font-family="FreeSans" font-size="10.00">cstddef</text>
</g>
<!-- Node57&#45;&gt;Node58 -->
<g id="edge71" class="edge"><title>Node57&#45;&gt;Node58</title>
<path fill="none" stroke="midnightblue" d="M2274.68,-67.4751C2260.88,-57.9315 2238.3,-42.3073 2221.77,-30.8683"/>
<polygon fill="midnightblue" stroke="midnightblue" points="2223.51,-27.8205 2213.3,-25.0091 2219.53,-33.577 2223.51,-27.8205"/>
</g>
<!-- Node59 -->
<g id="node60" class="node"><title>Node59</title>
<polygon fill="white" stroke="#bfbfbf" points="2264,-6 2264,-25 2310,-25 2310,-6 2264,-6"/>
<text text-anchor="middle" x="2287" y="-13" font-family="FreeSans" font-size="10.00">atomic</text>
</g>
<!-- Node57&#45;&gt;Node59 -->
<g id="edge77" class="edge"><title>Node57&#45;&gt;Node59</title>
<path fill="none" stroke="midnightblue" d="M2287,-67.4751C2287,-59.0803 2287,-45.9806 2287,-35.1631"/>
<polygon fill="midnightblue" stroke="midnightblue" points="2290.5,-35.0091 2287,-25.0091 2283.5,-35.0091 2290.5,-35.0091"/>
</g>
<!-- Node61 -->
<g id="node62" class="node"><title>Node61</title>
<g id="a_node62"><a xlink:href="BrainstormRemoteMaps_8ipp.html" target="_top" xlink:title="BrainstormRemoteMaps.ipp">
<polygon fill="white" stroke="black" points="1913.5,-190.5 1913.5,-209.5 2050.5,-209.5 2050.5,-190.5 1913.5,-190.5"/>
<text text-anchor="middle" x="1982" y="-197.5" font-family="FreeSans" font-size="10.00">BrainstormRemoteMaps.ipp</text>
</a>
</g>
</g>
<!-- Node60&#45;&gt;Node61 -->
<g id="edge80" class="edge"><title>Node60&#45;&gt;Node61</title>
<path fill="none" stroke="midnightblue" d="M1926.3,-246.399C1937.45,-237.308 1951.95,-225.49 1963.36,-216.191"/>
<polygon fill="midnightblue" stroke="midnightblue" points="1965.84,-218.689 1971.38,-209.658 1961.42,-213.263 1965.84,-218.689"/>
</g>
<!-- Node61&#45;&gt;Node2 -->
<g id="edge81" class="edge"><title>Node61&#45;&gt;Node2</title>
<path fill="none" stroke="midnightblue" d="M2050.92,-192.153C2160.76,-181.08 2363.76,-159.888 2369,-154 2398.28,-121.118 2384.85,-64.2452 2375.05,-35.0183"/>
<polygon fill="midnightblue" stroke="midnightblue" points="2378.24,-33.5176 2371.57,-25.2781 2371.64,-35.8727 2378.24,-33.5176"/>
</g>
<!-- Node61&#45;&gt;Node3 -->
<g id="edge87" class="edge"><title>Node61&#45;&gt;Node3</title>
<path fill="none" stroke="midnightblue" d="M1913.34,-197.057C1833.17,-193.458 1697.11,-183.205 1584,-154 1581.49,-153.353 1578.93,-152.561 1576.38,-151.686"/>
<polygon fill="midnightblue" stroke="midnightblue" points="1577.42,-148.336 1566.83,-148.017 1574.91,-154.87 1577.42,-148.336"/>
</g>
<!-- Node61&#45;&gt;Node9 -->
<g id="edge83" class="edge"><title>Node61&#45;&gt;Node9</title>
<path fill="none" stroke="midnightblue" d="M1913.34,-196.927C1843.19,-193.21 1731.84,-182.847 1640,-154 1638.53,-153.539 1637.05,-153.004 1635.57,-152.417"/>
<polygon fill="midnightblue" stroke="midnightblue" points="1636.67,-149.067 1626.12,-148.021 1633.71,-155.413 1636.67,-149.067"/>
</g>
<!-- Node61&#45;&gt;Node11 -->
<g id="edge85" class="edge"><title>Node61&#45;&gt;Node11</title>
<path fill="none" stroke="midnightblue" d="M1913.47,-193.352C1856.03,-187.353 1772.35,-175.642 1702,-154 1700.13,-153.424 1698.22,-152.755 1696.32,-152.027"/>
<polygon fill="midnightblue" stroke="midnightblue" points="1697.64,-148.785 1687.07,-148.052 1694.88,-155.216 1697.64,-148.785"/>
</g>
<!-- Node61&#45;&gt;Node12 -->
<g id="edge93" class="edge"><title>Node61&#45;&gt;Node12</title>
<path fill="none" stroke="midnightblue" d="M1982.6,-190.321C1983.2,-174.272 1981.89,-140.044 1962,-123 1811.51,5.93409 1270.1,-65.7421 1075,-31 1069.47,-30.0154 1063.69,-28.7846 1058.01,-27.4588"/>
<polygon fill="midnightblue" stroke="midnightblue" points="1058.54,-23.9848 1047.99,-25.0025 1056.87,-30.7834 1058.54,-23.9848"/>
</g>
<!-- Node61&#45;&gt;Node13 -->
<g id="edge91" class="edge"><title>Node61&#45;&gt;Node13</title>
<path fill="none" stroke="midnightblue" d="M2050.75,-195.79C2183.12,-189.409 2482.53,-174.003 2734,-154 2757.34,-152.144 2782.73,-149.752 2805.7,-147.448"/>
<polygon fill="midnightblue" stroke="midnightblue" points="2806.13,-150.922 2815.73,-146.432 2805.42,-143.958 2806.13,-150.922"/>
</g>
<!-- Node61&#45;&gt;Node15 -->
<g id="edge92" class="edge"><title>Node61&#45;&gt;Node15</title>
<path fill="none" stroke="midnightblue" d="M1951.34,-190.475C1913.76,-180.026 1849.96,-162.287 1808.4,-150.733"/>
<polygon fill="midnightblue" stroke="midnightblue" points="1809.18,-147.316 1798.6,-148.009 1807.3,-154.06 1809.18,-147.316"/>
</g>
<!-- Node61&#45;&gt;Node17 -->
<g id="edge90" class="edge"><title>Node61&#45;&gt;Node17</title>
<path fill="none" stroke="midnightblue" d="M1969.96,-190.475C1958.59,-182.417 1941.09,-170.023 1926.2,-159.474"/>
<polygon fill="midnightblue" stroke="midnightblue" points="1927.98,-156.447 1917.8,-153.523 1923.93,-162.159 1927.98,-156.447"/>
</g>
<!-- Node61&#45;&gt;Node18 -->
<g id="edge94" class="edge"><title>Node61&#45;&gt;Node18</title>
<path fill="none" stroke="midnightblue" d="M2050.84,-191.527C2055.63,-191.009 2060.39,-190.496 2065,-190 2214.77,-173.881 2254.21,-183.089 2402,-154 2406.51,-153.112 2411.2,-152.004 2415.83,-150.799"/>
<polygon fill="midnightblue" stroke="midnightblue" points="2417.04,-154.095 2425.75,-148.053 2415.17,-147.349 2417.04,-154.095"/>
</g>
<!-- Node61&#45;&gt;Node29 -->
<g id="edge96" class="edge"><title>Node61&#45;&gt;Node29</title>
<path fill="none" stroke="midnightblue" d="M2050.6,-193.074C2149.15,-184.542 2336.52,-168.253 2496,-154 2521.36,-151.734 2548.99,-149.227 2573.99,-146.945"/>
<polygon fill="midnightblue" stroke="midnightblue" points="2574.53,-150.41 2584.17,-146.015 2573.89,-143.44 2574.53,-150.41"/>
</g>
<!-- Node61&#45;&gt;Node42 -->
<g id="edge82" class="edge"><title>Node61&#45;&gt;Node42</title>
<path fill="none" stroke="midnightblue" d="M1913.44,-199.243C1722.84,-199.372 1189.52,-195.867 1020,-154 1018.01,-153.509 1015.99,-152.886 1013.99,-152.177"/>
<polygon fill="midnightblue" stroke="midnightblue" points="1014.91,-148.765 1004.33,-148.114 1012.19,-155.217 1014.91,-148.765"/>
</g>
<!-- Node61&#45;&gt;Node52 -->
<g id="edge84" class="edge"><title>Node61&#45;&gt;Node52</title>
<path fill="none" stroke="midnightblue" d="M2015.51,-190.495C2034.83,-183.811 2057.82,-172.46 2071,-154 2096.47,-118.317 2095.34,-63.9059 2092.55,-35.4084"/>
<polygon fill="midnightblue" stroke="midnightblue" points="2095.99,-34.7516 2091.36,-25.2218 2089.04,-35.5587 2095.99,-34.7516"/>
</g>
<!-- Node61&#45;&gt;Node58 -->
<g id="edge88" class="edge"><title>Node61&#45;&gt;Node58</title>
<path fill="none" stroke="midnightblue" d="M2015.39,-190.437C2038.72,-183.321 2069.74,-171.504 2093,-154 2138.13,-120.042 2174.71,-62.8116 2191.33,-34.0762"/>
<polygon fill="midnightblue" stroke="midnightblue" points="2194.48,-35.613 2196.35,-25.1854 2188.39,-32.1677 2194.48,-35.613"/>
</g>
<!-- Node62 -->
<g id="node63" class="node"><title>Node62</title>
<polygon fill="white" stroke="#bfbfbf" points="2320,-129 2320,-148 2360,-148 2360,-129 2320,-129"/>
<text text-anchor="middle" x="2340" y="-136" font-family="FreeSans" font-size="10.00">limits</text>
</g>
<!-- Node61&#45;&gt;Node62 -->
<g id="edge86" class="edge"><title>Node61&#45;&gt;Node62</title>
<path fill="none" stroke="midnightblue" d="M2050.6,-190.751C2139.42,-179.892 2285.76,-161.322 2310,-154 2311.68,-153.494 2313.37,-152.905 2315.07,-152.26"/>
<polygon fill="midnightblue" stroke="midnightblue" points="2316.73,-155.351 2324.49,-148.136 2313.93,-148.937 2316.73,-155.351"/>
</g>
<!-- Node63 -->
<g id="node64" class="node"><title>Node63</title>
<polygon fill="white" stroke="#bfbfbf" points="2010,-129 2010,-148 2062,-148 2062,-129 2010,-129"/>
<text text-anchor="middle" x="2036" y="-136" font-family="FreeSans" font-size="10.00">sstream</text>
</g>
<!-- Node61&#45;&gt;Node63 -->
<g id="edge89" class="edge"><title>Node61&#45;&gt;Node63</title>
<path fill="none" stroke="midnightblue" d="M1989.74,-190.475C1998,-181.373 2011.28,-166.741 2021.49,-155.483"/>
<polygon fill="midnightblue" stroke="midnightblue" points="2024.15,-157.766 2028.28,-148.009 2018.97,-153.062 2024.15,-157.766"/>
</g>
<!-- Node64 -->
<g id="node65" class="node"><title>Node64</title>
<polygon fill="white" stroke="#bfbfbf" points="3063.5,-123.5 3063.5,-153.5 3208.5,-153.5 3208.5,-123.5 3063.5,-123.5"/>
<text text-anchor="start" x="3071.5" y="-141.5" font-family="FreeSans" font-size="10.00">SeeSaw/Elements/Geometric</text>
<text text-anchor="middle" x="3136" y="-130.5" font-family="FreeSans" font-size="10.00">Entity.h</text>
</g>
<!-- Node61&#45;&gt;Node64 -->
<g id="edge95" class="edge"><title>Node61&#45;&gt;Node64</title>
<path fill="none" stroke="midnightblue" d="M2050.62,-196.593C2209.45,-190.853 2614.67,-175.238 2953,-154 2985.86,-151.937 3022.01,-149.178 3053.43,-146.62"/>
<polygon fill="midnightblue" stroke="midnightblue" points="3053.78,-150.103 3063.46,-145.797 3053.21,-143.126 3053.78,-150.103"/>
</g>
<!-- Node65 -->
<g id="node66" class="node"><title>Node65</title>
<polygon fill="white" stroke="#bfbfbf" points="2156.5,-129 2156.5,-148 2301.5,-148 2301.5,-129 2156.5,-129"/>
<text text-anchor="middle" x="2229" y="-136" font-family="FreeSans" font-size="10.00">SeeSaw/Geometry/Rotation.h</text>
</g>
<!-- Node61&#45;&gt;Node65 -->
<g id="edge97" class="edge"><title>Node61&#45;&gt;Node65</title>
<path fill="none" stroke="midnightblue" d="M2017.39,-190.475C2061.23,-179.915 2135.97,-161.911 2183.88,-150.369"/>
<polygon fill="midnightblue" stroke="midnightblue" points="2184.77,-153.754 2193.68,-148.009 2183.13,-146.948 2184.77,-153.754"/>
</g>
<!-- Node67 -->
<g id="node68" class="node"><title>Node67</title>
<g id="a_node68"><a xlink:href="PoseFilter_8ipp.html" target="_top" xlink:title="PoseFilter.ipp">
<polygon fill="white" stroke="black" points="4144,-190.5 4144,-209.5 4220,-209.5 4220,-190.5 4144,-190.5"/>
<text text-anchor="middle" x="4182" y="-197.5" font-family="FreeSans" font-size="10.00">PoseFilter.ipp</text>
</a>
</g>
</g>
<!-- Node66&#45;&gt;Node67 -->
<g id="edge99" class="edge"><title>Node66&#45;&gt;Node67</title>
<path fill="none" stroke="midnightblue" d="M4845.58,-251.948C4835.46,-249.703 4824.33,-247.495 4814,-246 4597.75,-214.716 4336.59,-204.887 4230.41,-202.053"/>
<polygon fill="midnightblue" stroke="midnightblue" points="4230.41,-198.552 4220.32,-201.793 4230.23,-205.55 4230.41,-198.552"/>
</g>
<!-- Node67&#45;&gt;Node5 -->
<g id="edge102" class="edge"><title>Node67&#45;&gt;Node5</title>
<path fill="none" stroke="midnightblue" d="M4143.99,-195.144C4019.39,-182.648 3611.94,-142.93 3274,-123 2808.31,-95.5367 2690.93,-109.951 2225,-87 1837.12,-67.8935 1740.09,-62.2562 1353,-31 1315.92,-28.0061 1273.73,-23.8276 1243.73,-20.7248"/>
<polygon fill="midnightblue" stroke="midnightblue" points="1243.97,-17.2305 1233.66,-19.6759 1243.24,-24.1928 1243.97,-17.2305"/>
</g>
<!-- Node67&#45;&gt;Node10 -->
<g id="edge100" class="edge"><title>Node67&#45;&gt;Node10</title>
<path fill="none" stroke="midnightblue" d="M4143.74,-191.802C4139.12,-191.104 4134.46,-190.479 4130,-190 3941.8,-169.818 3463.38,-196.808 3279,-154 3276.63,-153.451 3274.23,-152.735 3271.85,-151.915"/>
<polygon fill="midnightblue" stroke="midnightblue" points="3272.96,-148.59 3262.37,-148.125 3270.36,-155.089 3272.96,-148.59"/>
</g>
<!-- Node67&#45;&gt;Node13 -->
<g id="edge103" class="edge"><title>Node67&#45;&gt;Node13</title>
<path fill="none" stroke="midnightblue" d="M4143.54,-198.061C3999.93,-194.427 3481.57,-180.176 3055,-154 3022.06,-151.978 2985.68,-149.074 2954.66,-146.394"/>
<polygon fill="midnightblue" stroke="midnightblue" points="2954.63,-142.878 2944.36,-145.495 2954.02,-149.851 2954.63,-142.878"/>
</g>
<!-- Node67&#45;&gt;Node64 -->
<g id="edge106" class="edge"><title>Node67&#45;&gt;Node64</title>
<path fill="none" stroke="midnightblue" d="M4143.74,-198.974C4014.81,-198.517 3584.3,-193.972 3218.79,-153.977"/>
<polygon fill="midnightblue" stroke="midnightblue" points="3219.13,-150.494 3208.81,-152.874 3218.36,-157.452 3219.13,-150.494"/>
</g>
<!-- Node68 -->
<g id="node69" class="node"><title>Node68</title>
<polygon fill="white" stroke="#bfbfbf" points="4219.5,-129 4219.5,-148 4258.5,-148 4258.5,-129 4219.5,-129"/>
<text text-anchor="middle" x="4239" y="-136" font-family="FreeSans" font-size="10.00">utility</text>
</g>
<!-- Node67&#45;&gt;Node68 -->
<g id="edge101" class="edge"><title>Node67&#45;&gt;Node68</title>
<path fill="none" stroke="midnightblue" d="M4190.17,-190.475C4198.89,-181.373 4212.9,-166.741 4223.69,-155.483"/>
<polygon fill="midnightblue" stroke="midnightblue" points="4226.46,-157.651 4230.85,-148.009 4221.4,-152.809 4226.46,-157.651"/>
</g>
<!-- Node69 -->
<g id="node70" class="node"><title>Node69</title>
<polygon fill="white" stroke="#bfbfbf" points="4276.5,-129 4276.5,-148 4399.5,-148 4399.5,-129 4276.5,-129"/>
<text text-anchor="middle" x="4338" y="-136" font-family="FreeSans" font-size="10.00">boost/range/numeric.hpp</text>
</g>
<!-- Node67&#45;&gt;Node69 -->
<g id="edge104" class="edge"><title>Node67&#45;&gt;Node69</title>
<path fill="none" stroke="midnightblue" d="M4204.35,-190.475C4230.99,-180.313 4275.71,-163.256 4306.01,-151.7"/>
<polygon fill="midnightblue" stroke="midnightblue" points="4307.59,-154.843 4315.69,-148.009 4305.1,-148.303 4307.59,-154.843"/>
</g>
<!-- Node70 -->
<g id="node71" class="node"><title>Node70</title>
<polygon fill="white" stroke="#bfbfbf" points="4418,-129 4418,-148 4546,-148 4546,-129 4418,-129"/>
<text text-anchor="middle" x="4482" y="-136" font-family="FreeSans" font-size="10.00">boost/concept_check.hpp</text>
</g>
<!-- Node67&#45;&gt;Node70 -->
<g id="edge105" class="edge"><title>Node67&#45;&gt;Node70</title>
<path fill="none" stroke="midnightblue" d="M4220.16,-191.44C4265.26,-182.503 4342.6,-167.177 4409,-154 4415.56,-152.699 4422.44,-151.331 4429.26,-149.978"/>
<polygon fill="midnightblue" stroke="midnightblue" points="4430.03,-153.394 4439.15,-148.013 4428.66,-146.528 4430.03,-153.394"/>
</g>
<!-- Node71 -->
<g id="node72" class="node"><title>Node71</title>
<polygon fill="white" stroke="#bfbfbf" points="3708.5,-123.5 3708.5,-153.5 3851.5,-153.5 3851.5,-123.5 3708.5,-123.5"/>
<text text-anchor="start" x="3716.5" y="-141.5" font-family="FreeSans" font-size="10.00">SeeSaw/Geometry/Geometry</text>
<text text-anchor="middle" x="3780" y="-130.5" font-family="FreeSans" font-size="10.00">SolverConcept.h</text>
</g>
<!-- Node67&#45;&gt;Node71 -->
<g id="edge107" class="edge"><title>Node67&#45;&gt;Node71</title>
<path fill="none" stroke="midnightblue" d="M4143.97,-192.245C4139.27,-191.461 4134.53,-190.695 4130,-190 4013.92,-172.193 3981.85,-172.597 3861.5,-154.031"/>
<polygon fill="midnightblue" stroke="midnightblue" points="3861.94,-150.558 3851.52,-152.48 3860.87,-157.475 3861.94,-150.558"/>
</g>
<!-- Node72 -->
<g id="node73" class="node"><title>Node72</title>
<polygon fill="white" stroke="#bfbfbf" points="3870,-129 3870,-148 4028,-148 4028,-129 3870,-129"/>
<text text-anchor="middle" x="3949" y="-136" font-family="FreeSans" font-size="10.00">SeeSaw/Geometry/P2PfSolver.h</text>
</g>
<!-- Node67&#45;&gt;Node72 -->
<g id="edge108" class="edge"><title>Node67&#45;&gt;Node72</title>
<path fill="none" stroke="midnightblue" d="M4148.62,-190.475C4107.44,-179.959 4037.35,-162.062 3992.13,-150.514"/>
<polygon fill="midnightblue" stroke="midnightblue" points="3992.88,-147.092 3982.32,-148.009 3991.14,-153.875 3992.88,-147.092"/>
</g>
<!-- Node73 -->
<g id="node74" class="node"><title>Node73</title>
<polygon fill="white" stroke="#bfbfbf" points="4046.5,-129 4046.5,-148 4201.5,-148 4201.5,-129 4046.5,-129"/>
<text text-anchor="middle" x="4124" y="-136" font-family="FreeSans" font-size="10.00">SeeSaw/Geometry/P4PSolver.h</text>
</g>
<!-- Node67&#45;&gt;Node73 -->
<g id="edge109" class="edge"><title>Node67&#45;&gt;Node73</title>
<path fill="none" stroke="midnightblue" d="M4173.69,-190.475C4164.82,-181.373 4150.55,-166.741 4139.58,-155.483"/>
<polygon fill="midnightblue" stroke="midnightblue" points="4141.78,-152.727 4132.29,-148.009 4136.77,-157.613 4141.78,-152.727"/>
</g>
</g>
</svg>
