<?xml version="1.0" encoding="UTF-8" standalone="no"?>
<!DOCTYPE svg PUBLIC "-//W3C//DTD SVG 1.1//EN"
 "http://www.w3.org/Graphics/SVG/1.1/DTD/svg11.dtd">
<!-- Generated by graphviz version 2.38.0 (20140413.2041)
 -->
<!-- Title: src/Utility/BrainstormRemoteMaps.h Pages: 1 -->
<svg width="1667pt" height="162pt"
 viewBox="0.00 0.00 1667.00 162.00" xmlns="http://www.w3.org/2000/svg" xmlns:xlink="http://www.w3.org/1999/xlink">
<g id="graph0" class="graph" transform="scale(1 1) rotate(0) translate(4 158)">
<title>src/Utility/BrainstormRemoteMaps.h</title>
<polygon fill="white" stroke="none" points="-4,4 -4,-158 1663,-158 1663,4 -4,4"/>
<!-- Node0 -->
<g id="node1" class="node"><title>Node0</title>
<polygon fill="#bfbfbf" stroke="black" points="467.5,-123.5 467.5,-153.5 609.5,-153.5 609.5,-123.5 467.5,-123.5"/>
<text text-anchor="start" x="475.5" y="-141.5" font-family="FreeSans" font-size="10.00">src/Utility/BrainstormRemote</text>
<text text-anchor="middle" x="538.5" y="-130.5" font-family="FreeSans" font-size="10.00">Maps.h</text>
</g>
<!-- Node1 -->
<g id="node2" class="node"><title>Node1</title>
<g id="a_node2"><a xlink:href="BrainstormRemoteMaps_8ipp.html" target="_top" xlink:title="BrainstormRemoteMaps.ipp">
<polygon fill="white" stroke="black" points="470,-67.5 470,-86.5 607,-86.5 607,-67.5 470,-67.5"/>
<text text-anchor="middle" x="538.5" y="-74.5" font-family="FreeSans" font-size="10.00">BrainstormRemoteMaps.ipp</text>
</a>
</g>
</g>
<!-- Node0&#45;&gt;Node1 -->
<g id="edge1" class="edge"><title>Node0&#45;&gt;Node1</title>
<path fill="none" stroke="midnightblue" d="M538.5,-123.399C538.5,-115.466 538.5,-105.458 538.5,-96.8583"/>
<polygon fill="midnightblue" stroke="midnightblue" points="542,-96.6577 538.5,-86.6578 535,-96.6578 542,-96.6577"/>
</g>
<!-- Node2 -->
<g id="node3" class="node"><title>Node2</title>
<polygon fill="white" stroke="#bfbfbf" points="0,-6 0,-25 41,-25 41,-6 0,-6"/>
<text text-anchor="middle" x="20.5" y="-13" font-family="FreeSans" font-size="10.00">string</text>
</g>
<!-- Node1&#45;&gt;Node2 -->
<g id="edge2" class="edge"><title>Node1&#45;&gt;Node2</title>
<path fill="none" stroke="midnightblue" d="M469.807,-72.6948C354.618,-66.6462 127.556,-52.4163 50.5,-31 48.6189,-30.4772 46.7124,-29.8402 44.8199,-29.1283"/>
<polygon fill="midnightblue" stroke="midnightblue" points="46.2209,-25.9209 35.656,-25.1251 43.4186,-32.3356 46.2209,-25.9209"/>
</g>
<!-- Node3 -->
<g id="node4" class="node"><title>Node3</title>
<polygon fill="white" stroke="#bfbfbf" points="59.5,-6 59.5,-25 103.5,-25 103.5,-6 59.5,-6"/>
<text text-anchor="middle" x="81.5" y="-13" font-family="FreeSans" font-size="10.00">vector</text>
</g>
<!-- Node1&#45;&gt;Node3 -->
<g id="edge3" class="edge"><title>Node1&#45;&gt;Node3</title>
<path fill="none" stroke="midnightblue" d="M469.689,-75.6946C384.369,-73.741 235.197,-65.1394 112.5,-31 110.568,-30.4625 108.607,-29.8146 106.657,-29.095"/>
<polygon fill="midnightblue" stroke="midnightblue" points="107.773,-25.7663 97.2011,-25.0755 105.035,-32.2085 107.773,-25.7663"/>
</g>
<!-- Node4 -->
<g id="node5" class="node"><title>Node4</title>
<polygon fill="white" stroke="#bfbfbf" points="121.5,-6 121.5,-25 159.5,-25 159.5,-6 121.5,-6"/>
<text text-anchor="middle" x="140.5" y="-13" font-family="FreeSans" font-size="10.00">tuple</text>
</g>
<!-- Node1&#45;&gt;Node4 -->
<g id="edge4" class="edge"><title>Node1&#45;&gt;Node4</title>
<path fill="none" stroke="midnightblue" d="M469.811,-74.91C394.359,-72.0555 270.365,-62.4469 168.5,-31 167.029,-30.5458 165.543,-30.0165 164.063,-29.4339"/>
<polygon fill="midnightblue" stroke="midnightblue" points="165.157,-26.0831 154.613,-25.0505 162.212,-32.4333 165.157,-26.0831"/>
</g>
<!-- Node5 -->
<g id="node6" class="node"><title>Node5</title>
<polygon fill="white" stroke="#bfbfbf" points="178,-6 178,-25 237,-25 237,-6 178,-6"/>
<text text-anchor="middle" x="207.5" y="-13" font-family="FreeSans" font-size="10.00">stdexcept</text>
</g>
<!-- Node1&#45;&gt;Node5 -->
<g id="edge5" class="edge"><title>Node1&#45;&gt;Node5</title>
<path fill="none" stroke="midnightblue" d="M469.85,-69.404C410.165,-62.7281 321.707,-50.559 246.5,-31 243.682,-30.2671 240.784,-29.4054 237.902,-28.4737"/>
<polygon fill="midnightblue" stroke="midnightblue" points="238.894,-25.1131 228.299,-25.1217 236.587,-31.722 238.894,-25.1131"/>
</g>
<!-- Node6 -->
<g id="node7" class="node"><title>Node6</title>
<polygon fill="white" stroke="#bfbfbf" points="255.5,-6 255.5,-25 299.5,-25 299.5,-6 255.5,-6"/>
<text text-anchor="middle" x="277.5" y="-13" font-family="FreeSans" font-size="10.00">cmath</text>
</g>
<!-- Node1&#45;&gt;Node6 -->
<g id="edge6" class="edge"><title>Node1&#45;&gt;Node6</title>
<path fill="none" stroke="midnightblue" d="M472.731,-67.4995C426.136,-60.4273 362.557,-48.636 308.5,-31 306.83,-30.4552 305.133,-29.8429 303.436,-29.1859"/>
<polygon fill="midnightblue" stroke="midnightblue" points="304.498,-25.8325 293.929,-25.0937 301.73,-32.2622 304.498,-25.8325"/>
</g>
<!-- Node7 -->
<g id="node8" class="node"><title>Node7</title>
<polygon fill="white" stroke="#bfbfbf" points="317.5,-6 317.5,-25 357.5,-25 357.5,-6 317.5,-6"/>
<text text-anchor="middle" x="337.5" y="-13" font-family="FreeSans" font-size="10.00">limits</text>
</g>
<!-- Node1&#45;&gt;Node7 -->
<g id="edge7" class="edge"><title>Node1&#45;&gt;Node7</title>
<path fill="none" stroke="midnightblue" d="M496.034,-67.4732C460.751,-59.7792 409.546,-47.1914 366.5,-31 365.117,-30.4798 363.713,-29.9138 362.306,-29.3169"/>
<polygon fill="midnightblue" stroke="midnightblue" points="363.733,-26.1206 353.189,-25.0867 360.787,-32.4705 363.733,-26.1206"/>
</g>
<!-- Node8 -->
<g id="node9" class="node"><title>Node8</title>
<polygon fill="white" stroke="#bfbfbf" points="376,-6 376,-25 427,-25 427,-6 376,-6"/>
<text text-anchor="middle" x="401.5" y="-13" font-family="FreeSans" font-size="10.00">memory</text>
</g>
<!-- Node1&#45;&gt;Node8 -->
<g id="edge8" class="edge"><title>Node1&#45;&gt;Node8</title>
<path fill="none" stroke="midnightblue" d="M518.871,-67.4751C495.676,-57.4013 456.881,-40.5525 430.287,-29.0023"/>
<polygon fill="midnightblue" stroke="midnightblue" points="431.659,-25.7824 421.092,-25.0091 428.87,-32.203 431.659,-25.7824"/>
</g>
<!-- Node9 -->
<g id="node10" class="node"><title>Node9</title>
<polygon fill="white" stroke="#bfbfbf" points="445,-6 445,-25 494,-25 494,-6 445,-6"/>
<text text-anchor="middle" x="469.5" y="-13" font-family="FreeSans" font-size="10.00">cstddef</text>
</g>
<!-- Node1&#45;&gt;Node9 -->
<g id="edge9" class="edge"><title>Node1&#45;&gt;Node9</title>
<path fill="none" stroke="midnightblue" d="M528.614,-67.4751C517.854,-58.1966 500.429,-43.1706 487.279,-31.831"/>
<polygon fill="midnightblue" stroke="midnightblue" points="489.227,-28.889 479.368,-25.0091 484.655,-34.1902 489.227,-28.889"/>
</g>
<!-- Node10 -->
<g id="node11" class="node"><title>Node10</title>
<polygon fill="white" stroke="#bfbfbf" points="512.5,-6 512.5,-25 564.5,-25 564.5,-6 512.5,-6"/>
<text text-anchor="middle" x="538.5" y="-13" font-family="FreeSans" font-size="10.00">sstream</text>
</g>
<!-- Node1&#45;&gt;Node10 -->
<g id="edge10" class="edge"><title>Node1&#45;&gt;Node10</title>
<path fill="none" stroke="midnightblue" d="M538.5,-67.4751C538.5,-59.0803 538.5,-45.9806 538.5,-35.1631"/>
<polygon fill="midnightblue" stroke="midnightblue" points="542,-35.0091 538.5,-25.0091 535,-35.0091 542,-35.0091"/>
</g>
<!-- Node11 -->
<g id="node12" class="node"><title>Node11</title>
<polygon fill="white" stroke="#bfbfbf" points="583,-0.5 583,-30.5 694,-30.5 694,-0.5 583,-0.5"/>
<text text-anchor="start" x="591" y="-18.5" font-family="FreeSans" font-size="10.00">boost/math/constants</text>
<text text-anchor="middle" x="638.5" y="-7.5" font-family="FreeSans" font-size="10.00">/constants.hpp</text>
</g>
<!-- Node1&#45;&gt;Node11 -->
<g id="edge11" class="edge"><title>Node1&#45;&gt;Node11</title>
<path fill="none" stroke="midnightblue" d="M552.828,-67.4751C566.624,-59.266 587.982,-46.5581 605.921,-35.8845"/>
<polygon fill="midnightblue" stroke="midnightblue" points="608.128,-38.6442 614.932,-30.523 604.548,-32.6285 608.128,-38.6442"/>
</g>
<!-- Node12 -->
<g id="node13" class="node"><title>Node12</title>
<polygon fill="white" stroke="#bfbfbf" points="712.5,-6 712.5,-25 840.5,-25 840.5,-6 712.5,-6"/>
<text text-anchor="middle" x="776.5" y="-13" font-family="FreeSans" font-size="10.00">boost/range/algorithm.hpp</text>
</g>
<!-- Node1&#45;&gt;Node12 -->
<g id="edge12" class="edge"><title>Node1&#45;&gt;Node12</title>
<path fill="none" stroke="midnightblue" d="M572.6,-67.4751C614.751,-56.9374 686.555,-38.9863 732.734,-27.4415"/>
<polygon fill="midnightblue" stroke="midnightblue" points="733.611,-30.83 742.464,-25.0091 731.913,-24.039 733.611,-30.83"/>
</g>
<!-- Node13 -->
<g id="node14" class="node"><title>Node13</title>
<polygon fill="white" stroke="#bfbfbf" points="859,-6 859,-25 972,-25 972,-6 859,-6"/>
<text text-anchor="middle" x="915.5" y="-13" font-family="FreeSans" font-size="10.00">boost/lexical_cast.hpp</text>
</g>
<!-- Node1&#45;&gt;Node13 -->
<g id="edge13" class="edge"><title>Node1&#45;&gt;Node13</title>
<path fill="none" stroke="midnightblue" d="M607.292,-67.5031C670.466,-59.355 766.573,-46.0883 849.5,-31 855.787,-29.8561 862.386,-28.5426 868.881,-27.1834"/>
<polygon fill="midnightblue" stroke="midnightblue" points="869.895,-30.5455 878.94,-25.0277 868.428,-23.7009 869.895,-30.5455"/>
</g>
<!-- Node14 -->
<g id="node15" class="node"><title>Node14</title>
<polygon fill="white" stroke="#bfbfbf" points="990,-6 990,-25 1085,-25 1085,-6 990,-6"/>
<text text-anchor="middle" x="1037.5" y="-13" font-family="FreeSans" font-size="10.00">boost/optional.hpp</text>
</g>
<!-- Node1&#45;&gt;Node14 -->
<g id="edge14" class="edge"><title>Node1&#45;&gt;Node14</title>
<path fill="none" stroke="midnightblue" d="M607.251,-72.2672C694.731,-66.7748 850.238,-54.5194 981.5,-31 986.937,-30.0258 992.623,-28.8009 998.199,-27.478"/>
<polygon fill="midnightblue" stroke="midnightblue" points="999.185,-30.8393 1008.04,-25.024 997.492,-24.0473 999.185,-30.8393"/>
</g>
<!-- Node15 -->
<g id="node16" class="node"><title>Node15</title>
<polygon fill="white" stroke="#bfbfbf" points="1103,-6 1103,-25 1174,-25 1174,-6 1103,-6"/>
<text text-anchor="middle" x="1138.5" y="-13" font-family="FreeSans" font-size="10.00">Eigen/Dense</text>
</g>
<!-- Node1&#45;&gt;Node15 -->
<g id="edge15" class="edge"><title>Node1&#45;&gt;Node15</title>
<path fill="none" stroke="midnightblue" d="M607.274,-75.6587C713.032,-73.9652 921.505,-65.9864 1094.5,-31 1098.38,-30.2153 1102.39,-29.1963 1106.35,-28.0622"/>
<polygon fill="midnightblue" stroke="midnightblue" points="1107.43,-31.3899 1115.94,-25.0737 1105.35,-24.7067 1107.43,-31.3899"/>
</g>
<!-- Node16 -->
<g id="node17" class="node"><title>Node16</title>
<polygon fill="white" stroke="#bfbfbf" points="1192,-0.5 1192,-30.5 1337,-30.5 1337,-0.5 1192,-0.5"/>
<text text-anchor="start" x="1200" y="-18.5" font-family="FreeSans" font-size="10.00">SeeSaw/Elements/Geometric</text>
<text text-anchor="middle" x="1264.5" y="-7.5" font-family="FreeSans" font-size="10.00">Entity.h</text>
</g>
<!-- Node1&#45;&gt;Node16 -->
<g id="edge16" class="edge"><title>Node1&#45;&gt;Node16</title>
<path fill="none" stroke="midnightblue" d="M607.464,-73.6228C723.869,-69.0755 966.882,-57.2816 1181.5,-31.1676"/>
<polygon fill="midnightblue" stroke="midnightblue" points="1182.2,-34.608 1191.7,-29.9132 1181.35,-27.6603 1182.2,-34.608"/>
</g>
<!-- Node17 -->
<g id="node18" class="node"><title>Node17</title>
<polygon fill="white" stroke="#bfbfbf" points="1355,-6 1355,-25 1496,-25 1496,-6 1355,-6"/>
<text text-anchor="middle" x="1425.5" y="-13" font-family="FreeSans" font-size="10.00">SeeSaw/Elements/Camera.h</text>
</g>
<!-- Node1&#45;&gt;Node17 -->
<g id="edge17" class="edge"><title>Node1&#45;&gt;Node17</title>
<path fill="none" stroke="midnightblue" d="M607.123,-75.0877C746.785,-72.5905 1073.94,-63.473 1346.5,-31 1355.65,-29.9097 1365.34,-28.4158 1374.69,-26.7995"/>
<polygon fill="midnightblue" stroke="midnightblue" points="1375.42,-30.2235 1384.65,-25.0109 1374.19,-23.3337 1375.42,-30.2235"/>
</g>
<!-- Node18 -->
<g id="node19" class="node"><title>Node18</title>
<polygon fill="white" stroke="#bfbfbf" points="1514,-6 1514,-25 1659,-25 1659,-6 1514,-6"/>
<text text-anchor="middle" x="1586.5" y="-13" font-family="FreeSans" font-size="10.00">SeeSaw/Geometry/Rotation.h</text>
</g>
<!-- Node1&#45;&gt;Node18 -->
<g id="edge18" class="edge"><title>Node1&#45;&gt;Node18</title>
<path fill="none" stroke="midnightblue" d="M607.035,-75.8792C765.631,-74.9303 1170.01,-68.6713 1505.5,-31 1514.98,-29.9352 1525.03,-28.4388 1534.71,-26.8087"/>
<polygon fill="midnightblue" stroke="midnightblue" points="1535.37,-30.2465 1544.61,-25.0739 1534.16,-23.3514 1535.37,-30.2465"/>
</g>
</g>
</svg>
