<?xml version="1.0" encoding="UTF-8" standalone="no"?>
<!DOCTYPE svg PUBLIC "-//W3C//DTD SVG 1.1//EN"
 "http://www.w3.org/Graphics/SVG/1.1/DTD/svg11.dtd">
<!-- Generated by graphviz version 2.38.0 (20140413.2041)
 -->
<!-- Title: VisualMediaN::AppNodalCameraTrackerN::AppNodalCameraTrackerImplementationC Pages: 1 -->
<svg width="2573pt" height="1207pt"
 viewBox="0.00 0.00 2572.50 1207.00" xmlns="http://www.w3.org/2000/svg" xmlns:xlink="http://www.w3.org/1999/xlink">
<g id="graph0" class="graph" transform="scale(1 1) rotate(0) translate(4 1203)">
<title>VisualMediaN::AppNodalCameraTrackerN::AppNodalCameraTrackerImplementationC</title>
<polygon fill="white" stroke="none" points="-4,4 -4,-1203 2568.5,-1203 2568.5,4 -4,4"/>
<!-- Node1 -->
<g id="node1" class="node"><title>Node1</title>
<polygon fill="#bfbfbf" stroke="black" points="1246.5,-0.5 1246.5,-244.5 1458.5,-244.5 1458.5,-0.5 1246.5,-0.5"/>
<text text-anchor="start" x="1254.5" y="-232.5" font-family="FreeSans" font-size="10.00">VisualMediaN::AppNodalCamera</text>
<text text-anchor="start" x="1254.5" y="-221.5" font-family="FreeSans" font-size="10.00">TrackerN::AppNodalCameraTracker</text>
<text text-anchor="middle" x="1352.5" y="-210.5" font-family="FreeSans" font-size="10.00">ImplementationC</text>
<polyline fill="none" stroke="black" points="1246.5,-203.5 1458.5,-203.5 "/>
<text text-anchor="middle" x="1352.5" y="-191.5" font-family="FreeSans" font-size="10.00"> </text>
<polyline fill="none" stroke="black" points="1246.5,-184.5 1458.5,-184.5 "/>
<text text-anchor="start" x="1254.5" y="-172.5" font-family="FreeSans" font-size="10.00">* TimePointT</text>
<text text-anchor="start" x="1254.5" y="-161.5" font-family="FreeSans" font-size="10.00">* KeypointContainerT</text>
<text text-anchor="start" x="1254.5" y="-150.5" font-family="FreeSans" font-size="10.00">* DescriptorStackT</text>
<text text-anchor="start" x="1254.5" y="-139.5" font-family="FreeSans" font-size="10.00">* FeatureExtractorOutputT</text>
<text text-anchor="start" x="1254.5" y="-128.5" font-family="FreeSans" font-size="10.00">* MatchingProblemT</text>
<text text-anchor="start" x="1254.5" y="-117.5" font-family="FreeSans" font-size="10.00">* TrackerT</text>
<text text-anchor="start" x="1254.5" y="-106.5" font-family="FreeSans" font-size="10.00">* PruneTrackerTree()</text>
<text text-anchor="start" x="1254.5" y="-95.5" font-family="FreeSans" font-size="10.00">* LoadCamera()</text>
<text text-anchor="start" x="1254.5" y="-84.5" font-family="FreeSans" font-size="10.00">* LoadWorld()</text>
<text text-anchor="start" x="1254.5" y="-73.5" font-family="FreeSans" font-size="10.00">* Initialise()</text>
<text text-anchor="start" x="1254.5" y="-62.5" font-family="FreeSans" font-size="10.00">and 8 more...</text>
<text text-anchor="start" x="1254.5" y="-51.5" font-family="FreeSans" font-size="10.00">* AppNodalCameraTrackerImplementationC()</text>
<text text-anchor="start" x="1254.5" y="-40.5" font-family="FreeSans" font-size="10.00">* GetCommandLineOptions()</text>
<text text-anchor="start" x="1254.5" y="-29.5" font-family="FreeSans" font-size="10.00">* SetParameters()</text>
<text text-anchor="start" x="1254.5" y="-18.5" font-family="FreeSans" font-size="10.00">* Run()</text>
<text text-anchor="start" x="1254.5" y="-7.5" font-family="FreeSans" font-size="10.00">* GenerateConfigFile()</text>
</g>
<!-- Node2 -->
<g id="node2" class="node"><title>Node2</title>
<polygon fill="white" stroke="#bfbfbf" points="0,-386 0,-443 51,-443 51,-386 0,-386"/>
<text text-anchor="middle" x="25.5" y="-431" font-family="FreeSans" font-size="10.00">GpuMat</text>
<polyline fill="none" stroke="#bfbfbf" points="0,-424 51,-424 "/>
<text text-anchor="middle" x="25.5" y="-412" font-family="FreeSans" font-size="10.00"> </text>
<polyline fill="none" stroke="#bfbfbf" points="0,-405 51,-405 "/>
<text text-anchor="middle" x="25.5" y="-393" font-family="FreeSans" font-size="10.00"> </text>
</g>
<!-- Node2&#45;&gt;Node1 -->
<g id="edge1" class="edge"><title>Node2&#45;&gt;Node1</title>
<path fill="none" stroke="#404040" d="M17.8752,-385.714C10.4631,-351.914 4.37261,-295.372 35.5,-263 117.892,-177.315 926.59,-139.033 1234.39,-127.483"/>
<polygon fill="none" stroke="#404040" points="1234.47,-127.48 1240.31,-123.26 1246.46,-127.034 1240.61,-131.254 1234.47,-127.48"/>
<text text-anchor="middle" x="66" y="-277" font-family="FreeSans" font-size="10.00"> &#45;dDescriptors</text>
<text text-anchor="middle" x="66" y="-266" font-family="FreeSans" font-size="10.00">&#45;dImageG</text>
</g>
<!-- Node3 -->
<g id="node3" class="node"><title>Node3</title>
<polygon fill="white" stroke="#bfbfbf" points="73,-386 73,-443 140,-443 140,-386 73,-386"/>
<text text-anchor="middle" x="106.5" y="-431" font-family="FreeSans" font-size="10.00">VideoWriter</text>
<polyline fill="none" stroke="#bfbfbf" points="73,-424 140,-424 "/>
<text text-anchor="middle" x="106.5" y="-412" font-family="FreeSans" font-size="10.00"> </text>
<polyline fill="none" stroke="#bfbfbf" points="73,-405 140,-405 "/>
<text text-anchor="middle" x="106.5" y="-393" font-family="FreeSans" font-size="10.00"> </text>
</g>
<!-- Node3&#45;&gt;Node1 -->
<g id="edge2" class="edge"><title>Node3&#45;&gt;Node1</title>
<path fill="none" stroke="#404040" d="M98.2625,-385.836C90.1167,-352.16 82.838,-295.744 113.5,-263 189.386,-181.962 939.364,-141.219 1234.27,-128.232"/>
<polygon fill="none" stroke="#404040" points="1234.28,-128.232 1240.1,-123.974 1246.27,-127.708 1240.45,-131.966 1234.28,-128.232"/>
<text text-anchor="middle" x="134" y="-271.5" font-family="FreeSans" font-size="10.00"> &#45;recorder</text>
</g>
<!-- Node4 -->
<g id="node4" class="node"><title>Node4</title>
<polygon fill="white" stroke="#bfbfbf" points="2348,-909.5 2348,-977.5 2467,-977.5 2467,-909.5 2348,-909.5"/>
<text text-anchor="start" x="2356" y="-965.5" font-family="FreeSans" font-size="10.00">std::unique_ptr&lt; options</text>
<text text-anchor="middle" x="2407.5" y="-954.5" font-family="FreeSans" font-size="10.00">_description &gt;</text>
<polyline fill="none" stroke="#bfbfbf" points="2348,-947.5 2467,-947.5 "/>
<text text-anchor="middle" x="2407.5" y="-935.5" font-family="FreeSans" font-size="10.00"> </text>
<polyline fill="none" stroke="#bfbfbf" points="2348,-928.5 2467,-928.5 "/>
<text text-anchor="start" x="2356" y="-916.5" font-family="FreeSans" font-size="10.00">+ operator&#45;&gt;()</text>
</g>
<!-- Node4&#45;&gt;Node1 -->
<g id="edge3" class="edge"><title>Node4&#45;&gt;Node1</title>
<path fill="none" stroke="#404040" d="M2412.28,-909.287C2425.33,-804.662 2450.32,-478.485 2285.5,-303 2175.93,-186.339 1696.37,-143.401 1470.7,-129.452"/>
<polygon fill="none" stroke="#404040" points="1470.49,-129.439 1464.25,-133.067 1458.51,-128.711 1464.74,-125.082 1470.49,-129.439"/>
<text text-anchor="middle" x="2455" y="-552.5" font-family="FreeSans" font-size="10.00"> &#45;commandLineOptions</text>
</g>
<!-- Node5 -->
<g id="node5" class="node"><title>Node5</title>
<polygon fill="white" stroke="#bfbfbf" points="2340,-1031 2340,-1088 2441,-1088 2441,-1031 2340,-1031"/>
<text text-anchor="middle" x="2390.5" y="-1076" font-family="FreeSans" font-size="10.00">options_description</text>
<polyline fill="none" stroke="#bfbfbf" points="2340,-1069 2441,-1069 "/>
<text text-anchor="middle" x="2390.5" y="-1057" font-family="FreeSans" font-size="10.00"> </text>
<polyline fill="none" stroke="#bfbfbf" points="2340,-1050 2441,-1050 "/>
<text text-anchor="middle" x="2390.5" y="-1038" font-family="FreeSans" font-size="10.00"> </text>
</g>
<!-- Node5&#45;&gt;Node4 -->
<g id="edge4" class="edge"><title>Node5&#45;&gt;Node4</title>
<path fill="none" stroke="#404040" d="M2394.62,-1030.9C2396.47,-1018.47 2398.71,-1003.46 2400.79,-989.468"/>
<polygon fill="none" stroke="#404040" points="2400.81,-989.39 2397.73,-982.866 2402.58,-977.521 2405.65,-984.046 2400.81,-989.39"/>
<text text-anchor="middle" x="2409.5" y="-999" font-family="FreeSans" font-size="10.00"> +ptr</text>
</g>
<!-- Node6 -->
<g id="node6" class="node"><title>Node6</title>
<g id="a_node6"><a xlink:title="STL class. ">
<polygon fill="white" stroke="#bfbfbf" points="2459.5,-1031 2459.5,-1088 2561.5,-1088 2561.5,-1031 2459.5,-1031"/>
<text text-anchor="middle" x="2510.5" y="-1076" font-family="FreeSans" font-size="10.00">std::unique_ptr&lt; T &gt;</text>
<polyline fill="none" stroke="#bfbfbf" points="2459.5,-1069 2561.5,-1069 "/>
<text text-anchor="middle" x="2510.5" y="-1057" font-family="FreeSans" font-size="10.00"> </text>
<polyline fill="none" stroke="#bfbfbf" points="2459.5,-1050 2561.5,-1050 "/>
<text text-anchor="start" x="2467.5" y="-1038" font-family="FreeSans" font-size="10.00">+ operator&#45;&gt;()</text>
</a>
</g>
</g>
<!-- Node6&#45;&gt;Node4 -->
<g id="edge5" class="edge"><title>Node6&#45;&gt;Node4</title>
<path fill="none" stroke="orange" d="M2478.5,-1023.08C2465.36,-1008.54 2450.24,-991.803 2437.34,-977.521"/>
<polygon fill="orange" stroke="orange" points="2476.27,-1025.83 2485.57,-1030.9 2481.46,-1021.14 2476.27,-1025.83"/>
<text text-anchor="middle" x="2513" y="-999" font-family="FreeSans" font-size="10.00"> &lt; options_description &gt;</text>
</g>
<!-- Node7 -->
<g id="node7" class="node"><title>Node7</title>
<polygon fill="white" stroke="#bfbfbf" points="2066,-1141.5 2066,-1198.5 2095,-1198.5 2095,-1141.5 2066,-1141.5"/>
<text text-anchor="middle" x="2080.5" y="-1186.5" font-family="FreeSans" font-size="10.00">T</text>
<polyline fill="none" stroke="#bfbfbf" points="2066,-1179.5 2095,-1179.5 "/>
<text text-anchor="middle" x="2080.5" y="-1167.5" font-family="FreeSans" font-size="10.00"> </text>
<polyline fill="none" stroke="#bfbfbf" points="2066,-1160.5 2095,-1160.5 "/>
<text text-anchor="middle" x="2080.5" y="-1148.5" font-family="FreeSans" font-size="10.00"> </text>
</g>
<!-- Node7&#45;&gt;Node6 -->
<g id="edge6" class="edge"><title>Node7&#45;&gt;Node6</title>
<path fill="none" stroke="#404040" d="M2095.05,-1167.68C2145.6,-1162.76 2317.74,-1143.16 2450.5,-1094 2451.36,-1093.68 2452.22,-1093.35 2453.09,-1093.01"/>
<polygon fill="none" stroke="#404040" points="2453.33,-1092.9 2457.23,-1086.84 2464.33,-1088.1 2460.43,-1094.17 2453.33,-1092.9"/>
<text text-anchor="middle" x="2401.5" y="-1115" font-family="FreeSans" font-size="10.00"> +ptr</text>
</g>
<!-- Node28 -->
<g id="node28" class="node"><title>Node28</title>
<g id="a_node28"><a xlink:title="STL class. ">
<polygon fill="white" stroke="#bfbfbf" points="2041.5,-1031 2041.5,-1088 2119.5,-1088 2119.5,-1031 2041.5,-1031"/>
<text text-anchor="middle" x="2080.5" y="-1076" font-family="FreeSans" font-size="10.00">std::array&lt; T &gt;</text>
<polyline fill="none" stroke="#bfbfbf" points="2041.5,-1069 2119.5,-1069 "/>
<text text-anchor="middle" x="2080.5" y="-1057" font-family="FreeSans" font-size="10.00"> </text>
<polyline fill="none" stroke="#bfbfbf" points="2041.5,-1050 2119.5,-1050 "/>
<text text-anchor="middle" x="2080.5" y="-1038" font-family="FreeSans" font-size="10.00"> </text>
</a>
</g>
</g>
<!-- Node7&#45;&gt;Node28 -->
<g id="edge39" class="edge"><title>Node7&#45;&gt;Node28</title>
<path fill="none" stroke="#404040" d="M2080.5,-1141.34C2080.5,-1128.84 2080.5,-1113.84 2080.5,-1100.18"/>
<polygon fill="none" stroke="#404040" points="2080.5,-1100.11 2076.5,-1094.11 2080.5,-1088.11 2084.5,-1094.11 2080.5,-1100.11"/>
<text text-anchor="middle" x="2105" y="-1115" font-family="FreeSans" font-size="10.00"> +elements</text>
</g>
<!-- Node35 -->
<g id="node35" class="node"><title>Node35</title>
<g id="a_node35"><a xlink:title="STL class. ">
<polygon fill="white" stroke="#bfbfbf" points="1902.5,-1031 1902.5,-1088 1990.5,-1088 1990.5,-1031 1902.5,-1031"/>
<text text-anchor="middle" x="1946.5" y="-1076" font-family="FreeSans" font-size="10.00">std::map&lt; K, T &gt;</text>
<polyline fill="none" stroke="#bfbfbf" points="1902.5,-1069 1990.5,-1069 "/>
<text text-anchor="middle" x="1946.5" y="-1057" font-family="FreeSans" font-size="10.00"> </text>
<polyline fill="none" stroke="#bfbfbf" points="1902.5,-1050 1990.5,-1050 "/>
<text text-anchor="middle" x="1946.5" y="-1038" font-family="FreeSans" font-size="10.00"> </text>
</a>
</g>
</g>
<!-- Node7&#45;&gt;Node35 -->
<g id="edge58" class="edge"><title>Node7&#45;&gt;Node35</title>
<path fill="none" stroke="#404040" d="M2065.9,-1157.18C2047.78,-1142.51 2016.06,-1116.82 1989.86,-1095.61"/>
<polygon fill="none" stroke="#404040" points="1989.82,-1095.58 1982.64,-1094.91 1980.5,-1088.03 1987.68,-1088.69 1989.82,-1095.58"/>
<text text-anchor="middle" x="2046" y="-1115" font-family="FreeSans" font-size="10.00"> +elements</text>
</g>
<!-- Node8 -->
<g id="node8" class="node"><title>Node8</title>
<g id="a_node8"><a xlink:href="classVisualMediaN_1_1UtilityN_1_1VideoInputDeviceC.html" target="_top" xlink:title="Manages a video source. ">
<polygon fill="white" stroke="black" points="431,-303.5 431,-525.5 592,-525.5 592,-303.5 431,-303.5"/>
<text text-anchor="start" x="439" y="-513.5" font-family="FreeSans" font-size="10.00">VisualMediaN::UtilityN</text>
<text text-anchor="middle" x="511.5" y="-502.5" font-family="FreeSans" font-size="10.00">::VideoInputDeviceC</text>
<polyline fill="none" stroke="black" points="431,-495.5 592,-495.5 "/>
<text text-anchor="middle" x="511.5" y="-483.5" font-family="FreeSans" font-size="10.00"> </text>
<polyline fill="none" stroke="black" points="431,-476.5 592,-476.5 "/>
<text text-anchor="start" x="439" y="-464.5" font-family="FreeSans" font-size="10.00">+ VideoInputDeviceC()</text>
<text text-anchor="start" x="439" y="-453.5" font-family="FreeSans" font-size="10.00">+ VideoInputDeviceC()</text>
<text text-anchor="start" x="439" y="-442.5" font-family="FreeSans" font-size="10.00">+ operator=()</text>
<text text-anchor="start" x="439" y="-431.5" font-family="FreeSans" font-size="10.00">+ Initialise()</text>
<text text-anchor="start" x="439" y="-420.5" font-family="FreeSans" font-size="10.00">+ GetFrame()</text>
<text text-anchor="start" x="439" y="-409.5" font-family="FreeSans" font-size="10.00">+ GetHeight()</text>
<text text-anchor="start" x="439" y="-398.5" font-family="FreeSans" font-size="10.00">+ GetWidth()</text>
<text text-anchor="start" x="439" y="-387.5" font-family="FreeSans" font-size="10.00">+ GetFrameRate()</text>
<text text-anchor="start" x="439" y="-376.5" font-family="FreeSans" font-size="10.00">+ GetPosition()</text>
<text text-anchor="start" x="439" y="-365.5" font-family="FreeSans" font-size="10.00">+ IsEoF()</text>
<text text-anchor="start" x="439" y="-354.5" font-family="FreeSans" font-size="10.00">+ IsLive()</text>
<text text-anchor="start" x="439" y="-343.5" font-family="FreeSans" font-size="10.00">+ IsValid()</text>
<text text-anchor="start" x="439" y="-332.5" font-family="FreeSans" font-size="10.00">+ QueryNewFrame()</text>
<text text-anchor="start" x="439" y="-321.5" font-family="FreeSans" font-size="10.00">+ GetGrayscaleConversionCode()</text>
<text text-anchor="start" x="439" y="-310.5" font-family="FreeSans" font-size="10.00">+ GetBGRConversionCode()</text>
</a>
</g>
</g>
<!-- Node8&#45;&gt;Node1 -->
<g id="edge7" class="edge"><title>Node8&#45;&gt;Node1</title>
<path fill="none" stroke="#404040" d="M592.231,-303.357C607.738,-287.895 624.978,-273.667 643.5,-263 830.523,-155.288 1086.37,-129.346 1234.08,-123.915"/>
<polygon fill="none" stroke="#404040" points="1234.29,-123.908 1240.15,-119.709 1246.28,-123.504 1240.42,-127.704 1234.29,-123.908"/>
<text text-anchor="middle" x="673" y="-271.5" font-family="FreeSans" font-size="10.00"> &#45;videoDevice</text>
</g>
<!-- Node9 -->
<g id="node9" class="node"><title>Node9</title>
<polygon fill="white" stroke="#bfbfbf" points="411,-656 411,-713 486,-713 486,-656 411,-656"/>
<text text-anchor="middle" x="448.5" y="-701" font-family="FreeSans" font-size="10.00">VideoCapture</text>
<polyline fill="none" stroke="#bfbfbf" points="411,-694 486,-694 "/>
<text text-anchor="middle" x="448.5" y="-682" font-family="FreeSans" font-size="10.00"> </text>
<polyline fill="none" stroke="#bfbfbf" points="411,-675 486,-675 "/>
<text text-anchor="middle" x="448.5" y="-663" font-family="FreeSans" font-size="10.00"> </text>
</g>
<!-- Node9&#45;&gt;Node8 -->
<g id="edge8" class="edge"><title>Node9&#45;&gt;Node8</title>
<path fill="none" stroke="#404040" d="M452.544,-655.788C456.887,-627.505 464.404,-582.428 473.5,-544 474.01,-541.844 474.535,-539.671 475.073,-537.484"/>
<polygon fill="none" stroke="#404040" points="475.114,-537.322 472.71,-530.524 478.061,-525.69 480.465,-532.488 475.114,-537.322"/>
<text text-anchor="middle" x="512" y="-552.5" font-family="FreeSans" font-size="10.00"> &#45;ocvVideoSource</text>
</g>
<!-- Node10 -->
<g id="node10" class="node"><title>Node10</title>
<g id="a_node10"><a xlink:href="structVisualMediaN_1_1UtilityN_1_1VideoInputDeviceC_1_1VideoPropertiesC.html" target="_top" xlink:title="{VisualMediaN::UtilityN\l::VideoInputDeviceC::VideoPropertiesC\n||}">
<polygon fill="white" stroke="black" points="504,-650.5 504,-718.5 689,-718.5 689,-650.5 504,-650.5"/>
<text text-anchor="start" x="512" y="-706.5" font-family="FreeSans" font-size="10.00">VisualMediaN::UtilityN</text>
<text text-anchor="middle" x="596.5" y="-695.5" font-family="FreeSans" font-size="10.00">::VideoInputDeviceC::VideoPropertiesC</text>
<polyline fill="none" stroke="black" points="504,-688.5 689,-688.5 "/>
<text text-anchor="middle" x="596.5" y="-676.5" font-family="FreeSans" font-size="10.00"> </text>
<polyline fill="none" stroke="black" points="504,-669.5 689,-669.5 "/>
<text text-anchor="middle" x="596.5" y="-657.5" font-family="FreeSans" font-size="10.00"> </text>
</a>
</g>
</g>
<!-- Node10&#45;&gt;Node8 -->
<g id="edge9" class="edge"><title>Node10&#45;&gt;Node8</title>
<path fill="none" stroke="#404040" d="M585.992,-650.369C576.938,-621.823 563.287,-578.78 550.133,-537.308"/>
<polygon fill="none" stroke="#404040" points="550.068,-537.104 544.442,-532.594 546.44,-525.665 552.067,-530.175 550.068,-537.104"/>
<text text-anchor="middle" x="584" y="-552.5" font-family="FreeSans" font-size="10.00"> &#45;properties</text>
</g>
<!-- Node11 -->
<g id="node11" class="node"><title>Node11</title>
<polygon fill="white" stroke="#bfbfbf" points="1675,-1031 1675,-1088 1720,-1088 1720,-1031 1675,-1031"/>
<text text-anchor="middle" x="1697.5" y="-1076" font-family="FreeSans" font-size="10.00">double</text>
<polyline fill="none" stroke="#bfbfbf" points="1675,-1069 1720,-1069 "/>
<text text-anchor="middle" x="1697.5" y="-1057" font-family="FreeSans" font-size="10.00"> </text>
<polyline fill="none" stroke="#bfbfbf" points="1675,-1050 1720,-1050 "/>
<text text-anchor="middle" x="1697.5" y="-1038" font-family="FreeSans" font-size="10.00"> </text>
</g>
<!-- Node11&#45;&gt;Node10 -->
<g id="edge10" class="edge"><title>Node11&#45;&gt;Node10</title>
<path fill="none" stroke="#404040" d="M1674.77,-1055.13C1629.39,-1048.49 1524.27,-1033.65 1435.5,-1025 1357.91,-1017.44 801.075,-1020.15 735.5,-978 649.344,-922.623 615.42,-797.953 603.018,-730.643"/>
<polygon fill="none" stroke="#404040" points="603.009,-730.593 598.037,-725.37 600.945,-718.772 605.918,-723.994 603.009,-730.593"/>
<text text-anchor="middle" x="762.5" y="-941" font-family="FreeSans" font-size="10.00"> +frameRate</text>
</g>
<!-- Node20 -->
<g id="node20" class="node"><title>Node20</title>
<g id="a_node20"><a xlink:href="structVisualMediaN_1_1AppNodalCameraTrackerN_1_1AppNodalCameraTrackerParametersC.html" target="_top" xlink:title="Parameters for nodalCameraTracker. ">
<polygon fill="white" stroke="black" points="1267,-375 1267,-454 1438,-454 1438,-375 1267,-375"/>
<text text-anchor="start" x="1275" y="-442" font-family="FreeSans" font-size="10.00">VisualMediaN::AppNodalCamera</text>
<text text-anchor="start" x="1275" y="-431" font-family="FreeSans" font-size="10.00">TrackerN::AppNodalCameraTracker</text>
<text text-anchor="middle" x="1352.5" y="-420" font-family="FreeSans" font-size="10.00">ParametersC</text>
<polyline fill="none" stroke="black" points="1267,-413 1438,-413 "/>
<text text-anchor="middle" x="1352.5" y="-401" font-family="FreeSans" font-size="10.00"> </text>
<polyline fill="none" stroke="black" points="1267,-394 1438,-394 "/>
<text text-anchor="middle" x="1352.5" y="-382" font-family="FreeSans" font-size="10.00"> </text>
</a>
</g>
</g>
<!-- Node11&#45;&gt;Node20 -->
<g id="edge24" class="edge"><title>Node11&#45;&gt;Node20</title>
<path fill="none" stroke="#404040" d="M1674.95,-1040.59C1641.92,-1012.74 1581.78,-955.514 1558.5,-891 1545.22,-854.211 1548.69,-840.861 1558.5,-803 1560.8,-794.141 1566.2,-793.859 1568.5,-785 1590.91,-698.523 1579.42,-672.664 1568.5,-584 1566.26,-565.812 1569.28,-558.818 1558.5,-544 1530.84,-505.988 1488.19,-476.708 1448.85,-455.766"/>
<polygon fill="none" stroke="#404040" points="1448.78,-455.732 1441.62,-456.526 1438.13,-450.216 1445.29,-449.422 1448.78,-455.732"/>
<text text-anchor="middle" x="1605" y="-844.5" font-family="FreeSans" font-size="10.00"> +searchRegionScale</text>
</g>
<!-- Node30 -->
<g id="node30" class="node"><title>Node30</title>
<polygon fill="white" stroke="#bfbfbf" points="2076,-915 2076,-972 2187,-972 2187,-915 2076,-915"/>
<text text-anchor="middle" x="2131.5" y="-960" font-family="FreeSans" font-size="10.00">std::array&lt; double, 3 &gt;</text>
<polyline fill="none" stroke="#bfbfbf" points="2076,-953 2187,-953 "/>
<text text-anchor="middle" x="2131.5" y="-941" font-family="FreeSans" font-size="10.00"> </text>
<polyline fill="none" stroke="#bfbfbf" points="2076,-934 2187,-934 "/>
<text text-anchor="middle" x="2131.5" y="-922" font-family="FreeSans" font-size="10.00"> </text>
</g>
<!-- Node11&#45;&gt;Node30 -->
<g id="edge45" class="edge"><title>Node11&#45;&gt;Node30</title>
<path fill="none" stroke="#404040" d="M1720.15,-1053.39C1773.34,-1041.28 1910.33,-1009.49 2023.5,-978 2036.74,-974.316 2050.81,-970.142 2064.27,-966.021"/>
<polygon fill="none" stroke="#404040" points="2064.44,-965.969 2069,-960.376 2075.91,-962.428 2071.36,-968.02 2064.44,-965.969"/>
<text text-anchor="middle" x="1976" y="-999" font-family="FreeSans" font-size="10.00"> +elements</text>
</g>
<!-- Node34 -->
<g id="node34" class="node"><title>Node34</title>
<polygon fill="white" stroke="#bfbfbf" points="1891.5,-656 1891.5,-713 2019.5,-713 2019.5,-656 1891.5,-656"/>
<text text-anchor="middle" x="1955.5" y="-701" font-family="FreeSans" font-size="10.00">std::map&lt; string, double &gt;</text>
<polyline fill="none" stroke="#bfbfbf" points="1891.5,-694 2019.5,-694 "/>
<text text-anchor="middle" x="1955.5" y="-682" font-family="FreeSans" font-size="10.00"> </text>
<polyline fill="none" stroke="#bfbfbf" points="1891.5,-675 2019.5,-675 "/>
<text text-anchor="middle" x="1955.5" y="-663" font-family="FreeSans" font-size="10.00"> </text>
</g>
<!-- Node11&#45;&gt;Node34 -->
<g id="edge54" class="edge"><title>Node11&#45;&gt;Node34</title>
<path fill="none" stroke="#404040" d="M1717.8,-1030.68C1729.01,-1015.23 1743.13,-995.623 1755.5,-978 1819.25,-887.181 1892.46,-779.131 1930.14,-723.219"/>
<polygon fill="none" stroke="#404040" points="1930.27,-723.03 1930.3,-715.819 1936.97,-713.077 1936.94,-720.288 1930.27,-723.03"/>
<text text-anchor="middle" x="1826" y="-941" font-family="FreeSans" font-size="10.00"> +elements</text>
</g>
<!-- Node12 -->
<g id="node12" class="node"><title>Node12</title>
<polygon fill="white" stroke="#bfbfbf" points="1041,-915 1041,-972 1070,-972 1070,-915 1041,-915"/>
<text text-anchor="middle" x="1055.5" y="-960" font-family="FreeSans" font-size="10.00">int</text>
<polyline fill="none" stroke="#bfbfbf" points="1041,-953 1070,-953 "/>
<text text-anchor="middle" x="1055.5" y="-941" font-family="FreeSans" font-size="10.00"> </text>
<polyline fill="none" stroke="#bfbfbf" points="1041,-934 1070,-934 "/>
<text text-anchor="middle" x="1055.5" y="-922" font-family="FreeSans" font-size="10.00"> </text>
</g>
<!-- Node12&#45;&gt;Node1 -->
<g id="edge40" class="edge"><title>Node12&#45;&gt;Node1</title>
<path fill="none" stroke="#404040" d="M1045.01,-914.786C1042.18,-907.107 1039.16,-898.752 1036.5,-891 1023.17,-852.181 1040.83,-828.284 1008.5,-803 959.735,-764.863 773.043,-829.973 730.5,-785 693.695,-746.093 703.346,-591.283 728.5,-544 835.387,-343.08 1085.77,-220.885 1234.85,-163.313"/>
<polygon fill="none" stroke="#404040" points="1235.08,-163.226 1239.26,-157.348 1246.29,-158.945 1242.11,-164.822 1235.08,-163.226"/>
<text text-anchor="middle" x="779.5" y="-558" font-family="FreeSans" font-size="10.00"> &#45;lastORBFrameId</text>
<text text-anchor="middle" x="779.5" y="-547" font-family="FreeSans" font-size="10.00">&#45;lastCompletedFrameId</text>
</g>
<!-- Node12&#45;&gt;Node10 -->
<g id="edge11" class="edge"><title>Node12&#45;&gt;Node10</title>
<path fill="none" stroke="#404040" d="M1040.81,-929.813C1031.37,-922.418 1018.48,-913.657 1005.5,-909 967.245,-895.276 856.656,-914.505 823.5,-891 788.3,-866.046 816.103,-830.066 782.5,-803 754.117,-780.139 734.698,-802.073 702.5,-785 675.621,-770.747 650.553,-747.857 631.551,-727.623"/>
<polygon fill="none" stroke="#404040" points="631.357,-727.412 624.357,-725.681 623.262,-718.554 630.262,-720.284 631.357,-727.412"/>
<text text-anchor="middle" x="841" y="-850" font-family="FreeSans" font-size="10.00"> +height</text>
<text text-anchor="middle" x="841" y="-839" font-family="FreeSans" font-size="10.00">+width</text>
</g>
<!-- Node14 -->
<g id="node14" class="node"><title>Node14</title>
<g id="a_node14"><a xlink:href="structVisualMediaN_1_1UtilityN_1_1VideoAppConfigC.html" target="_top" xlink:title="Configuration object for the video input. ">
<polygon fill="white" stroke="black" points="888.5,-650.5 888.5,-718.5 1002.5,-718.5 1002.5,-650.5 888.5,-650.5"/>
<text text-anchor="start" x="896.5" y="-706.5" font-family="FreeSans" font-size="10.00">VisualMediaN::UtilityN</text>
<text text-anchor="middle" x="945.5" y="-695.5" font-family="FreeSans" font-size="10.00">::VideoAppConfigC</text>
<polyline fill="none" stroke="black" points="888.5,-688.5 1002.5,-688.5 "/>
<text text-anchor="middle" x="945.5" y="-676.5" font-family="FreeSans" font-size="10.00"> </text>
<polyline fill="none" stroke="black" points="888.5,-669.5 1002.5,-669.5 "/>
<text text-anchor="middle" x="945.5" y="-657.5" font-family="FreeSans" font-size="10.00"> </text>
</a>
</g>
</g>
<!-- Node12&#45;&gt;Node14 -->
<g id="edge15" class="edge"><title>Node12&#45;&gt;Node14</title>
<path fill="none" stroke="#404040" d="M1055.88,-914.847C1055.22,-885.617 1051.12,-838.87 1033.5,-803 1028.65,-793.123 1023.49,-793.499 1016.5,-785 1001.78,-767.106 986.704,-746.377 974.25,-728.486"/>
<polygon fill="none" stroke="#404040" points="974.245,-728.478 967.546,-725.81 967.432,-718.6 974.131,-721.268 974.245,-728.478"/>
<text text-anchor="middle" x="1105" y="-850" font-family="FreeSans" font-size="10.00"> +downsamplingFactor</text>
<text text-anchor="middle" x="1105" y="-839" font-family="FreeSans" font-size="10.00">+deviceID</text>
</g>
<!-- Node12&#45;&gt;Node20 -->
<g id="edge29" class="edge"><title>Node12&#45;&gt;Node20</title>
<path fill="none" stroke="#404040" d="M1070.35,-938.781C1092.14,-932.563 1132.69,-917.997 1155.5,-891 1181.99,-859.652 1151.15,-828.258 1183.5,-803 1233.52,-763.946 1420.64,-826.669 1468.5,-785 1537.26,-725.134 1454.87,-656.99 1509.5,-584 1519.75,-570.312 1534.68,-580.648 1543.5,-566 1548.54,-557.623 1548.1,-552.631 1543.5,-544 1523.07,-505.632 1485.52,-476.671 1449.09,-456.05"/>
<polygon fill="none" stroke="#404040" points="1448.89,-455.937 1441.7,-456.572 1438.35,-450.185 1445.54,-449.55 1448.89,-455.937"/>
<text text-anchor="middle" x="1539" y="-687.5" font-family="FreeSans" font-size="10.00"> +displayCost</text>
<text text-anchor="middle" x="1539" y="-676.5" font-family="FreeSans" font-size="10.00">+nThreads</text>
</g>
<!-- Node25 -->
<g id="node25" class="node"><title>Node25</title>
<g id="a_node25"><a xlink:href="structVisualMediaN_1_1UtilityN_1_1ORBParametersC.html" target="_top" xlink:title="Parameters for ORB. ">
<polygon fill="white" stroke="black" points="1610.5,-650.5 1610.5,-718.5 1724.5,-718.5 1724.5,-650.5 1610.5,-650.5"/>
<text text-anchor="start" x="1618.5" y="-706.5" font-family="FreeSans" font-size="10.00">VisualMediaN::UtilityN</text>
<text text-anchor="middle" x="1667.5" y="-695.5" font-family="FreeSans" font-size="10.00">::ORBParametersC</text>
<polyline fill="none" stroke="black" points="1610.5,-688.5 1724.5,-688.5 "/>
<text text-anchor="middle" x="1667.5" y="-676.5" font-family="FreeSans" font-size="10.00"> </text>
<polyline fill="none" stroke="black" points="1610.5,-669.5 1724.5,-669.5 "/>
<text text-anchor="middle" x="1667.5" y="-657.5" font-family="FreeSans" font-size="10.00"> </text>
</a>
</g>
</g>
<!-- Node12&#45;&gt;Node25 -->
<g id="edge35" class="edge"><title>Node12&#45;&gt;Node25</title>
<path fill="none" stroke="#404040" d="M1070.06,-940.09C1105.51,-934.003 1198.84,-916.647 1273.5,-891 1362.28,-860.505 1376.12,-831.678 1465.5,-803 1505.59,-790.138 1520.88,-803.899 1558.5,-785 1586.22,-771.074 1612.11,-748.062 1631.69,-727.675"/>
<polygon fill="none" stroke="#404040" points="1631.76,-727.601 1632.93,-720.486 1639.95,-718.835 1638.78,-725.949 1631.76,-727.601"/>
<text text-anchor="middle" x="1500.5" y="-883" font-family="FreeSans" font-size="10.00"> +fastThreshold</text>
<text text-anchor="middle" x="1500.5" y="-872" font-family="FreeSans" font-size="10.00">+edgeThreshold</text>
<text text-anchor="middle" x="1500.5" y="-861" font-family="FreeSans" font-size="10.00">+WTA_K</text>
<text text-anchor="middle" x="1500.5" y="-850" font-family="FreeSans" font-size="10.00">+firstLevel</text>
<text text-anchor="middle" x="1500.5" y="-839" font-family="FreeSans" font-size="10.00">+patchSize</text>
<text text-anchor="middle" x="1500.5" y="-828" font-family="FreeSans" font-size="10.00">+nFeatures</text>
<text text-anchor="middle" x="1500.5" y="-817" font-family="FreeSans" font-size="10.00">+nLevels</text>
<text text-anchor="middle" x="1500.5" y="-806" font-family="FreeSans" font-size="10.00">+scoreType</text>
</g>
<!-- Node13 -->
<g id="node13" class="node"><title>Node13</title>
<polygon fill="white" stroke="#bfbfbf" points="402,-915 402,-972 437,-972 437,-915 402,-915"/>
<text text-anchor="middle" x="419.5" y="-960" font-family="FreeSans" font-size="10.00">bool</text>
<polyline fill="none" stroke="#bfbfbf" points="402,-953 437,-953 "/>
<text text-anchor="middle" x="419.5" y="-941" font-family="FreeSans" font-size="10.00"> </text>
<polyline fill="none" stroke="#bfbfbf" points="402,-934 437,-934 "/>
<text text-anchor="middle" x="419.5" y="-922" font-family="FreeSans" font-size="10.00"> </text>
</g>
<!-- Node13&#45;&gt;Node1 -->
<g id="edge42" class="edge"><title>Node13&#45;&gt;Node1</title>
<path fill="none" stroke="#404040" d="M401.885,-941.093C369.378,-937.688 299.122,-926.464 253.5,-891 136.22,-799.833 179.903,-714.481 175.5,-566 175.21,-556.227 171.712,-553.014 175.5,-544 234.798,-402.896 286.625,-375.355 421.5,-303 687.324,-160.397 1049.65,-129.976 1234.1,-124.201"/>
<polygon fill="none" stroke="#404040" points="1234.26,-124.196 1240.14,-120.024 1246.26,-123.848 1240.38,-128.021 1234.26,-124.196"/>
<text text-anchor="middle" x="232.5" y="-558" font-family="FreeSans" font-size="10.00"> &#45;flagRegistrationComplete</text>
<text text-anchor="middle" x="232.5" y="-547" font-family="FreeSans" font-size="10.00">&#45;flagORBComplete</text>
</g>
<!-- Node13&#45;&gt;Node8 -->
<g id="edge20" class="edge"><title>Node13&#45;&gt;Node8</title>
<path fill="none" stroke="#404040" d="M402.468,-914.557C365.712,-850.276 287.767,-689.359 358.5,-584 370.277,-566.458 385.888,-579.057 402.5,-566 414.108,-556.876 425.049,-546.204 435.191,-534.83"/>
<polygon fill="none" stroke="#404040" points="435.327,-534.672 436.206,-527.515 443.151,-525.573 442.272,-532.731 435.327,-534.672"/>
<text text-anchor="middle" x="380" y="-682" font-family="FreeSans" font-size="10.00"> &#45;flagValid</text>
</g>
<!-- Node13&#45;&gt;Node10 -->
<g id="edge12" class="edge"><title>Node13&#45;&gt;Node10</title>
<path fill="none" stroke="#404040" d="M437.119,-916.918C467.431,-872.905 529.76,-782.405 566.855,-728.544"/>
<polygon fill="none" stroke="#404040" points="566.891,-728.492 567,-721.282 573.697,-718.609 573.588,-725.819 566.891,-728.492"/>
<text text-anchor="middle" x="535" y="-844.5" font-family="FreeSans" font-size="10.00"> +flagLive</text>
</g>
<!-- Node13&#45;&gt;Node14 -->
<g id="edge18" class="edge"><title>Node13&#45;&gt;Node14</title>
<path fill="none" stroke="#404040" d="M437.137,-939.722C496.102,-930.363 683.193,-900.066 692.5,-891 721.161,-863.08 681.793,-829.804 711.5,-803 738.557,-778.587 843.067,-803.439 874.5,-785 896.377,-772.167 913.303,-749.629 925.131,-729.244"/>
<polygon fill="none" stroke="#404040" points="925.238,-729.05 924.62,-721.865 931.014,-718.532 931.632,-725.716 925.238,-729.05"/>
<text text-anchor="middle" x="745" y="-844.5" font-family="FreeSans" font-size="10.00"> +flagInterlaced</text>
</g>
<!-- Node19 -->
<g id="node19" class="node"><title>Node19</title>
<g id="a_node19"><a xlink:href="classVisualMediaN_1_1UtilityN_1_1DecklinkWrapperC.html" target="_top" xlink:title="Wrapper for the Decklink API. ">
<polygon fill="white" stroke="black" points="197.5,-584.5 197.5,-784.5 313.5,-784.5 313.5,-584.5 197.5,-584.5"/>
<text text-anchor="start" x="205.5" y="-772.5" font-family="FreeSans" font-size="10.00">VisualMediaN::UtilityN</text>
<text text-anchor="middle" x="255.5" y="-761.5" font-family="FreeSans" font-size="10.00">::DecklinkWrapperC</text>
<polyline fill="none" stroke="black" points="197.5,-754.5 313.5,-754.5 "/>
<text text-anchor="middle" x="255.5" y="-742.5" font-family="FreeSans" font-size="10.00"> </text>
<polyline fill="none" stroke="black" points="197.5,-735.5 313.5,-735.5 "/>
<text text-anchor="start" x="205.5" y="-723.5" font-family="FreeSans" font-size="10.00">+ DecklinkWrapperC()</text>
<text text-anchor="start" x="205.5" y="-712.5" font-family="FreeSans" font-size="10.00">+ ~DecklinkWrapperC()</text>
<text text-anchor="start" x="205.5" y="-701.5" font-family="FreeSans" font-size="10.00">+ DecklinkWrapperC()</text>
<text text-anchor="start" x="205.5" y="-690.5" font-family="FreeSans" font-size="10.00">+ operator=()</text>
<text text-anchor="start" x="205.5" y="-679.5" font-family="FreeSans" font-size="10.00">+ Initialise()</text>
<text text-anchor="start" x="205.5" y="-668.5" font-family="FreeSans" font-size="10.00">+ StartCapture()</text>
<text text-anchor="start" x="205.5" y="-657.5" font-family="FreeSans" font-size="10.00">+ StopCapture()</text>
<text text-anchor="start" x="205.5" y="-646.5" font-family="FreeSans" font-size="10.00">+ GetLastFrame()</text>
<text text-anchor="start" x="205.5" y="-635.5" font-family="FreeSans" font-size="10.00">+ GetFrameRate()</text>
<text text-anchor="start" x="205.5" y="-624.5" font-family="FreeSans" font-size="10.00">+ GetFrameHeight()</text>
<text text-anchor="start" x="205.5" y="-613.5" font-family="FreeSans" font-size="10.00">+ GetFrameWidth()</text>
<text text-anchor="start" x="205.5" y="-602.5" font-family="FreeSans" font-size="10.00">+ IsValid()</text>
<text text-anchor="start" x="205.5" y="-591.5" font-family="FreeSans" font-size="10.00">+ QueryNewFrame()</text>
</a>
</g>
</g>
<!-- Node13&#45;&gt;Node19 -->
<g id="edge22" class="edge"><title>Node13&#45;&gt;Node19</title>
<path fill="none" stroke="#404040" d="M401.56,-940.636C373.628,-936.724 320.09,-924.99 292.5,-891 271.084,-864.617 260.391,-830.002 255.44,-796.721"/>
<polygon fill="none" stroke="#404040" points="255.403,-796.439 250.667,-791.001 253.866,-784.538 258.601,-789.976 255.403,-796.439"/>
<text text-anchor="middle" x="314" y="-844.5" font-family="FreeSans" font-size="10.00"> &#45;flagValid</text>
</g>
<!-- Node13&#45;&gt;Node20 -->
<g id="edge31" class="edge"><title>Node13&#45;&gt;Node20</title>
<path fill="none" stroke="#404040" d="M437.24,-937.978C487.041,-924.311 628.961,-878.506 697.5,-785 753.778,-708.221 698.468,-645.061 771.5,-584 806.816,-554.473 828.781,-576.922 873.5,-566 911.016,-556.837 1126.14,-488.238 1254.99,-446.884"/>
<polygon fill="none" stroke="#404040" points="1255.37,-446.761 1259.86,-441.119 1266.79,-443.093 1262.3,-448.736 1255.37,-446.761"/>
<text text-anchor="middle" x="825.5" y="-698.5" font-family="FreeSans" font-size="10.00"> +flagDisplay</text>
<text text-anchor="middle" x="825.5" y="-687.5" font-family="FreeSans" font-size="10.00">+flagMask</text>
<text text-anchor="middle" x="825.5" y="-676.5" font-family="FreeSans" font-size="10.00">+flagFilterMeasurements</text>
<text text-anchor="middle" x="825.5" y="-665.5" font-family="FreeSans" font-size="10.00">+flagVerbose</text>
</g>
<!-- Node14&#45;&gt;Node8 -->
<g id="edge13" class="edge"><title>Node14&#45;&gt;Node8</title>
<path fill="none" stroke="#404040" d="M925.542,-650.086C912.478,-629.729 894.218,-603.897 874.5,-584 799.567,-508.388 684.303,-462.926 603.824,-438.61"/>
<polygon fill="none" stroke="#404040" points="603.718,-438.579 596.83,-440.712 592.211,-435.174 599.1,-433.041 603.718,-438.579"/>
<text text-anchor="middle" x="867" y="-552.5" font-family="FreeSans" font-size="10.00"> &#45;config</text>
</g>
<!-- Node14&#45;&gt;Node20 -->
<g id="edge28" class="edge"><title>Node14&#45;&gt;Node20</title>
<path fill="none" stroke="#404040" d="M941.106,-650.271C938.922,-619.262 940.863,-573.471 965.5,-544 1036.59,-458.968 1165.46,-429.88 1254.86,-420.113"/>
<polygon fill="none" stroke="#404040" points="1254.98,-420.1 1260.55,-415.513 1266.92,-418.885 1261.36,-423.472 1254.98,-420.1"/>
<text text-anchor="middle" x="995" y="-552.5" font-family="FreeSans" font-size="10.00"> +videoConfig</text>
</g>
<!-- Node15 -->
<g id="node15" class="node"><title>Node15</title>
<polygon fill="white" stroke="#bfbfbf" points="799,-915 799,-972 900,-972 900,-915 799,-915"/>
<text text-anchor="middle" x="849.5" y="-960" font-family="FreeSans" font-size="10.00">VideoSourceCodeT</text>
<polyline fill="none" stroke="#bfbfbf" points="799,-953 900,-953 "/>
<text text-anchor="middle" x="849.5" y="-941" font-family="FreeSans" font-size="10.00"> </text>
<polyline fill="none" stroke="#bfbfbf" points="799,-934 900,-934 "/>
<text text-anchor="middle" x="849.5" y="-922" font-family="FreeSans" font-size="10.00"> </text>
</g>
<!-- Node15&#45;&gt;Node14 -->
<g id="edge14" class="edge"><title>Node15&#45;&gt;Node14</title>
<path fill="none" stroke="#404040" d="M855.7,-914.768C862.429,-886.276 874.156,-840.861 888.5,-803 897.939,-778.084 910.724,-751.283 921.793,-729.578"/>
<polygon fill="none" stroke="#404040" points="921.89,-729.391 921.09,-722.224 927.398,-718.73 928.198,-725.896 921.89,-729.391"/>
<text text-anchor="middle" x="918" y="-844.5" font-family="FreeSans" font-size="10.00"> +sourceType</text>
</g>
<!-- Node16 -->
<g id="node16" class="node"><title>Node16</title>
<g id="a_node16"><a xlink:title="STL class. ">
<polygon fill="white" stroke="#bfbfbf" points="1351,-915 1351,-972 1410,-972 1410,-915 1351,-915"/>
<text text-anchor="middle" x="1380.5" y="-960" font-family="FreeSans" font-size="10.00">std::string</text>
<polyline fill="none" stroke="#bfbfbf" points="1351,-953 1410,-953 "/>
<text text-anchor="middle" x="1380.5" y="-941" font-family="FreeSans" font-size="10.00"> </text>
<polyline fill="none" stroke="#bfbfbf" points="1351,-934 1410,-934 "/>
<text text-anchor="middle" x="1380.5" y="-922" font-family="FreeSans" font-size="10.00"> </text>
</a>
</g>
</g>
<!-- Node16&#45;&gt;Node14 -->
<g id="edge16" class="edge"><title>Node16&#45;&gt;Node14</title>
<path fill="none" stroke="#404040" d="M1350.87,-940.952C1312.77,-937.517 1246.43,-926.473 1203.5,-891 1169.64,-863.017 1194.45,-828.24 1158.5,-803 1106.43,-766.447 1071.11,-817.628 1016.5,-785 994.881,-772.083 978.048,-749.761 966.21,-729.528"/>
<polygon fill="none" stroke="#404040" points="966.13,-729.384 959.723,-726.075 960.313,-718.888 966.72,-722.197 966.13,-729.384"/>
<text text-anchor="middle" x="1238.5" y="-861" font-family="FreeSans" font-size="10.00"> +displayMode</text>
<text text-anchor="middle" x="1238.5" y="-850" font-family="FreeSans" font-size="10.00">+videoFilename</text>
<text text-anchor="middle" x="1238.5" y="-839" font-family="FreeSans" font-size="10.00">+colourMode</text>
<text text-anchor="middle" x="1238.5" y="-828" font-family="FreeSans" font-size="10.00">+pixelFormat</text>
</g>
<!-- Node16&#45;&gt;Node20 -->
<g id="edge30" class="edge"><title>Node16&#45;&gt;Node20</title>
<path fill="none" stroke="#404040" d="M1387.04,-914.972C1392.8,-883.129 1396.21,-831.445 1366.5,-803 1315.21,-753.902 1096.27,-836.601 1047.5,-785 1016.82,-752.538 1024.8,-622.47 1047.5,-584 1092.05,-508.487 1183.92,-464.469 1255.24,-440.488"/>
<polygon fill="none" stroke="#404040" points="1255.54,-440.39 1260.01,-434.726 1266.95,-436.668 1262.49,-442.332 1255.54,-440.39"/>
<text text-anchor="middle" x="1096" y="-720.5" font-family="FreeSans" font-size="10.00"> +worldFile</text>
<text text-anchor="middle" x="1096" y="-709.5" font-family="FreeSans" font-size="10.00">+cameraId</text>
<text text-anchor="middle" x="1096" y="-698.5" font-family="FreeSans" font-size="10.00">+cameraTrackFile</text>
<text text-anchor="middle" x="1096" y="-687.5" font-family="FreeSans" font-size="10.00">+recordedFeedFile</text>
<text text-anchor="middle" x="1096" y="-676.5" font-family="FreeSans" font-size="10.00">+referenceCameraFile</text>
<text text-anchor="middle" x="1096" y="-665.5" font-family="FreeSans" font-size="10.00">+endpointIP</text>
<text text-anchor="middle" x="1096" y="-654.5" font-family="FreeSans" font-size="10.00">+outputPath</text>
<text text-anchor="middle" x="1096" y="-643.5" font-family="FreeSans" font-size="10.00">+logFile</text>
</g>
<!-- Node16&#45;&gt;Node34 -->
<g id="edge55" class="edge"><title>Node16&#45;&gt;Node34</title>
<path fill="none" stroke="#404040" d="M1410.06,-941.201C1484.99,-937.443 1680.25,-924.602 1734.5,-891 1774.96,-865.941 1755.81,-829.252 1795.5,-803 1828.43,-781.218 1849.28,-806.338 1882.5,-785 1905.68,-770.112 1923.99,-745.077 1936.48,-723.844"/>
<polygon fill="none" stroke="#404040" points="1936.6,-723.627 1936.05,-716.437 1942.47,-713.162 1943.02,-720.352 1936.6,-723.627"/>
<text text-anchor="middle" x="1810" y="-844.5" font-family="FreeSans" font-size="10.00"> +keys</text>
</g>
<!-- Node17 -->
<g id="node17" class="node"><title>Node17</title>
<g id="a_node17"><a xlink:title="STL class. ">
<polygon fill="white" stroke="#bfbfbf" points="1334,-1025.5 1334,-1093.5 1427,-1093.5 1427,-1025.5 1334,-1025.5"/>
<text text-anchor="start" x="1342" y="-1081.5" font-family="FreeSans" font-size="10.00">std::basic_string&lt;</text>
<text text-anchor="middle" x="1380.5" y="-1070.5" font-family="FreeSans" font-size="10.00"> char &gt;</text>
<polyline fill="none" stroke="#bfbfbf" points="1334,-1063.5 1427,-1063.5 "/>
<text text-anchor="middle" x="1380.5" y="-1051.5" font-family="FreeSans" font-size="10.00"> </text>
<polyline fill="none" stroke="#bfbfbf" points="1334,-1044.5 1427,-1044.5 "/>
<text text-anchor="middle" x="1380.5" y="-1032.5" font-family="FreeSans" font-size="10.00"> </text>
</a>
</g>
</g>
<!-- Node17&#45;&gt;Node16 -->
<g id="edge17" class="edge"><title>Node17&#45;&gt;Node16</title>
<path fill="none" stroke="midnightblue" d="M1380.5,-1015.03C1380.5,-1000.67 1380.5,-985.096 1380.5,-972.242"/>
<polygon fill="none" stroke="midnightblue" points="1377,-1015.22 1380.5,-1025.22 1384,-1015.22 1377,-1015.22"/>
</g>
<!-- Node18 -->
<g id="node18" class="node"><title>Node18</title>
<polygon fill="white" stroke="#bfbfbf" points="918.5,-915 918.5,-972 996.5,-972 996.5,-915 918.5,-915"/>
<text text-anchor="middle" x="957.5" y="-960" font-family="FreeSans" font-size="10.00">ColourSpaceT</text>
<polyline fill="none" stroke="#bfbfbf" points="918.5,-953 996.5,-953 "/>
<text text-anchor="middle" x="957.5" y="-941" font-family="FreeSans" font-size="10.00"> </text>
<polyline fill="none" stroke="#bfbfbf" points="918.5,-934 996.5,-934 "/>
<text text-anchor="middle" x="957.5" y="-922" font-family="FreeSans" font-size="10.00"> </text>
</g>
<!-- Node18&#45;&gt;Node14 -->
<g id="edge19" class="edge"><title>Node18&#45;&gt;Node14</title>
<path fill="none" stroke="#404040" d="M956.216,-914.996C954.162,-871.001 950.115,-784.335 947.625,-731.004"/>
<polygon fill="none" stroke="#404040" points="947.617,-730.846 943.342,-725.04 947.058,-718.859 951.333,-724.666 947.617,-730.846"/>
<text text-anchor="middle" x="987" y="-844.5" font-family="FreeSans" font-size="10.00"> +colourSpace</text>
</g>
<!-- Node19&#45;&gt;Node8 -->
<g id="edge21" class="edge"><title>Node19&#45;&gt;Node8</title>
<path fill="none" stroke="#404040" d="M282.449,-584.18C288.922,-569.84 296.844,-555.924 306.5,-544 336.647,-506.772 380.617,-477.212 420.112,-455.875"/>
<polygon fill="none" stroke="#404040" points="420.234,-455.811 423.675,-449.475 430.849,-450.214 427.407,-456.551 420.234,-455.811"/>
<text text-anchor="middle" x="354.5" y="-552.5" font-family="FreeSans" font-size="10.00"> &#45;frameGrabberSource</text>
</g>
<!-- Node20&#45;&gt;Node1 -->
<g id="edge23" class="edge"><title>Node20&#45;&gt;Node1</title>
<path fill="none" stroke="#404040" d="M1352.5,-374.99C1352.5,-344.5 1352.5,-300.009 1352.5,-256.895"/>
<polygon fill="none" stroke="#404040" points="1352.5,-256.784 1348.5,-250.784 1352.5,-244.784 1356.5,-250.784 1352.5,-256.784"/>
<text text-anchor="middle" x="1380" y="-271.5" font-family="FreeSans" font-size="10.00"> &#45;parameters</text>
</g>
<!-- Node21 -->
<g id="node21" class="node"><title>Node21</title>
<polygon fill="white" stroke="#bfbfbf" points="1711,-915 1711,-972 1746,-972 1746,-915 1711,-915"/>
<text text-anchor="middle" x="1728.5" y="-960" font-family="FreeSans" font-size="10.00">float</text>
<polyline fill="none" stroke="#bfbfbf" points="1711,-953 1746,-953 "/>
<text text-anchor="middle" x="1728.5" y="-941" font-family="FreeSans" font-size="10.00"> </text>
<polyline fill="none" stroke="#bfbfbf" points="1711,-934 1746,-934 "/>
<text text-anchor="middle" x="1728.5" y="-922" font-family="FreeSans" font-size="10.00"> </text>
</g>
<!-- Node21&#45;&gt;Node20 -->
<g id="edge25" class="edge"><title>Node21&#45;&gt;Node20</title>
<path fill="none" stroke="#404040" d="M1745.75,-914.85C1747.57,-912.756 1749.49,-910.772 1751.5,-909 1764.63,-897.439 1777.39,-905.932 1786.5,-891 1806.87,-857.614 1800.4,-839.558 1786.5,-803 1782.7,-792.995 1775.2,-794.618 1770.5,-785 1730.64,-703.381 1777.65,-663.385 1733.5,-584 1677.43,-483.175 1543.32,-442.578 1450.18,-426.298"/>
<polygon fill="none" stroke="#404040" points="1450.02,-426.27 1443.44,-429.228 1438.18,-424.294 1444.76,-421.337 1450.02,-426.27"/>
<text text-anchor="middle" x="1801" y="-682" font-family="FreeSans" font-size="10.00"> +minRotation</text>
</g>
<!-- Node21&#45;&gt;Node25 -->
<g id="edge34" class="edge"><title>Node21&#45;&gt;Node25</title>
<path fill="none" stroke="#404040" d="M1710.92,-931.327C1698.27,-922.189 1682.13,-908.022 1674.5,-891 1651.5,-839.713 1654.14,-773.773 1659.59,-730.609"/>
<polygon fill="none" stroke="#404040" points="1659.62,-730.414 1656.48,-723.922 1661.26,-718.528 1664.4,-725.019 1659.62,-730.414"/>
<text text-anchor="middle" x="1704.5" y="-844.5" font-family="FreeSans" font-size="10.00"> +scaleFactor</text>
</g>
<!-- Node22 -->
<g id="node22" class="node"><title>Node22</title>
<polygon fill="white" stroke="#bfbfbf" points="1153.5,-650.5 1153.5,-718.5 1301.5,-718.5 1301.5,-650.5 1153.5,-650.5"/>
<text text-anchor="start" x="1161.5" y="-706.5" font-family="FreeSans" font-size="10.00">NodalCameraTrackingPipeline</text>
<text text-anchor="middle" x="1227.5" y="-695.5" font-family="FreeSans" font-size="10.00">ParametersC</text>
<polyline fill="none" stroke="#bfbfbf" points="1153.5,-688.5 1301.5,-688.5 "/>
<text text-anchor="middle" x="1227.5" y="-676.5" font-family="FreeSans" font-size="10.00"> </text>
<polyline fill="none" stroke="#bfbfbf" points="1153.5,-669.5 1301.5,-669.5 "/>
<text text-anchor="middle" x="1227.5" y="-657.5" font-family="FreeSans" font-size="10.00"> </text>
</g>
<!-- Node22&#45;&gt;Node20 -->
<g id="edge26" class="edge"><title>Node22&#45;&gt;Node20</title>
<path fill="none" stroke="#404040" d="M1216.06,-650.499C1207.89,-621.291 1200.72,-578.128 1215.5,-544 1229.58,-511.486 1256.39,-483.423 1282.58,-461.89"/>
<polygon fill="none" stroke="#404040" points="1282.79,-461.726 1285,-454.861 1292.18,-454.257 1289.98,-461.122 1282.79,-461.726"/>
<text text-anchor="middle" x="1260" y="-552.5" font-family="FreeSans" font-size="10.00"> +trackerParameters</text>
</g>
<!-- Node23 -->
<g id="node23" class="node"><title>Node23</title>
<polygon fill="white" stroke="#bfbfbf" points="1319.5,-656 1319.5,-713 1399.5,-713 1399.5,-656 1319.5,-656"/>
<text text-anchor="middle" x="1359.5" y="-701" font-family="FreeSans" font-size="10.00">unsigned short</text>
<polyline fill="none" stroke="#bfbfbf" points="1319.5,-694 1399.5,-694 "/>
<text text-anchor="middle" x="1359.5" y="-682" font-family="FreeSans" font-size="10.00"> </text>
<polyline fill="none" stroke="#bfbfbf" points="1319.5,-675 1399.5,-675 "/>
<text text-anchor="middle" x="1359.5" y="-663" font-family="FreeSans" font-size="10.00"> </text>
</g>
<!-- Node23&#45;&gt;Node20 -->
<g id="edge27" class="edge"><title>Node23&#45;&gt;Node20</title>
<path fill="none" stroke="#404040" d="M1344.12,-655.533C1332.29,-632.335 1316.92,-598.075 1310.5,-566 1303.68,-531.951 1314.19,-494.323 1326.39,-465.209"/>
<polygon fill="none" stroke="#404040" points="1326.45,-465.069 1325.22,-457.964 1331.3,-454.094 1332.54,-461.199 1326.45,-465.069"/>
<text text-anchor="middle" x="1342.5" y="-552.5" font-family="FreeSans" font-size="10.00"> +endpointPort</text>
</g>
<!-- Node24 -->
<g id="node24" class="node"><title>Node24</title>
<polygon fill="white" stroke="#bfbfbf" points="1417.5,-656 1417.5,-713 1459.5,-713 1459.5,-656 1417.5,-656"/>
<text text-anchor="middle" x="1438.5" y="-701" font-family="FreeSans" font-size="10.00">size_t</text>
<polyline fill="none" stroke="#bfbfbf" points="1417.5,-694 1459.5,-694 "/>
<text text-anchor="middle" x="1438.5" y="-682" font-family="FreeSans" font-size="10.00"> </text>
<polyline fill="none" stroke="#bfbfbf" points="1417.5,-675 1459.5,-675 "/>
<text text-anchor="middle" x="1438.5" y="-663" font-family="FreeSans" font-size="10.00"> </text>
</g>
<!-- Node24&#45;&gt;Node20 -->
<g id="edge32" class="edge"><title>Node24&#45;&gt;Node20</title>
<path fill="none" stroke="#404040" d="M1432.18,-655.792C1427.05,-635.442 1418.96,-607.386 1408.5,-584 1404.67,-575.442 1401.32,-574.562 1397.5,-566 1383.15,-533.821 1371.82,-495.789 1364.12,-466.009"/>
<polygon fill="none" stroke="#404040" points="1364.08,-465.842 1358.73,-461.002 1361.15,-454.206 1366.49,-459.046 1364.08,-465.842"/>
<text text-anchor="middle" x="1470.5" y="-552.5" font-family="FreeSans" font-size="10.00"> +subpixelRefinementWindowSize</text>
</g>
<!-- Node25&#45;&gt;Node20 -->
<g id="edge33" class="edge"><title>Node25&#45;&gt;Node20</title>
<path fill="none" stroke="#404040" d="M1657.19,-650.384C1646.25,-619.673 1626.36,-574.281 1596.5,-544 1555.49,-502.413 1498.15,-471.28 1449.36,-450.082"/>
<polygon fill="none" stroke="#404040" points="1449.18,-450.001 1442.09,-451.336 1438.13,-445.309 1445.22,-443.974 1449.18,-450.001"/>
<text text-anchor="middle" x="1649" y="-552.5" font-family="FreeSans" font-size="10.00"> +orbParameters</text>
</g>
<!-- Node26 -->
<g id="node26" class="node"><title>Node26</title>
<polygon fill="white" stroke="#bfbfbf" points="1886,-386 1886,-443 1985,-443 1985,-386 1886,-386"/>
<text text-anchor="middle" x="1935.5" y="-431" font-family="FreeSans" font-size="10.00">std::array&lt; Mat, 2 &gt;</text>
<polyline fill="none" stroke="#bfbfbf" points="1886,-424 1985,-424 "/>
<text text-anchor="middle" x="1935.5" y="-412" font-family="FreeSans" font-size="10.00"> </text>
<polyline fill="none" stroke="#bfbfbf" points="1886,-405 1985,-405 "/>
<text text-anchor="middle" x="1935.5" y="-393" font-family="FreeSans" font-size="10.00"> </text>
</g>
<!-- Node26&#45;&gt;Node1 -->
<g id="edge36" class="edge"><title>Node26&#45;&gt;Node1</title>
<path fill="none" stroke="#404040" d="M1924.51,-385.774C1913.83,-361.597 1895.7,-326.769 1871.5,-303 1845.38,-277.348 1833.15,-277.417 1799.5,-263 1691.05,-216.531 1561.89,-177.914 1470.36,-153.181"/>
<polygon fill="none" stroke="#404040" points="1470.14,-153.121 1463.31,-155.429 1458.55,-150.01 1465.38,-147.702 1470.14,-153.121"/>
<text text-anchor="middle" x="1872.5" y="-271.5" font-family="FreeSans" font-size="10.00"> &#45;hImageG</text>
</g>
<!-- Node27 -->
<g id="node27" class="node"><title>Node27</title>
<polygon fill="white" stroke="#bfbfbf" points="1840,-656 1840,-713 1873,-713 1873,-656 1840,-656"/>
<text text-anchor="middle" x="1856.5" y="-701" font-family="FreeSans" font-size="10.00">Mat</text>
<polyline fill="none" stroke="#bfbfbf" points="1840,-694 1873,-694 "/>
<text text-anchor="middle" x="1856.5" y="-682" font-family="FreeSans" font-size="10.00"> </text>
<polyline fill="none" stroke="#bfbfbf" points="1840,-675 1873,-675 "/>
<text text-anchor="middle" x="1856.5" y="-663" font-family="FreeSans" font-size="10.00"> </text>
</g>
<!-- Node27&#45;&gt;Node1 -->
<g id="edge41" class="edge"><title>Node27&#45;&gt;Node1</title>
<path fill="none" stroke="#404040" d="M1855.07,-655.78C1852.98,-634.912 1847.88,-606.205 1835.5,-584 1788.16,-499.099 1595.36,-327.648 1468.13,-219.586"/>
<polygon fill="none" stroke="#404040" points="1467.86,-219.355 1460.7,-218.526 1458.71,-211.594 1465.87,-212.424 1467.86,-219.355"/>
<text text-anchor="middle" x="1830.5" y="-428.5" font-family="FreeSans" font-size="10.00"> &#45;hDescriptors</text>
<text text-anchor="middle" x="1830.5" y="-417.5" font-family="FreeSans" font-size="10.00">&#45;currentFrameBGR</text>
<text text-anchor="middle" x="1830.5" y="-406.5" font-family="FreeSans" font-size="10.00">&#45;colourFrame</text>
<text text-anchor="middle" x="1830.5" y="-395.5" font-family="FreeSans" font-size="10.00">&#45;grayscaleFrame</text>
</g>
<!-- Node27&#45;&gt;Node26 -->
<g id="edge37" class="edge"><title>Node27&#45;&gt;Node26</title>
<path fill="none" stroke="#404040" d="M1863.31,-655.949C1868.36,-635.92 1875.54,-608.193 1882.5,-584 1895.3,-539.511 1911.43,-488.898 1922.52,-454.854"/>
<polygon fill="none" stroke="#404040" points="1922.63,-454.51 1920.69,-447.564 1926.36,-443.103 1928.3,-450.049 1922.63,-454.51"/>
<text text-anchor="middle" x="1917" y="-552.5" font-family="FreeSans" font-size="10.00"> +elements</text>
</g>
<!-- Node28&#45;&gt;Node26 -->
<g id="edge38" class="edge"><title>Node28&#45;&gt;Node26</title>
<path fill="none" stroke="orange" d="M2074,-1021.05C2071.77,-1007.51 2069.37,-992.091 2067.5,-978 2062.4,-939.463 2062.39,-929.678 2058.5,-891 2044.78,-754.594 2074.05,-713.305 2028.5,-584 2018.26,-554.933 2005.84,-552.73 1990.5,-526 1974.72,-498.492 1958.8,-465.858 1948.18,-443.218"/>
<polygon fill="orange" stroke="orange" points="2070.56,-1021.7 2075.66,-1030.99 2077.46,-1020.55 2070.56,-1021.7"/>
<text text-anchor="middle" x="2081.5" y="-844.5" font-family="FreeSans" font-size="10.00"> &lt; Mat, 2 &gt;</text>
</g>
<!-- Node28&#45;&gt;Node30 -->
<g id="edge46" class="edge"><title>Node28&#45;&gt;Node30</title>
<path fill="none" stroke="orange" d="M2076.59,-1020.81C2076.94,-1012.4 2078.31,-1003.7 2081.5,-996 2085.13,-987.252 2091.01,-979.16 2097.49,-972.104"/>
<polygon fill="orange" stroke="orange" points="2073.09,-1020.85 2076.61,-1030.84 2080.09,-1020.83 2073.09,-1020.85"/>
<text text-anchor="middle" x="2110.5" y="-999" font-family="FreeSans" font-size="10.00"> &lt; double, 3 &gt;</text>
</g>
<!-- Node31 -->
<g id="node31" class="node"><title>Node31</title>
<polygon fill="white" stroke="#bfbfbf" points="2205.5,-909.5 2205.5,-977.5 2329.5,-977.5 2329.5,-909.5 2205.5,-909.5"/>
<text text-anchor="start" x="2213.5" y="-965.5" font-family="FreeSans" font-size="10.00">std::array&lt; CameraMatrix</text>
<text text-anchor="middle" x="2267.5" y="-954.5" font-family="FreeSans" font-size="10.00">T, 3 &gt;</text>
<polyline fill="none" stroke="#bfbfbf" points="2205.5,-947.5 2329.5,-947.5 "/>
<text text-anchor="middle" x="2267.5" y="-935.5" font-family="FreeSans" font-size="10.00"> </text>
<polyline fill="none" stroke="#bfbfbf" points="2205.5,-928.5 2329.5,-928.5 "/>
<text text-anchor="middle" x="2267.5" y="-916.5" font-family="FreeSans" font-size="10.00"> </text>
</g>
<!-- Node28&#45;&gt;Node31 -->
<g id="edge49" class="edge"><title>Node28&#45;&gt;Node31</title>
<path fill="none" stroke="orange" d="M2128.1,-1025.31C2142.51,-1015.59 2158.5,-1005.13 2173.5,-996 2183.67,-989.811 2194.64,-983.498 2205.36,-977.509"/>
<polygon fill="orange" stroke="orange" points="2126.12,-1022.42 2119.81,-1030.93 2130.05,-1028.21 2126.12,-1022.42"/>
<text text-anchor="middle" x="2221.5" y="-999" font-family="FreeSans" font-size="10.00"> &lt; CameraMatrixT, 3 &gt;</text>
</g>
<!-- Node29 -->
<g id="node29" class="node"><title>Node29</title>
<g id="a_node29"><a xlink:href="classVisualMediaN_1_1UtilityN_1_1PoseFilterC.html" target="_top" xlink:title="{VisualMediaN::UtilityN\l::PoseFilterC\&lt; P2PfSolverC \&gt;\n||+ Apply()\l&#45; Update()\l* Update()\l}">
<polygon fill="white" stroke="black" points="2131,-369.5 2131,-459.5 2276,-459.5 2276,-369.5 2131,-369.5"/>
<text text-anchor="start" x="2139" y="-447.5" font-family="FreeSans" font-size="10.00">VisualMediaN::UtilityN</text>
<text text-anchor="middle" x="2203.5" y="-436.5" font-family="FreeSans" font-size="10.00">::PoseFilterC&lt; P2PfSolverC &gt;</text>
<polyline fill="none" stroke="black" points="2131,-429.5 2276,-429.5 "/>
<text text-anchor="middle" x="2203.5" y="-417.5" font-family="FreeSans" font-size="10.00"> </text>
<polyline fill="none" stroke="black" points="2131,-410.5 2276,-410.5 "/>
<text text-anchor="start" x="2139" y="-398.5" font-family="FreeSans" font-size="10.00">+ Apply()</text>
<text text-anchor="start" x="2139" y="-387.5" font-family="FreeSans" font-size="10.00">&#45; Update()</text>
<text text-anchor="start" x="2139" y="-376.5" font-family="FreeSans" font-size="10.00">* Update()</text>
</a>
</g>
</g>
<!-- Node29&#45;&gt;Node1 -->
<g id="edge43" class="edge"><title>Node29&#45;&gt;Node1</title>
<path fill="none" stroke="#404040" d="M2180.91,-369.388C2160.86,-334.864 2128.29,-288.556 2086.5,-263 1984.89,-200.854 1651.3,-156.079 1470.88,-135.736"/>
<polygon fill="none" stroke="#404040" points="1470.61,-135.707 1464.21,-139.015 1458.69,-134.373 1465.1,-131.064 1470.61,-135.707"/>
<text text-anchor="middle" x="2139" y="-271.5" font-family="FreeSans" font-size="10.00"> &#45;poseFilter</text>
</g>
<!-- Node30&#45;&gt;Node29 -->
<g id="edge44" class="edge"><title>Node30&#45;&gt;Node29</title>
<path fill="none" stroke="#404040" d="M2125.32,-914.56C2112.93,-853.543 2088.6,-704.214 2117.5,-584 2127.23,-543.547 2148.39,-501.869 2167.28,-470.085"/>
<polygon fill="none" stroke="#404040" points="2167.36,-469.96 2167.05,-462.755 2173.58,-459.701 2173.89,-466.905 2167.36,-469.96"/>
<text text-anchor="middle" x="2137.5" y="-682" font-family="FreeSans" font-size="10.00"> &#45;weights</text>
</g>
<!-- Node33 -->
<g id="node33" class="node"><title>Node33</title>
<g id="a_node33"><a xlink:href="classVisualMediaN_1_1UtilityN_1_1PoseFilterC.html" target="_top" xlink:title="A 3&#45;tap pose filter. ">
<polygon fill="white" stroke="black" points="2166.5,-639.5 2166.5,-729.5 2288.5,-729.5 2288.5,-639.5 2166.5,-639.5"/>
<text text-anchor="start" x="2174.5" y="-717.5" font-family="FreeSans" font-size="10.00">VisualMediaN::UtilityN</text>
<text text-anchor="middle" x="2227.5" y="-706.5" font-family="FreeSans" font-size="10.00">::PoseFilterC&lt; SolverT &gt;</text>
<polyline fill="none" stroke="black" points="2166.5,-699.5 2288.5,-699.5 "/>
<text text-anchor="middle" x="2227.5" y="-687.5" font-family="FreeSans" font-size="10.00"> </text>
<polyline fill="none" stroke="black" points="2166.5,-680.5 2288.5,-680.5 "/>
<text text-anchor="start" x="2174.5" y="-668.5" font-family="FreeSans" font-size="10.00">+ Apply()</text>
<text text-anchor="start" x="2174.5" y="-657.5" font-family="FreeSans" font-size="10.00">&#45; Update()</text>
<text text-anchor="start" x="2174.5" y="-646.5" font-family="FreeSans" font-size="10.00">* Update()</text>
</a>
</g>
</g>
<!-- Node30&#45;&gt;Node33 -->
<g id="edge51" class="edge"><title>Node30&#45;&gt;Node33</title>
<path fill="none" stroke="#404040" d="M2141.77,-914.996C2157.19,-873.738 2186.61,-794.954 2206.65,-741.328"/>
<polygon fill="none" stroke="#404040" points="2206.7,-741.196 2205.05,-734.175 2210.89,-729.954 2212.54,-736.975 2206.7,-741.196"/>
<text text-anchor="middle" x="2201.5" y="-844.5" font-family="FreeSans" font-size="10.00"> &#45;weights</text>
</g>
<!-- Node31&#45;&gt;Node29 -->
<g id="edge47" class="edge"><title>Node31&#45;&gt;Node29</title>
<path fill="none" stroke="#404040" d="M2285.94,-909.448C2288.58,-903.464 2290.93,-897.164 2292.5,-891 2330.59,-741.544 2345.86,-690.122 2296.5,-544 2287.37,-516.963 2270.39,-490.758 2253.41,-469.143"/>
<polygon fill="none" stroke="#404040" points="2253.2,-468.873 2246.31,-466.728 2245.64,-459.548 2252.53,-461.693 2253.2,-468.873"/>
<text text-anchor="middle" x="2342.5" y="-682" font-family="FreeSans" font-size="10.00"> &#45;buffer</text>
</g>
<!-- Node31&#45;&gt;Node33 -->
<g id="edge52" class="edge"><title>Node31&#45;&gt;Node33</title>
<path fill="none" stroke="#404040" d="M2262.35,-909.428C2255.75,-867.006 2244.2,-792.797 2236.22,-741.499"/>
<polygon fill="none" stroke="#404040" points="2236.21,-741.489 2231.34,-736.176 2234.37,-729.632 2239.24,-734.945 2236.21,-741.489"/>
<text text-anchor="middle" x="2273.5" y="-844.5" font-family="FreeSans" font-size="10.00"> &#45;buffer</text>
</g>
<!-- Node32 -->
<g id="node32" class="node"><title>Node32</title>
<polygon fill="white" stroke="#bfbfbf" points="2239,-1031 2239,-1088 2322,-1088 2322,-1031 2239,-1031"/>
<text text-anchor="middle" x="2280.5" y="-1076" font-family="FreeSans" font-size="10.00">CameraMatrixT</text>
<polyline fill="none" stroke="#bfbfbf" points="2239,-1069 2322,-1069 "/>
<text text-anchor="middle" x="2280.5" y="-1057" font-family="FreeSans" font-size="10.00"> </text>
<polyline fill="none" stroke="#bfbfbf" points="2239,-1050 2322,-1050 "/>
<text text-anchor="middle" x="2280.5" y="-1038" font-family="FreeSans" font-size="10.00"> </text>
</g>
<!-- Node32&#45;&gt;Node31 -->
<g id="edge48" class="edge"><title>Node32&#45;&gt;Node31</title>
<path fill="none" stroke="#404040" d="M2277.35,-1030.9C2275.93,-1018.47 2274.22,-1003.46 2272.63,-989.468"/>
<polygon fill="none" stroke="#404040" points="2272.63,-989.444 2267.97,-983.936 2271.27,-977.521 2275.92,-983.029 2272.63,-989.444"/>
<text text-anchor="middle" x="2298" y="-999" font-family="FreeSans" font-size="10.00"> +elements</text>
</g>
<!-- Node33&#45;&gt;Node29 -->
<g id="edge50" class="edge"><title>Node33&#45;&gt;Node29</title>
<path fill="none" stroke="orange" d="M2222.64,-629.281C2218.18,-579.392 2211.63,-506.301 2207.47,-459.82"/>
<polygon fill="orange" stroke="orange" points="2219.16,-629.597 2223.54,-639.245 2226.13,-628.973 2219.16,-629.597"/>
<text text-anchor="middle" x="2254.5" y="-552.5" font-family="FreeSans" font-size="10.00"> &lt; P2PfSolverC &gt;</text>
</g>
<!-- Node34&#45;&gt;Node1 -->
<g id="edge53" class="edge"><title>Node34&#45;&gt;Node1</title>
<path fill="none" stroke="#404040" d="M1969.41,-655.766C2000.85,-588.758 2069.07,-415.302 1994.5,-303 1936.55,-215.73 1639.52,-162.125 1470.52,-138.213"/>
<polygon fill="none" stroke="#404040" points="1470.46,-138.205 1463.97,-141.335 1458.58,-136.542 1465.07,-133.412 1470.46,-138.205"/>
<text text-anchor="middle" x="2043.5" y="-412" font-family="FreeSans" font-size="10.00"> &#45;logger</text>
</g>
<!-- Node35&#45;&gt;Node34 -->
<g id="edge56" class="edge"><title>Node35&#45;&gt;Node34</title>
<path fill="none" stroke="orange" d="M1947.42,-1020.34C1949.24,-945.054 1953.24,-778.985 1954.83,-713.16"/>
<polygon fill="orange" stroke="orange" points="1943.91,-1020.69 1947.17,-1030.77 1950.91,-1020.86 1943.91,-1020.69"/>
<text text-anchor="middle" x="1988" y="-941" font-family="FreeSans" font-size="10.00"> &lt; string, double &gt;</text>
</g>
<!-- Node36 -->
<g id="node36" class="node"><title>Node36</title>
<polygon fill="white" stroke="#bfbfbf" points="1932,-1141.5 1932,-1198.5 1961,-1198.5 1961,-1141.5 1932,-1141.5"/>
<text text-anchor="middle" x="1946.5" y="-1186.5" font-family="FreeSans" font-size="10.00">K</text>
<polyline fill="none" stroke="#bfbfbf" points="1932,-1179.5 1961,-1179.5 "/>
<text text-anchor="middle" x="1946.5" y="-1167.5" font-family="FreeSans" font-size="10.00"> </text>
<polyline fill="none" stroke="#bfbfbf" points="1932,-1160.5 1961,-1160.5 "/>
<text text-anchor="middle" x="1946.5" y="-1148.5" font-family="FreeSans" font-size="10.00"> </text>
</g>
<!-- Node36&#45;&gt;Node35 -->
<g id="edge57" class="edge"><title>Node36&#45;&gt;Node35</title>
<path fill="none" stroke="#404040" d="M1946.5,-1141.34C1946.5,-1128.84 1946.5,-1113.84 1946.5,-1100.18"/>
<polygon fill="none" stroke="#404040" points="1946.5,-1100.11 1942.5,-1094.11 1946.5,-1088.11 1950.5,-1094.11 1946.5,-1100.11"/>
<text text-anchor="middle" x="1961" y="-1115" font-family="FreeSans" font-size="10.00"> +keys</text>
</g>
</g>
</svg>
