<?xml version="1.0" encoding="UTF-8" standalone="no"?>
<!DOCTYPE svg PUBLIC "-//W3C//DTD SVG 1.1//EN"
 "http://www.w3.org/Graphics/SVG/1.1/DTD/svg11.dtd">
<!-- Generated by graphviz version 2.38.0 (20140413.2041)
 -->
<!-- Title: VisualMediaN::UtilityN::BrainstormRemoteMapsC::Validate Pages: 1 -->
<!--zoomable 110 -->
<svg id="main" version="1.1" xmlns="http://www.w3.org/2000/svg" xmlns:xlink="http://www.w3.org/1999/xlink" xml:space="preserve" onload="init(evt)">
<style type="text/css"><![CDATA[
.edge:hover path { stroke: red; }
.edge:hover polygon { stroke: red; fill: red; }
]]></style>
<script type="text/javascript"><![CDATA[
var edges = document.getElementsByTagName('g');
if (edges && edges.length) {
  for (var i=0;i<edges.length;i++) {
    if (edges[i].id.substr(0,4)=='edge') {
      edges[i].setAttribute('class','edge');
    }
  }
}
]]></script>
        <defs>
                <circle id="rim" cx="0" cy="0" r="7"/>
                <circle id="rim2" cx="0" cy="0" r="3.5"/>
                <g id="zoomPlus">
                        <use xlink:href="#rim" fill="#404040">
                                <set attributeName="fill" to="#808080" begin="zoomplus.mouseover" end="zoomplus.mouseout"/>
                        </use>
                        <path d="M-4,0h8M0,-4v8" fill="none" stroke="white" stroke-width="1.5" pointer-events="none"/>
                </g>
                <g id="zoomMin">
                        <use xlink:href="#rim" fill="#404040">
                                <set attributeName="fill" to="#808080" begin="zoomminus.mouseover" end="zoomminus.mouseout"/>
                        </use>
                        <path d="M-4,0h8" fill="none" stroke="white" stroke-width="1.5" pointer-events="none"/>
                </g>
                <g id="dirArrow">
                        <path fill="none" stroke="white" stroke-width="1.5" d="M0,-3.0v7 M-2.5,-0.5L0,-3.0L2.5,-0.5"/>
                </g>
               <g id="resetDef">
                       <use xlink:href="#rim2" fill="#404040">
                               <set attributeName="fill" to="#808080" begin="reset.mouseover" end="reset.mouseout"/>
                       </use>
               </g>
        </defs>

<script type="text/javascript">
var viewWidth = 531;
var viewHeight = 110;
var sectionId = 'dynsection-5';
</script>
<script xlink:href="svgpan.js"/>
<svg id="graph" class="graph">
<g id="viewport">
<title>VisualMediaN::UtilityN::BrainstormRemoteMapsC::Validate</title>
<polygon fill="white" stroke="none" points="-4,4 -4,-106 527,-106 527,4 -4,4"/>
<!-- Node18 -->
<g id="node1" class="node"><title>Node18</title>
<polygon fill="#bfbfbf" stroke="black" points="0,-30.5 0,-71.5 133,-71.5 133,-30.5 0,-30.5"/>
<text text-anchor="start" x="8" y="-59.5" font-family="FreeSans" font-size="10.00">VisualMediaN::UtilityN</text>
<text text-anchor="start" x="8" y="-48.5" font-family="FreeSans" font-size="10.00">::BrainstormRemoteMapsC</text>
<text text-anchor="middle" x="66.5" y="-37.5" font-family="FreeSans" font-size="10.00">::Validate</text>
</g>
<!-- Node19 -->
<g id="node2" class="node"><title>Node19</title>
<g id="a_node2"><a xlink:href="classVisualMediaN_1_1UtilityN_1_1BrainstormRemoteMapsC.html#aa0de6480f2446cd443ae32fd7b406576" target="_top" xlink:title="Generates a remote maps message for transmission. ">
<polygon fill="white" stroke="black" points="169,-30.5 169,-71.5 302,-71.5 302,-30.5 169,-30.5"/>
<text text-anchor="start" x="177" y="-59.5" font-family="FreeSans" font-size="10.00">VisualMediaN::UtilityN</text>
<text text-anchor="start" x="177" y="-48.5" font-family="FreeSans" font-size="10.00">::BrainstormRemoteMapsC</text>
<text text-anchor="middle" x="235.5" y="-37.5" font-family="FreeSans" font-size="10.00">::GenerateMessage</text>
</a>
</g>
</g>
<!-- Node18&#45;&gt;Node19 -->
<g id="edge1" class="edge"><title>Node18&#45;&gt;Node19</title>
<path fill="none" stroke="midnightblue" d="M143.066,-51C151.685,-51 160.417,-51 168.891,-51"/>
<polygon fill="midnightblue" stroke="midnightblue" points="143.024,-47.5001 133.024,-51 143.023,-54.5001 143.024,-47.5001"/>
</g>
<!-- Node20 -->
<g id="node3" class="node"><title>Node20</title>
<g id="a_node3"><a xlink:href="classVisualMediaN_1_1AppRoamingCameraTrackerN_1_1AppRoamingCameraTrackerImplementationC.html#aa37a0e090f6ba62a4a9fd8ac401a38ad" target="_top" xlink:title="Runs the application. ">
<polygon fill="white" stroke="black" points="338,-60.5 338,-101.5 523,-101.5 523,-60.5 338,-60.5"/>
<text text-anchor="start" x="346" y="-89.5" font-family="FreeSans" font-size="10.00">VisualMediaN::AppRoaming</text>
<text text-anchor="start" x="346" y="-78.5" font-family="FreeSans" font-size="10.00">CameraTrackerN::AppRoamingCamera</text>
<text text-anchor="middle" x="430.5" y="-67.5" font-family="FreeSans" font-size="10.00">TrackerImplementationC::Run</text>
</a>
</g>
</g>
<!-- Node19&#45;&gt;Node20 -->
<g id="edge2" class="edge"><title>Node19&#45;&gt;Node20</title>
<path fill="none" stroke="midnightblue" d="M312.206,-62.7678C320.587,-64.0705 329.187,-65.4073 337.738,-66.7364"/>
<polygon fill="midnightblue" stroke="midnightblue" points="312.529,-59.2761 302.11,-61.1985 311.454,-66.193 312.529,-59.2761"/>
</g>
<!-- Node21 -->
<g id="node4" class="node"><title>Node21</title>
<g id="a_node4"><a xlink:href="classVisualMediaN_1_1AppNodalCameraTrackerN_1_1AppNodalCameraTrackerImplementationC.html#abf0b04470faa4d5302ca0ca0b098595b" target="_top" xlink:title="Runs the application. ">
<polygon fill="white" stroke="black" points="345,-0.5 345,-41.5 516,-41.5 516,-0.5 345,-0.5"/>
<text text-anchor="start" x="353" y="-29.5" font-family="FreeSans" font-size="10.00">VisualMediaN::AppNodalCamera</text>
<text text-anchor="start" x="353" y="-18.5" font-family="FreeSans" font-size="10.00">TrackerN::AppNodalCameraTracker</text>
<text text-anchor="middle" x="430.5" y="-7.5" font-family="FreeSans" font-size="10.00">ImplementationC::Run</text>
</a>
</g>
</g>
<!-- Node19&#45;&gt;Node21 -->
<g id="edge3" class="edge"><title>Node19&#45;&gt;Node21</title>
<path fill="none" stroke="midnightblue" d="M312.261,-39.2237C322.982,-37.5572 334.062,-35.8349 344.936,-34.1446"/>
<polygon fill="midnightblue" stroke="midnightblue" points="311.454,-35.807 302.11,-40.8015 312.529,-42.7239 311.454,-35.807"/>
</g>
</g>
</svg>
        <g id="navigator" transform="translate(0 0)" fill="#404254">
                <rect fill="#f2f5e9" fill-opacity="0.5" stroke="#606060" stroke-width=".5" x="0" y="0" width="60" height="60"/>
                <use id="zoomplus" xlink:href="#zoomPlus" x="17" y="9" onmousedown="handleZoom(evt,'in')"/>
                <use id="zoomminus" xlink:href="#zoomMin" x="42" y="9" onmousedown="handleZoom(evt,'out')"/>
                <use id="reset" xlink:href="#resetDef" x="30" y="36" onmousedown="handleReset()"/>
                <g id="arrowUp" xlink:href="#dirArrow" transform="translate(30 24)" onmousedown="handlePan(0,-1)">
                  <use xlink:href="#rim" fill="#404040">
                        <set attributeName="fill" to="#808080" begin="arrowUp.mouseover" end="arrowUp.mouseout"/>
                  </use>
                  <path fill="none" stroke="white" stroke-width="1.5" d="M0,-3.0v7 M-2.5,-0.5L0,-3.0L2.5,-0.5"/>
                </g>
                <g id="arrowRight" xlink:href="#dirArrow" transform="rotate(90) translate(36 -43)" onmousedown="handlePan(1,0)">
                  <use xlink:href="#rim" fill="#404040">
                        <set attributeName="fill" to="#808080" begin="arrowRight.mouseover" end="arrowRight.mouseout"/>
                  </use>
                  <path fill="none" stroke="white" stroke-width="1.5" d="M0,-3.0v7 M-2.5,-0.5L0,-3.0L2.5,-0.5"/>
                </g>
                <g id="arrowDown" xlink:href="#dirArrow" transform="rotate(180) translate(-30 -48)" onmousedown="handlePan(0,1)">
                  <use xlink:href="#rim" fill="#404040">
                        <set attributeName="fill" to="#808080" begin="arrowDown.mouseover" end="arrowDown.mouseout"/>
                  </use>
                  <path fill="none" stroke="white" stroke-width="1.5" d="M0,-3.0v7 M-2.5,-0.5L0,-3.0L2.5,-0.5"/>
                </g>
                <g id="arrowLeft" xlink:href="#dirArrow" transform="rotate(270) translate(-36 17)" onmousedown="handlePan(-1,0)">
                  <use xlink:href="#rim" fill="#404040">
                        <set attributeName="fill" to="#808080" begin="arrowLeft.mouseover" end="arrowLeft.mouseout"/>
                  </use>
                  <path fill="none" stroke="white" stroke-width="1.5" d="M0,-3.0v7 M-2.5,-0.5L0,-3.0L2.5,-0.5"/>
                </g>
        </g>
        <svg viewBox="0 0 15 15" width="100%" height="30px" preserveAspectRatio="xMaxYMin meet">
         <g id="arrow_out" transform="scale(0.3 0.3)">
          <a xlink:href="classVisualMediaN_1_1UtilityN_1_1BrainstormRemoteMapsC_a5eb47acb0b3720d2e442d8c8fd5135a9_icgraph_org.svg" target="_base">
           <rect id="button" ry="5" rx="5" y="6" x="6" height="38" width="38"
                fill="#f2f5e9" fill-opacity="0.5" stroke="#606060" stroke-width="1.0"/>
           <path id="arrow"
             d="M 11.500037,31.436501 C 11.940474,20.09759 22.043105,11.32322 32.158766,21.979434 L 37.068811,17.246167 C 37.068811,17.246167 37.088388,32 37.088388,32 L 22.160133,31.978069 C 22.160133,31.978069 26.997745,27.140456 26.997745,27.140456 C 18.528582,18.264221 13.291696,25.230495 11.500037,31.436501 z"
             style="fill:#404040;"/>
          </a>
         </g>
        </svg>
</svg>
