<?xml version="1.0" encoding="UTF-8" standalone="no"?>
<!DOCTYPE svg PUBLIC "-//W3C//DTD SVG 1.1//EN"
 "http://www.w3.org/Graphics/SVG/1.1/DTD/svg11.dtd">
<!-- Generated by graphviz version 2.38.0 (20140413.2041)
 -->
<!-- Title: IDeckLinkInputCallback Pages: 1 -->
<svg width="196pt" height="215pt"
 viewBox="0.00 0.00 196.00 215.00" xmlns="http://www.w3.org/2000/svg" xmlns:xlink="http://www.w3.org/1999/xlink">
<g id="graph0" class="graph" transform="scale(1 1) rotate(0) translate(4 211)">
<title>IDeckLinkInputCallback</title>
<polygon fill="white" stroke="none" points="-4,4 -4,-211 192,-211 192,4 -4,4"/>
<!-- Node0 -->
<g id="node1" class="node"><title>Node0</title>
<polygon fill="#bfbfbf" stroke="black" points="34,-149.5 34,-206.5 154,-206.5 154,-149.5 34,-149.5"/>
<text text-anchor="middle" x="94" y="-194.5" font-family="FreeSans" font-size="10.00">IDeckLinkInputCallback</text>
<polyline fill="none" stroke="black" points="34,-187.5 154,-187.5 "/>
<text text-anchor="middle" x="94" y="-175.5" font-family="FreeSans" font-size="10.00"> </text>
<polyline fill="none" stroke="black" points="34,-168.5 154,-168.5 "/>
<text text-anchor="middle" x="94" y="-156.5" font-family="FreeSans" font-size="10.00"> </text>
</g>
<!-- Node1 -->
<g id="node2" class="node"><title>Node1</title>
<g id="a_node2"><a xlink:href="classBlackmagicFrameGrabberCallbackC.html" target="_top" xlink:title="{BlackmagicFrameGrabberCallbackC\n|&#45; refCount\l|+ BlackmagicFrameGrabberCallbackC()\l+ QueryInterface()\l+ AddRef()\l+ Release()\l+ VideoInputFormatChanged()\l+ VideoInputFrameArrived()\l}">
<polygon fill="white" stroke="black" points="0,-0.5 0,-112.5 188,-112.5 188,-0.5 0,-0.5"/>
<text text-anchor="middle" x="94" y="-100.5" font-family="FreeSans" font-size="10.00">BlackmagicFrameGrabberCallbackC</text>
<polyline fill="none" stroke="black" points="0,-93.5 188,-93.5 "/>
<text text-anchor="start" x="8" y="-81.5" font-family="FreeSans" font-size="10.00">&#45; refCount</text>
<polyline fill="none" stroke="black" points="0,-74.5 188,-74.5 "/>
<text text-anchor="start" x="8" y="-62.5" font-family="FreeSans" font-size="10.00">+ BlackmagicFrameGrabberCallbackC()</text>
<text text-anchor="start" x="8" y="-51.5" font-family="FreeSans" font-size="10.00">+ QueryInterface()</text>
<text text-anchor="start" x="8" y="-40.5" font-family="FreeSans" font-size="10.00">+ AddRef()</text>
<text text-anchor="start" x="8" y="-29.5" font-family="FreeSans" font-size="10.00">+ Release()</text>
<text text-anchor="start" x="8" y="-18.5" font-family="FreeSans" font-size="10.00">+ VideoInputFormatChanged()</text>
<text text-anchor="start" x="8" y="-7.5" font-family="FreeSans" font-size="10.00">+ VideoInputFrameArrived()</text>
</a>
</g>
</g>
<!-- Node0&#45;&gt;Node1 -->
<g id="edge1" class="edge"><title>Node0&#45;&gt;Node1</title>
<path fill="none" stroke="midnightblue" d="M94,-139.108C94,-130.748 94,-121.725 94,-112.834"/>
<polygon fill="none" stroke="midnightblue" points="90.5001,-139.284 94,-149.284 97.5001,-139.284 90.5001,-139.284"/>
</g>
</g>
</svg>
