<?xml version="1.0" encoding="UTF-8" standalone="no"?>
<!DOCTYPE svg PUBLIC "-//W3C//DTD SVG 1.1//EN"
 "http://www.w3.org/Graphics/SVG/1.1/DTD/svg11.dtd">
<!-- Generated by graphviz version 2.38.0 (20140413.2041)
 -->
<!-- Title: VisualMediaN::App3DSceneModelBuilderN::App3dSceneModelBuilderImplementationC Pages: 1 -->
<!--zoomable 1069 -->
<svg id="main" version="1.1" xmlns="http://www.w3.org/2000/svg" xmlns:xlink="http://www.w3.org/1999/xlink" xml:space="preserve" onload="init(evt)">
<style type="text/css"><![CDATA[
.edge:hover path { stroke: red; }
.edge:hover polygon { stroke: red; fill: red; }
]]></style>
<script type="text/javascript"><![CDATA[
var edges = document.getElementsByTagName('g');
if (edges && edges.length) {
  for (var i=0;i<edges.length;i++) {
    if (edges[i].id.substr(0,4)=='edge') {
      edges[i].setAttribute('class','edge');
    }
  }
}
]]></script>
        <defs>
                <circle id="rim" cx="0" cy="0" r="7"/>
                <circle id="rim2" cx="0" cy="0" r="3.5"/>
                <g id="zoomPlus">
                        <use xlink:href="#rim" fill="#404040">
                                <set attributeName="fill" to="#808080" begin="zoomplus.mouseover" end="zoomplus.mouseout"/>
                        </use>
                        <path d="M-4,0h8M0,-4v8" fill="none" stroke="white" stroke-width="1.5" pointer-events="none"/>
                </g>
                <g id="zoomMin">
                        <use xlink:href="#rim" fill="#404040">
                                <set attributeName="fill" to="#808080" begin="zoomminus.mouseover" end="zoomminus.mouseout"/>
                        </use>
                        <path d="M-4,0h8" fill="none" stroke="white" stroke-width="1.5" pointer-events="none"/>
                </g>
                <g id="dirArrow">
                        <path fill="none" stroke="white" stroke-width="1.5" d="M0,-3.0v7 M-2.5,-0.5L0,-3.0L2.5,-0.5"/>
                </g>
               <g id="resetDef">
                       <use xlink:href="#rim2" fill="#404040">
                               <set attributeName="fill" to="#808080" begin="reset.mouseover" end="reset.mouseout"/>
                       </use>
               </g>
        </defs>

<script type="text/javascript">
var viewWidth = 2320;
var viewHeight = 1069;
var sectionId = 'dynsection-0';
</script>
<script xlink:href="svgpan.js"/>
<svg id="graph" class="graph">
<g id="viewport">
<title>VisualMediaN::App3DSceneModelBuilderN::App3dSceneModelBuilderImplementationC</title>
<polygon fill="white" stroke="none" points="-4,4 -4,-1065 2315.5,-1065 2315.5,4 -4,4"/>
<!-- Node1 -->
<g id="node1" class="node"><title>Node1</title>
<polygon fill="#bfbfbf" stroke="black" points="768.5,-0.5 768.5,-244.5 982.5,-244.5 982.5,-0.5 768.5,-0.5"/>
<text text-anchor="start" x="776.5" y="-232.5" font-family="FreeSans" font-size="10.00">VisualMediaN::App3DScene</text>
<text text-anchor="start" x="776.5" y="-221.5" font-family="FreeSans" font-size="10.00">ModelBuilderN::App3dSceneModel</text>
<text text-anchor="middle" x="875.5" y="-210.5" font-family="FreeSans" font-size="10.00">BuilderImplementationC</text>
<polyline fill="none" stroke="black" points="768.5,-203.5 982.5,-203.5 "/>
<text text-anchor="middle" x="875.5" y="-191.5" font-family="FreeSans" font-size="10.00"> </text>
<polyline fill="none" stroke="black" points="768.5,-184.5 982.5,-184.5 "/>
<text text-anchor="start" x="776.5" y="-172.5" font-family="FreeSans" font-size="10.00">* TimePointT</text>
<text text-anchor="start" x="776.5" y="-161.5" font-family="FreeSans" font-size="10.00">* KeypointConainerT</text>
<text text-anchor="start" x="776.5" y="-150.5" font-family="FreeSans" font-size="10.00">* DescriptorStackT</text>
<text text-anchor="start" x="776.5" y="-139.5" font-family="FreeSans" font-size="10.00">* FeatureExtractorOutputT</text>
<text text-anchor="start" x="776.5" y="-128.5" font-family="FreeSans" font-size="10.00">* ImageFeatureContainerT</text>
<text text-anchor="start" x="776.5" y="-117.5" font-family="FreeSans" font-size="10.00">* ImageFeatureStackT</text>
<text text-anchor="start" x="776.5" y="-106.5" font-family="FreeSans" font-size="10.00">* BinaryImageFeatureContainerT</text>
<text text-anchor="start" x="776.5" y="-95.5" font-family="FreeSans" font-size="10.00">* BinaryImageFeatureStackT</text>
<text text-anchor="start" x="776.5" y="-84.5" font-family="FreeSans" font-size="10.00">* PruneSfMTree()</text>
<text text-anchor="start" x="776.5" y="-73.5" font-family="FreeSans" font-size="10.00">* PruneS3DTree()</text>
<text text-anchor="start" x="776.5" y="-62.5" font-family="FreeSans" font-size="10.00">and 7 more...</text>
<text text-anchor="start" x="776.5" y="-51.5" font-family="FreeSans" font-size="10.00">* App3dSceneModelBuilderImplementationC()</text>
<text text-anchor="start" x="776.5" y="-40.5" font-family="FreeSans" font-size="10.00">* GetCommandLineOptions()</text>
<text text-anchor="start" x="776.5" y="-29.5" font-family="FreeSans" font-size="10.00">* SetParameters()</text>
<text text-anchor="start" x="776.5" y="-18.5" font-family="FreeSans" font-size="10.00">* Run()</text>
<text text-anchor="start" x="776.5" y="-7.5" font-family="FreeSans" font-size="10.00">* GenerateConfigFile()</text>
</g>
<!-- Node2 -->
<g id="node2" class="node"><title>Node2</title>
<polygon fill="white" stroke="#bfbfbf" points="105,-628.5 105,-696.5 224,-696.5 224,-628.5 105,-628.5"/>
<text text-anchor="start" x="113" y="-684.5" font-family="FreeSans" font-size="10.00">std::unique_ptr&lt; options</text>
<text text-anchor="middle" x="164.5" y="-673.5" font-family="FreeSans" font-size="10.00">_description &gt;</text>
<polyline fill="none" stroke="#bfbfbf" points="105,-666.5 224,-666.5 "/>
<text text-anchor="middle" x="164.5" y="-654.5" font-family="FreeSans" font-size="10.00"> </text>
<polyline fill="none" stroke="#bfbfbf" points="105,-647.5 224,-647.5 "/>
<text text-anchor="start" x="113" y="-635.5" font-family="FreeSans" font-size="10.00">+ operator&#45;&gt;()</text>
</g>
<!-- Node2&#45;&gt;Node1 -->
<g id="edge1" class="edge"><title>Node2&#45;&gt;Node1</title>
<path fill="none" stroke="#404040" d="M172.069,-628.248C190.181,-556.215 242.828,-384.786 351.5,-292 466.962,-193.416 640.935,-152.298 756.321,-135.288"/>
<polygon fill="none" stroke="#404040" points="756.466,-135.267 761.841,-130.459 768.346,-133.571 762.972,-138.379 756.466,-135.267"/>
<text text-anchor="middle" x="402" y="-401" font-family="FreeSans" font-size="10.00"> &#45;commandLineOptions</text>
</g>
<!-- Node3 -->
<g id="node3" class="node"><title>Node3</title>
<polygon fill="white" stroke="#bfbfbf" points="0,-887.5 0,-944.5 101,-944.5 101,-887.5 0,-887.5"/>
<text text-anchor="middle" x="50.5" y="-932.5" font-family="FreeSans" font-size="10.00">options_description</text>
<polyline fill="none" stroke="#bfbfbf" points="0,-925.5 101,-925.5 "/>
<text text-anchor="middle" x="50.5" y="-913.5" font-family="FreeSans" font-size="10.00"> </text>
<polyline fill="none" stroke="#bfbfbf" points="0,-906.5 101,-906.5 "/>
<text text-anchor="middle" x="50.5" y="-894.5" font-family="FreeSans" font-size="10.00"> </text>
</g>
<!-- Node3&#45;&gt;Node2 -->
<g id="edge2" class="edge"><title>Node3&#45;&gt;Node2</title>
<path fill="none" stroke="#404040" d="M63.1356,-887.124C82.8073,-843.726 120.929,-759.624 144.403,-707.836"/>
<polygon fill="none" stroke="#404040" points="144.509,-707.602 143.343,-700.486 149.464,-696.672 150.63,-703.788 144.509,-707.602"/>
<text text-anchor="middle" x="121.5" y="-822.5" font-family="FreeSans" font-size="10.00"> +ptr</text>
</g>
<!-- Node4 -->
<g id="node4" class="node"><title>Node4</title>
<g id="a_node4"><a xlink:title="STL class. ">
<polygon fill="white" stroke="#bfbfbf" points="119.5,-887.5 119.5,-944.5 221.5,-944.5 221.5,-887.5 119.5,-887.5"/>
<text text-anchor="middle" x="170.5" y="-932.5" font-family="FreeSans" font-size="10.00">std::unique_ptr&lt; T &gt;</text>
<polyline fill="none" stroke="#bfbfbf" points="119.5,-925.5 221.5,-925.5 "/>
<text text-anchor="middle" x="170.5" y="-913.5" font-family="FreeSans" font-size="10.00"> </text>
<polyline fill="none" stroke="#bfbfbf" points="119.5,-906.5 221.5,-906.5 "/>
<text text-anchor="start" x="127.5" y="-894.5" font-family="FreeSans" font-size="10.00">+ operator&#45;&gt;()</text>
</a>
</g>
</g>
<!-- Node4&#45;&gt;Node2 -->
<g id="edge3" class="edge"><title>Node4&#45;&gt;Node2</title>
<path fill="none" stroke="orange" d="M166.08,-877.254C165.85,-874.463 165.652,-871.689 165.5,-869 162.061,-808.267 162.759,-737.277 163.609,-696.633"/>
<polygon fill="orange" stroke="orange" points="162.604,-877.678 167.021,-887.308 169.574,-877.025 162.604,-877.678"/>
<text text-anchor="middle" x="217" y="-822.5" font-family="FreeSans" font-size="10.00"> &lt; options_description &gt;</text>
</g>
<!-- Node5 -->
<g id="node5" class="node"><title>Node5</title>
<polygon fill="white" stroke="#bfbfbf" points="719,-998 719,-1055 748,-1055 748,-998 719,-998"/>
<text text-anchor="middle" x="733.5" y="-1043" font-family="FreeSans" font-size="10.00">T</text>
<polyline fill="none" stroke="#bfbfbf" points="719,-1036 748,-1036 "/>
<text text-anchor="middle" x="733.5" y="-1024" font-family="FreeSans" font-size="10.00"> </text>
<polyline fill="none" stroke="#bfbfbf" points="719,-1017 748,-1017 "/>
<text text-anchor="middle" x="733.5" y="-1005" font-family="FreeSans" font-size="10.00"> </text>
</g>
<!-- Node5&#45;&gt;Node4 -->
<g id="edge4" class="edge"><title>Node5&#45;&gt;Node4</title>
<path fill="none" stroke="#404040" d="M718.76,-1024.64C658.733,-1020.83 427.073,-1003.16 233.063,-945.443"/>
<polygon fill="none" stroke="#404040" points="233.001,-945.424 226.099,-947.514 221.516,-941.946 228.417,-939.857 233.001,-945.424"/>
<text text-anchor="middle" x="348.5" y="-966" font-family="FreeSans" font-size="10.00"> +ptr</text>
</g>
<!-- Node28 -->
<g id="node28" class="node"><title>Node28</title>
<g id="a_node28"><a xlink:title="STL class. ">
<polygon fill="white" stroke="#bfbfbf" points="2162.5,-887.5 2162.5,-944.5 2250.5,-944.5 2250.5,-887.5 2162.5,-887.5"/>
<text text-anchor="middle" x="2206.5" y="-932.5" font-family="FreeSans" font-size="10.00">std::map&lt; K, T &gt;</text>
<polyline fill="none" stroke="#bfbfbf" points="2162.5,-925.5 2250.5,-925.5 "/>
<text text-anchor="middle" x="2206.5" y="-913.5" font-family="FreeSans" font-size="10.00"> </text>
<polyline fill="none" stroke="#bfbfbf" points="2162.5,-906.5 2250.5,-906.5 "/>
<text text-anchor="middle" x="2206.5" y="-894.5" font-family="FreeSans" font-size="10.00"> </text>
</a>
</g>
</g>
<!-- Node5&#45;&gt;Node28 -->
<g id="edge45" class="edge"><title>Node5&#45;&gt;Node28</title>
<path fill="none" stroke="#404040" d="M748.005,-1022.59C782.11,-1015.89 870.126,-999.371 944.5,-992 1462.82,-940.63 1602.08,-1032.77 2115.5,-945 2126.99,-943.036 2139.05,-940.03 2150.5,-936.705"/>
<polygon fill="none" stroke="#404040" points="2150.68,-936.65 2155.26,-931.076 2162.16,-933.154 2157.59,-938.729 2150.68,-936.65"/>
<text text-anchor="middle" x="1997" y="-966" font-family="FreeSans" font-size="10.00"> +elements</text>
</g>
<!-- Node6 -->
<g id="node6" class="node"><title>Node6</title>
<g id="a_node6"><a xlink:href="classVisualMediaN_1_1UtilityN_1_1VideoInputDeviceC.html" target="_top" xlink:title="Manages a video source. ">
<polygon fill="white" stroke="black" points="462,-292.5 462,-514.5 623,-514.5 623,-292.5 462,-292.5"/>
<text text-anchor="start" x="470" y="-502.5" font-family="FreeSans" font-size="10.00">VisualMediaN::UtilityN</text>
<text text-anchor="middle" x="542.5" y="-491.5" font-family="FreeSans" font-size="10.00">::VideoInputDeviceC</text>
<polyline fill="none" stroke="black" points="462,-484.5 623,-484.5 "/>
<text text-anchor="middle" x="542.5" y="-472.5" font-family="FreeSans" font-size="10.00"> </text>
<polyline fill="none" stroke="black" points="462,-465.5 623,-465.5 "/>
<text text-anchor="start" x="470" y="-453.5" font-family="FreeSans" font-size="10.00">+ VideoInputDeviceC()</text>
<text text-anchor="start" x="470" y="-442.5" font-family="FreeSans" font-size="10.00">+ VideoInputDeviceC()</text>
<text text-anchor="start" x="470" y="-431.5" font-family="FreeSans" font-size="10.00">+ operator=()</text>
<text text-anchor="start" x="470" y="-420.5" font-family="FreeSans" font-size="10.00">+ Initialise()</text>
<text text-anchor="start" x="470" y="-409.5" font-family="FreeSans" font-size="10.00">+ GetFrame()</text>
<text text-anchor="start" x="470" y="-398.5" font-family="FreeSans" font-size="10.00">+ GetHeight()</text>
<text text-anchor="start" x="470" y="-387.5" font-family="FreeSans" font-size="10.00">+ GetWidth()</text>
<text text-anchor="start" x="470" y="-376.5" font-family="FreeSans" font-size="10.00">+ GetFrameRate()</text>
<text text-anchor="start" x="470" y="-365.5" font-family="FreeSans" font-size="10.00">+ GetPosition()</text>
<text text-anchor="start" x="470" y="-354.5" font-family="FreeSans" font-size="10.00">+ IsEoF()</text>
<text text-anchor="start" x="470" y="-343.5" font-family="FreeSans" font-size="10.00">+ IsLive()</text>
<text text-anchor="start" x="470" y="-332.5" font-family="FreeSans" font-size="10.00">+ IsValid()</text>
<text text-anchor="start" x="470" y="-321.5" font-family="FreeSans" font-size="10.00">+ QueryNewFrame()</text>
<text text-anchor="start" x="470" y="-310.5" font-family="FreeSans" font-size="10.00">+ GetGrayscaleConversionCode()</text>
<text text-anchor="start" x="470" y="-299.5" font-family="FreeSans" font-size="10.00">+ GetBGRConversionCode()</text>
</a>
</g>
</g>
<!-- Node6&#45;&gt;Node1 -->
<g id="edge5" class="edge"><title>Node6&#45;&gt;Node1</title>
<path fill="none" stroke="#404040" d="M623.11,-334.962C663.898,-300.788 714.155,-258.681 759.058,-221.06"/>
<polygon fill="none" stroke="#404040" points="759.059,-221.059 761.089,-214.139 768.257,-213.352 766.227,-220.272 759.059,-221.059"/>
<text text-anchor="middle" x="739" y="-266" font-family="FreeSans" font-size="10.00"> &#45;videoDevice</text>
</g>
<!-- Node7 -->
<g id="node7" class="node"><title>Node7</title>
<polygon fill="white" stroke="#bfbfbf" points="266,-634 266,-691 341,-691 341,-634 266,-634"/>
<text text-anchor="middle" x="303.5" y="-679" font-family="FreeSans" font-size="10.00">VideoCapture</text>
<polyline fill="none" stroke="#bfbfbf" points="266,-672 341,-672 "/>
<text text-anchor="middle" x="303.5" y="-660" font-family="FreeSans" font-size="10.00"> </text>
<polyline fill="none" stroke="#bfbfbf" points="266,-653 341,-653 "/>
<text text-anchor="middle" x="303.5" y="-641" font-family="FreeSans" font-size="10.00"> </text>
</g>
<!-- Node7&#45;&gt;Node6 -->
<g id="edge6" class="edge"><title>Node7&#45;&gt;Node6</title>
<path fill="none" stroke="#404040" d="M300.473,-633.994C298.842,-606.186 300.379,-563.129 320.5,-533 351.181,-487.058 404.259,-455.467 450.821,-435.107"/>
<polygon fill="none" stroke="#404040" points="450.829,-435.103 454.794,-429.081 461.879,-430.425 457.914,-436.447 450.829,-435.103"/>
<text text-anchor="middle" x="359" y="-536" font-family="FreeSans" font-size="10.00"> &#45;ocvVideoSource</text>
</g>
<!-- Node8 -->
<g id="node8" class="node"><title>Node8</title>
<g id="a_node8"><a xlink:href="structVisualMediaN_1_1UtilityN_1_1VideoInputDeviceC_1_1VideoPropertiesC.html" target="_top" xlink:title="{VisualMediaN::UtilityN\l::VideoInputDeviceC::VideoPropertiesC\n||}">
<polygon fill="white" stroke="black" points="803,-628.5 803,-696.5 988,-696.5 988,-628.5 803,-628.5"/>
<text text-anchor="start" x="811" y="-684.5" font-family="FreeSans" font-size="10.00">VisualMediaN::UtilityN</text>
<text text-anchor="middle" x="895.5" y="-673.5" font-family="FreeSans" font-size="10.00">::VideoInputDeviceC::VideoPropertiesC</text>
<polyline fill="none" stroke="black" points="803,-666.5 988,-666.5 "/>
<text text-anchor="middle" x="895.5" y="-654.5" font-family="FreeSans" font-size="10.00"> </text>
<polyline fill="none" stroke="black" points="803,-647.5 988,-647.5 "/>
<text text-anchor="middle" x="895.5" y="-635.5" font-family="FreeSans" font-size="10.00"> </text>
</a>
</g>
</g>
<!-- Node8&#45;&gt;Node6 -->
<g id="edge7" class="edge"><title>Node8&#45;&gt;Node6</title>
<path fill="none" stroke="#404040" d="M862.668,-628.058C842.169,-607.933 814.766,-582.356 788.5,-562 739.393,-523.944 680.949,-486.241 633.35,-457.27"/>
<polygon fill="none" stroke="#404040" points="633.321,-457.252 626.117,-457.566 623.056,-451.037 630.26,-450.723 633.321,-457.252"/>
<text text-anchor="middle" x="788" y="-536" font-family="FreeSans" font-size="10.00"> &#45;properties</text>
</g>
<!-- Node9 -->
<g id="node9" class="node"><title>Node9</title>
<polygon fill="white" stroke="#bfbfbf" points="1928,-887.5 1928,-944.5 1973,-944.5 1973,-887.5 1928,-887.5"/>
<text text-anchor="middle" x="1950.5" y="-932.5" font-family="FreeSans" font-size="10.00">double</text>
<polyline fill="none" stroke="#bfbfbf" points="1928,-925.5 1973,-925.5 "/>
<text text-anchor="middle" x="1950.5" y="-913.5" font-family="FreeSans" font-size="10.00"> </text>
<polyline fill="none" stroke="#bfbfbf" points="1928,-906.5 1973,-906.5 "/>
<text text-anchor="middle" x="1950.5" y="-894.5" font-family="FreeSans" font-size="10.00"> </text>
</g>
<!-- Node9&#45;&gt;Node8 -->
<g id="edge8" class="edge"><title>Node9&#45;&gt;Node8</title>
<path fill="none" stroke="#404040" d="M1927.84,-913.13C1843.08,-906.053 1548.69,-880.724 1532.5,-869 1497.71,-843.797 1528.19,-804.918 1492.5,-781 1447.24,-750.669 1052.83,-783.859 1002.5,-763 973.513,-750.986 947.557,-727.352 928.471,-706.132"/>
<polygon fill="none" stroke="#404040" points="928.333,-705.973 921.378,-704.068 920.461,-696.916 927.416,-698.821 928.333,-705.973"/>
<text text-anchor="middle" x="1559.5" y="-822.5" font-family="FreeSans" font-size="10.00"> +frameRate</text>
</g>
<!-- Node18 -->
<g id="node18" class="node"><title>Node18</title>
<g id="a_node18"><a xlink:href="structVisualMediaN_1_1App3DSceneModelBuilderN_1_1App3dSceneModelBuilderParametersC.html" target="_top" xlink:title="Parameters for sceneModelBuiler3d. ">
<polygon fill="white" stroke="black" points="1320,-364 1320,-443 1487,-443 1487,-364 1320,-364"/>
<text text-anchor="start" x="1328" y="-431" font-family="FreeSans" font-size="10.00">VisualMediaN::App3DScene</text>
<text text-anchor="start" x="1328" y="-420" font-family="FreeSans" font-size="10.00">ModelBuilderN::App3dSceneModel</text>
<text text-anchor="middle" x="1403.5" y="-409" font-family="FreeSans" font-size="10.00">BuilderParametersC</text>
<polyline fill="none" stroke="black" points="1320,-402 1487,-402 "/>
<text text-anchor="middle" x="1403.5" y="-390" font-family="FreeSans" font-size="10.00"> </text>
<polyline fill="none" stroke="black" points="1320,-383 1487,-383 "/>
<text text-anchor="middle" x="1403.5" y="-371" font-family="FreeSans" font-size="10.00"> </text>
</a>
</g>
</g>
<!-- Node9&#45;&gt;Node18 -->
<g id="edge22" class="edge"><title>Node9&#45;&gt;Node18</title>
<path fill="none" stroke="#404040" d="M1971.08,-887.177C2015.68,-823.232 2111.32,-663.511 2035.5,-562 1971.77,-476.685 1659.73,-431.654 1499.24,-413.811"/>
<polygon fill="none" stroke="#404040" points="1498.94,-413.778 1492.54,-417.101 1487.02,-412.471 1493.42,-409.149 1498.94,-413.778"/>
<text text-anchor="middle" x="2111.5" y="-665.5" font-family="FreeSans" font-size="10.00"> +minIntensityChange</text>
<text text-anchor="middle" x="2111.5" y="-654.5" font-family="FreeSans" font-size="10.00">+quantisationFactor</text>
</g>
<!-- Node20 -->
<g id="node20" class="node"><title>Node20</title>
<g id="a_node20"><a xlink:href="structVisualMediaN_1_1UtilityN_1_1KAZEParametersC.html" target="_top" xlink:title="Parameters for KAZE. ">
<polygon fill="white" stroke="black" points="1531.5,-628.5 1531.5,-696.5 1645.5,-696.5 1645.5,-628.5 1531.5,-628.5"/>
<text text-anchor="start" x="1539.5" y="-684.5" font-family="FreeSans" font-size="10.00">VisualMediaN::UtilityN</text>
<text text-anchor="middle" x="1588.5" y="-673.5" font-family="FreeSans" font-size="10.00">::KAZEParametersC</text>
<polyline fill="none" stroke="black" points="1531.5,-666.5 1645.5,-666.5 "/>
<text text-anchor="middle" x="1588.5" y="-654.5" font-family="FreeSans" font-size="10.00"> </text>
<polyline fill="none" stroke="black" points="1531.5,-647.5 1645.5,-647.5 "/>
<text text-anchor="middle" x="1588.5" y="-635.5" font-family="FreeSans" font-size="10.00"> </text>
</a>
</g>
</g>
<!-- Node9&#45;&gt;Node20 -->
<g id="edge25" class="edge"><title>Node9&#45;&gt;Node20</title>
<path fill="none" stroke="#404040" d="M1936.76,-887.405C1919.34,-855.708 1886.14,-804.997 1841.5,-781 1769.91,-742.513 1729.84,-803.726 1659.5,-763 1637.55,-750.292 1620.62,-727.762 1608.81,-707.351"/>
<polygon fill="none" stroke="#404040" points="1608.7,-707.147 1602.31,-703.805 1602.93,-696.621 1609.32,-699.964 1608.7,-707.147"/>
<text text-anchor="middle" x="1951" y="-822.5" font-family="FreeSans" font-size="10.00"> +threshold</text>
</g>
<!-- Node27 -->
<g id="node27" class="node"><title>Node27</title>
<polygon fill="white" stroke="#bfbfbf" points="2174.5,-634 2174.5,-691 2302.5,-691 2302.5,-634 2174.5,-634"/>
<text text-anchor="middle" x="2238.5" y="-679" font-family="FreeSans" font-size="10.00">std::map&lt; string, double &gt;</text>
<polyline fill="none" stroke="#bfbfbf" points="2174.5,-672 2302.5,-672 "/>
<text text-anchor="middle" x="2238.5" y="-660" font-family="FreeSans" font-size="10.00"> </text>
<polyline fill="none" stroke="#bfbfbf" points="2174.5,-653 2302.5,-653 "/>
<text text-anchor="middle" x="2238.5" y="-641" font-family="FreeSans" font-size="10.00"> </text>
</g>
<!-- Node9&#45;&gt;Node27 -->
<g id="edge41" class="edge"><title>Node9&#45;&gt;Node27</title>
<path fill="none" stroke="#404040" d="M1973.17,-909.371C2020.24,-897.651 2124.47,-871.501 2127.5,-869 2160.93,-841.418 2149.18,-819.276 2169.5,-781 2183.87,-753.944 2201.35,-724.196 2215.13,-701.401"/>
<polygon fill="none" stroke="#404040" points="2215.14,-701.389 2214.83,-694.184 2221.37,-691.133 2221.67,-698.338 2215.14,-701.389"/>
<text text-anchor="middle" x="2194" y="-822.5" font-family="FreeSans" font-size="10.00"> +elements</text>
</g>
<!-- Node10 -->
<g id="node10" class="node"><title>Node10</title>
<polygon fill="white" stroke="#bfbfbf" points="1577,-887.5 1577,-944.5 1606,-944.5 1606,-887.5 1577,-887.5"/>
<text text-anchor="middle" x="1591.5" y="-932.5" font-family="FreeSans" font-size="10.00">int</text>
<polyline fill="none" stroke="#bfbfbf" points="1577,-925.5 1606,-925.5 "/>
<text text-anchor="middle" x="1591.5" y="-913.5" font-family="FreeSans" font-size="10.00"> </text>
<polyline fill="none" stroke="#bfbfbf" points="1577,-906.5 1606,-906.5 "/>
<text text-anchor="middle" x="1591.5" y="-894.5" font-family="FreeSans" font-size="10.00"> </text>
</g>
<!-- Node10&#45;&gt;Node8 -->
<g id="edge9" class="edge"><title>Node10&#45;&gt;Node8</title>
<path fill="none" stroke="#404040" d="M1576.7,-912.551C1546.81,-907.619 1477.12,-896.176 1418.5,-887 1392.08,-882.863 1320.02,-886.152 1299.5,-869 1267.79,-842.501 1302.28,-806.164 1269.5,-781 1222.33,-744.785 1057.08,-786.607 1002.5,-763 973.7,-750.544 947.751,-726.895 928.621,-705.778"/>
<polygon fill="none" stroke="#404040" points="928.498,-705.638 921.536,-703.763 920.589,-696.614 927.552,-698.49 928.498,-705.638"/>
<text text-anchor="middle" x="1317" y="-828" font-family="FreeSans" font-size="10.00"> +height</text>
<text text-anchor="middle" x="1317" y="-817" font-family="FreeSans" font-size="10.00">+width</text>
</g>
<!-- Node12 -->
<g id="node12" class="node"><title>Node12</title>
<g id="a_node12"><a xlink:href="structVisualMediaN_1_1UtilityN_1_1VideoAppConfigC.html" target="_top" xlink:title="Configuration object for the video input. ">
<polygon fill="white" stroke="black" points="574.5,-628.5 574.5,-696.5 688.5,-696.5 688.5,-628.5 574.5,-628.5"/>
<text text-anchor="start" x="582.5" y="-684.5" font-family="FreeSans" font-size="10.00">VisualMediaN::UtilityN</text>
<text text-anchor="middle" x="631.5" y="-673.5" font-family="FreeSans" font-size="10.00">::VideoAppConfigC</text>
<polyline fill="none" stroke="black" points="574.5,-666.5 688.5,-666.5 "/>
<text text-anchor="middle" x="631.5" y="-654.5" font-family="FreeSans" font-size="10.00"> </text>
<polyline fill="none" stroke="black" points="574.5,-647.5 688.5,-647.5 "/>
<text text-anchor="middle" x="631.5" y="-635.5" font-family="FreeSans" font-size="10.00"> </text>
</a>
</g>
</g>
<!-- Node10&#45;&gt;Node12 -->
<g id="edge13" class="edge"><title>Node10&#45;&gt;Node12</title>
<path fill="none" stroke="#404040" d="M1576.77,-912.031C1547,-906.165 1477.51,-893.124 1418.5,-887 1332.65,-878.09 1113.64,-892.188 1030.5,-869 951.575,-846.988 946.709,-805.434 868.5,-781 797.666,-758.87 766.547,-800.485 702.5,-763 680.61,-750.188 663.684,-727.652 651.858,-707.263"/>
<polygon fill="none" stroke="#404040" points="651.75,-707.067 645.357,-703.731 645.977,-696.547 652.37,-699.882 651.75,-707.067"/>
<text text-anchor="middle" x="1080" y="-828" font-family="FreeSans" font-size="10.00"> +downsamplingFactor</text>
<text text-anchor="middle" x="1080" y="-817" font-family="FreeSans" font-size="10.00">+deviceID</text>
</g>
<!-- Node10&#45;&gt;Node18 -->
<g id="edge31" class="edge"><title>Node10&#45;&gt;Node18</title>
<path fill="none" stroke="#404040" d="M1606.15,-910.959C1624.3,-905.08 1654.4,-892.244 1667.5,-869 1695.04,-820.135 1703.51,-644.73 1654.5,-562 1619.85,-503.512 1554.09,-463.439 1498.57,-438.355"/>
<polygon fill="none" stroke="#404040" points="1498.24,-438.21 1491.14,-439.458 1487.26,-433.382 1494.36,-432.134 1498.24,-438.21"/>
<text text-anchor="middle" x="1725" y="-676.5" font-family="FreeSans" font-size="10.00"> +nKeyrames</text>
<text text-anchor="middle" x="1725" y="-665.5" font-family="FreeSans" font-size="10.00">+minSeparation</text>
<text text-anchor="middle" x="1725" y="-654.5" font-family="FreeSans" font-size="10.00">+captureDelay</text>
<text text-anchor="middle" x="1725" y="-643.5" font-family="FreeSans" font-size="10.00">+nThreads</text>
</g>
<!-- Node10&#45;&gt;Node20 -->
<g id="edge26" class="edge"><title>Node10&#45;&gt;Node20</title>
<path fill="none" stroke="#404040" d="M1591.17,-887.124C1590.65,-843.999 1589.66,-760.683 1589.04,-708.819"/>
<polygon fill="none" stroke="#404040" points="1589.04,-708.671 1584.97,-702.72 1588.9,-696.672 1592.97,-702.624 1589.04,-708.671"/>
<text text-anchor="middle" x="1629" y="-833.5" font-family="FreeSans" font-size="10.00"> +nOctaveLayers</text>
<text text-anchor="middle" x="1629" y="-822.5" font-family="FreeSans" font-size="10.00">+diffusivity</text>
<text text-anchor="middle" x="1629" y="-811.5" font-family="FreeSans" font-size="10.00">+nOctaves</text>
</g>
<!-- Node25 -->
<g id="node25" class="node"><title>Node25</title>
<g id="a_node25"><a xlink:href="structVisualMediaN_1_1UtilityN_1_1ORBParametersC.html" target="_top" xlink:title="Parameters for ORB. ">
<polygon fill="white" stroke="black" points="1768.5,-628.5 1768.5,-696.5 1882.5,-696.5 1882.5,-628.5 1768.5,-628.5"/>
<text text-anchor="start" x="1776.5" y="-684.5" font-family="FreeSans" font-size="10.00">VisualMediaN::UtilityN</text>
<text text-anchor="middle" x="1825.5" y="-673.5" font-family="FreeSans" font-size="10.00">::ORBParametersC</text>
<polyline fill="none" stroke="black" points="1768.5,-666.5 1882.5,-666.5 "/>
<text text-anchor="middle" x="1825.5" y="-654.5" font-family="FreeSans" font-size="10.00"> </text>
<polyline fill="none" stroke="black" points="1768.5,-647.5 1882.5,-647.5 "/>
<text text-anchor="middle" x="1825.5" y="-635.5" font-family="FreeSans" font-size="10.00"> </text>
</a>
</g>
</g>
<!-- Node10&#45;&gt;Node25 -->
<g id="edge39" class="edge"><title>Node10&#45;&gt;Node25</title>
<path fill="none" stroke="#404040" d="M1606.08,-911.478C1627.65,-905.669 1668.44,-892.336 1695.5,-869 1747.52,-824.142 1785.93,-753.29 1807.02,-707.608"/>
<polygon fill="none" stroke="#404040" points="1807.06,-707.505 1805.89,-700.39 1812,-696.568 1813.18,-703.682 1807.06,-707.505"/>
<text text-anchor="middle" x="1802.5" y="-861" font-family="FreeSans" font-size="10.00"> +fastThreshold</text>
<text text-anchor="middle" x="1802.5" y="-850" font-family="FreeSans" font-size="10.00">+edgeThreshold</text>
<text text-anchor="middle" x="1802.5" y="-839" font-family="FreeSans" font-size="10.00">+WTA_K</text>
<text text-anchor="middle" x="1802.5" y="-828" font-family="FreeSans" font-size="10.00">+firstLevel</text>
<text text-anchor="middle" x="1802.5" y="-817" font-family="FreeSans" font-size="10.00">+patchSize</text>
<text text-anchor="middle" x="1802.5" y="-806" font-family="FreeSans" font-size="10.00">+nFeatures</text>
<text text-anchor="middle" x="1802.5" y="-795" font-family="FreeSans" font-size="10.00">+nLevels</text>
<text text-anchor="middle" x="1802.5" y="-784" font-family="FreeSans" font-size="10.00">+scoreType</text>
</g>
<!-- Node11 -->
<g id="node11" class="node"><title>Node11</title>
<polygon fill="white" stroke="#bfbfbf" points="619,-887.5 619,-944.5 654,-944.5 654,-887.5 619,-887.5"/>
<text text-anchor="middle" x="636.5" y="-932.5" font-family="FreeSans" font-size="10.00">bool</text>
<polyline fill="none" stroke="#bfbfbf" points="619,-925.5 654,-925.5 "/>
<text text-anchor="middle" x="636.5" y="-913.5" font-family="FreeSans" font-size="10.00"> </text>
<polyline fill="none" stroke="#bfbfbf" points="619,-906.5 654,-906.5 "/>
<text text-anchor="middle" x="636.5" y="-894.5" font-family="FreeSans" font-size="10.00"> </text>
</g>
<!-- Node11&#45;&gt;Node6 -->
<g id="edge18" class="edge"><title>Node11&#45;&gt;Node6</title>
<path fill="none" stroke="#404040" d="M618.743,-912.425C595.299,-908.009 554.641,-896.627 534.5,-869 496.202,-816.465 509.312,-645.889 524.271,-526.776"/>
<polygon fill="none" stroke="#404040" points="524.294,-526.596 521.087,-520.137 525.816,-514.693 529.023,-521.152 524.294,-526.596"/>
<text text-anchor="middle" x="542" y="-660" font-family="FreeSans" font-size="10.00"> &#45;flagValid</text>
</g>
<!-- Node11&#45;&gt;Node8 -->
<g id="edge10" class="edge"><title>Node11&#45;&gt;Node8</title>
<path fill="none" stroke="#404040" d="M654.163,-909.985C675.713,-903.241 712.484,-889.655 738.5,-869 795.793,-823.512 843.756,-752.68 871.056,-707.193"/>
<polygon fill="none" stroke="#404040" points="871.112,-707.098 870.721,-699.898 877.217,-696.768 877.608,-703.968 871.112,-707.098"/>
<text text-anchor="middle" x="843" y="-822.5" font-family="FreeSans" font-size="10.00"> +flagLive</text>
</g>
<!-- Node11&#45;&gt;Node12 -->
<g id="edge16" class="edge"><title>Node11&#45;&gt;Node12</title>
<path fill="none" stroke="#404040" d="M618.913,-911.274C598.364,-905.875 565.295,-893.692 550.5,-869 530.398,-835.45 538.876,-818.344 550.5,-781 553.146,-772.498 578.361,-736.496 599.964,-706.558"/>
<polygon fill="none" stroke="#404040" points="600.075,-706.404 600.355,-699.199 607.114,-696.686 606.834,-703.891 600.075,-706.404"/>
<text text-anchor="middle" x="584" y="-822.5" font-family="FreeSans" font-size="10.00"> +flagInterlaced</text>
</g>
<!-- Node17 -->
<g id="node17" class="node"><title>Node17</title>
<g id="a_node17"><a xlink:href="classVisualMediaN_1_1UtilityN_1_1DecklinkWrapperC.html" target="_top" xlink:title="Wrapper for the Decklink API. ">
<polygon fill="white" stroke="black" points="360.5,-562.5 360.5,-762.5 476.5,-762.5 476.5,-562.5 360.5,-562.5"/>
<text text-anchor="start" x="368.5" y="-750.5" font-family="FreeSans" font-size="10.00">VisualMediaN::UtilityN</text>
<text text-anchor="middle" x="418.5" y="-739.5" font-family="FreeSans" font-size="10.00">::DecklinkWrapperC</text>
<polyline fill="none" stroke="black" points="360.5,-732.5 476.5,-732.5 "/>
<text text-anchor="middle" x="418.5" y="-720.5" font-family="FreeSans" font-size="10.00"> </text>
<polyline fill="none" stroke="black" points="360.5,-713.5 476.5,-713.5 "/>
<text text-anchor="start" x="368.5" y="-701.5" font-family="FreeSans" font-size="10.00">+ DecklinkWrapperC()</text>
<text text-anchor="start" x="368.5" y="-690.5" font-family="FreeSans" font-size="10.00">+ ~DecklinkWrapperC()</text>
<text text-anchor="start" x="368.5" y="-679.5" font-family="FreeSans" font-size="10.00">+ DecklinkWrapperC()</text>
<text text-anchor="start" x="368.5" y="-668.5" font-family="FreeSans" font-size="10.00">+ operator=()</text>
<text text-anchor="start" x="368.5" y="-657.5" font-family="FreeSans" font-size="10.00">+ Initialise()</text>
<text text-anchor="start" x="368.5" y="-646.5" font-family="FreeSans" font-size="10.00">+ StartCapture()</text>
<text text-anchor="start" x="368.5" y="-635.5" font-family="FreeSans" font-size="10.00">+ StopCapture()</text>
<text text-anchor="start" x="368.5" y="-624.5" font-family="FreeSans" font-size="10.00">+ GetLastFrame()</text>
<text text-anchor="start" x="368.5" y="-613.5" font-family="FreeSans" font-size="10.00">+ GetFrameRate()</text>
<text text-anchor="start" x="368.5" y="-602.5" font-family="FreeSans" font-size="10.00">+ GetFrameHeight()</text>
<text text-anchor="start" x="368.5" y="-591.5" font-family="FreeSans" font-size="10.00">+ GetFrameWidth()</text>
<text text-anchor="start" x="368.5" y="-580.5" font-family="FreeSans" font-size="10.00">+ IsValid()</text>
<text text-anchor="start" x="368.5" y="-569.5" font-family="FreeSans" font-size="10.00">+ QueryNewFrame()</text>
</a>
</g>
</g>
<!-- Node11&#45;&gt;Node17 -->
<g id="edge20" class="edge"><title>Node11&#45;&gt;Node17</title>
<path fill="none" stroke="#404040" d="M618.835,-912.796C578.51,-907.402 481.461,-892.258 459.5,-869 452.292,-861.366 443.248,-818.834 435.49,-774.427"/>
<polygon fill="none" stroke="#404040" points="435.473,-774.328 430.515,-769.091 433.443,-762.501 438.4,-767.738 435.473,-774.328"/>
<text text-anchor="middle" x="481" y="-822.5" font-family="FreeSans" font-size="10.00"> &#45;flagValid</text>
</g>
<!-- Node11&#45;&gt;Node18 -->
<g id="edge32" class="edge"><title>Node11&#45;&gt;Node18</title>
<path fill="none" stroke="#404040" d="M654.295,-909.303C671.865,-902.654 697.88,-889.83 710.5,-869 788.322,-740.547 628.897,-626.413 746.5,-533 832.148,-464.969 1147.01,-427.512 1307.73,-412.447"/>
<polygon fill="none" stroke="#404040" points="1308.03,-412.42 1313.63,-407.884 1319.98,-411.315 1314.37,-415.85 1308.03,-412.42"/>
<text text-anchor="middle" x="761.5" y="-660" font-family="FreeSans" font-size="10.00"> +flagVerbose</text>
</g>
<!-- Node11&#45;&gt;Node20 -->
<g id="edge27" class="edge"><title>Node11&#45;&gt;Node20</title>
<path fill="none" stroke="#404040" d="M654.008,-913.516C741.662,-906.07 1128.81,-872.977 1133.5,-869 1164.32,-842.843 1125.12,-806.486 1156.5,-781 1188.1,-755.33 1487.11,-783.129 1522.5,-763 1544.04,-750.751 1559.85,-728.252 1570.59,-707.743"/>
<polygon fill="none" stroke="#404040" points="1570.6,-707.72 1569.66,-700.571 1575.89,-696.949 1576.84,-704.098 1570.6,-707.72"/>
<text text-anchor="middle" x="1187" y="-828" font-family="FreeSans" font-size="10.00"> +flagUpright</text>
<text text-anchor="middle" x="1187" y="-817" font-family="FreeSans" font-size="10.00">+flagExtended</text>
</g>
<!-- Node12&#45;&gt;Node6 -->
<g id="edge11" class="edge"><title>Node12&#45;&gt;Node6</title>
<path fill="none" stroke="#404040" d="M619.073,-628.428C610.327,-604.94 598.453,-572.621 588.5,-544 586.484,-538.202 584.44,-532.262 582.392,-526.256"/>
<polygon fill="none" stroke="#404040" points="582.309,-526.011 576.593,-521.614 578.453,-514.647 584.169,-519.044 582.309,-526.011"/>
<text text-anchor="middle" x="604" y="-536" font-family="FreeSans" font-size="10.00"> &#45;config</text>
</g>
<!-- Node12&#45;&gt;Node18 -->
<g id="edge30" class="edge"><title>Node12&#45;&gt;Node18</title>
<path fill="none" stroke="#404040" d="M626.873,-628.353C624.817,-599.238 627.097,-557.768 651.5,-533 741.518,-441.637 1125.74,-414.966 1307.49,-407.395"/>
<polygon fill="none" stroke="#404040" points="1307.7,-407.386 1313.54,-403.148 1319.69,-406.903 1313.86,-411.141 1307.7,-407.386"/>
<text text-anchor="middle" x="681" y="-536" font-family="FreeSans" font-size="10.00"> +videoConfig</text>
</g>
<!-- Node13 -->
<g id="node13" class="node"><title>Node13</title>
<polygon fill="white" stroke="#bfbfbf" points="240,-887.5 240,-944.5 341,-944.5 341,-887.5 240,-887.5"/>
<text text-anchor="middle" x="290.5" y="-932.5" font-family="FreeSans" font-size="10.00">VideoSourceCodeT</text>
<polyline fill="none" stroke="#bfbfbf" points="240,-925.5 341,-925.5 "/>
<text text-anchor="middle" x="290.5" y="-913.5" font-family="FreeSans" font-size="10.00"> </text>
<polyline fill="none" stroke="#bfbfbf" points="240,-906.5 341,-906.5 "/>
<text text-anchor="middle" x="290.5" y="-894.5" font-family="FreeSans" font-size="10.00"> </text>
</g>
<!-- Node13&#45;&gt;Node12 -->
<g id="edge12" class="edge"><title>Node13&#45;&gt;Node12</title>
<path fill="none" stroke="#404040" d="M281.454,-887.312C273.47,-856.975 266.807,-808.921 293.5,-781 334.595,-738.016 508.575,-791.988 560.5,-763 582.646,-750.637 599.589,-728.129 611.361,-707.645"/>
<polygon fill="none" stroke="#404040" points="611.485,-707.415 610.83,-700.234 617.206,-696.867 617.862,-704.048 611.485,-707.415"/>
<text text-anchor="middle" x="323" y="-822.5" font-family="FreeSans" font-size="10.00"> +sourceType</text>
</g>
<!-- Node14 -->
<g id="node14" class="node"><title>Node14</title>
<g id="a_node14"><a xlink:title="STL class. ">
<polygon fill="white" stroke="#bfbfbf" points="971,-887.5 971,-944.5 1030,-944.5 1030,-887.5 971,-887.5"/>
<text text-anchor="middle" x="1000.5" y="-932.5" font-family="FreeSans" font-size="10.00">std::string</text>
<polyline fill="none" stroke="#bfbfbf" points="971,-925.5 1030,-925.5 "/>
<text text-anchor="middle" x="1000.5" y="-913.5" font-family="FreeSans" font-size="10.00"> </text>
<polyline fill="none" stroke="#bfbfbf" points="971,-906.5 1030,-906.5 "/>
<text text-anchor="middle" x="1000.5" y="-894.5" font-family="FreeSans" font-size="10.00"> </text>
</a>
</g>
</g>
<!-- Node14&#45;&gt;Node12 -->
<g id="edge14" class="edge"><title>Node14&#45;&gt;Node12</title>
<path fill="none" stroke="#404040" d="M970.947,-915.272C897.159,-915.302 707.665,-911.176 664.5,-869 622.36,-827.825 620.512,-755.736 624.726,-708.816"/>
<polygon fill="none" stroke="#404040" points="624.757,-708.522 621.406,-702.137 626.012,-696.588 629.362,-702.974 624.757,-708.522"/>
<text text-anchor="middle" x="699.5" y="-839" font-family="FreeSans" font-size="10.00"> +displayMode</text>
<text text-anchor="middle" x="699.5" y="-828" font-family="FreeSans" font-size="10.00">+videoFilename</text>
<text text-anchor="middle" x="699.5" y="-817" font-family="FreeSans" font-size="10.00">+colourMode</text>
<text text-anchor="middle" x="699.5" y="-806" font-family="FreeSans" font-size="10.00">+pixelFormat</text>
</g>
<!-- Node14&#45;&gt;Node18 -->
<g id="edge33" class="edge"><title>Node14&#45;&gt;Node18</title>
<path fill="none" stroke="#404040" d="M999.549,-887.344C997.549,-813.457 995.837,-613.571 1033.5,-562 1097.8,-473.961 1221.32,-434.724 1307.9,-417.51"/>
<polygon fill="none" stroke="#404040" points="1308.07,-417.477 1313.21,-412.422 1319.86,-415.224 1314.71,-420.279 1308.07,-417.477"/>
<text text-anchor="middle" x="1074.5" y="-687.5" font-family="FreeSans" font-size="10.00"> +pointCloudFile</text>
<text text-anchor="middle" x="1074.5" y="-676.5" font-family="FreeSans" font-size="10.00">+recordedFeedFile</text>
<text text-anchor="middle" x="1074.5" y="-665.5" font-family="FreeSans" font-size="10.00">+cameraFile</text>
<text text-anchor="middle" x="1074.5" y="-654.5" font-family="FreeSans" font-size="10.00">+sceneFeatureFile</text>
<text text-anchor="middle" x="1074.5" y="-643.5" font-family="FreeSans" font-size="10.00">+outputPath</text>
<text text-anchor="middle" x="1074.5" y="-632.5" font-family="FreeSans" font-size="10.00">+logFile</text>
</g>
<!-- Node14&#45;&gt;Node27 -->
<g id="edge42" class="edge"><title>Node14&#45;&gt;Node27</title>
<path fill="none" stroke="#404040" d="M1030.33,-912.63C1083.47,-907.787 1191.45,-894.957 1217.5,-869 1245.85,-840.76 1205.61,-806.433 1236.5,-781 1276.14,-748.365 2114.56,-785.918 2160.5,-763 2186.49,-750.033 2206.46,-723.882 2219.68,-701.642"/>
<polygon fill="none" stroke="#404040" points="2219.72,-701.563 2219.19,-694.372 2225.63,-691.114 2226.16,-698.306 2219.72,-701.563"/>
<text text-anchor="middle" x="1251" y="-822.5" font-family="FreeSans" font-size="10.00"> +keys</text>
</g>
<!-- Node15 -->
<g id="node15" class="node"><title>Node15</title>
<g id="a_node15"><a xlink:title="STL class. ">
<polygon fill="white" stroke="#bfbfbf" points="954,-992.5 954,-1060.5 1047,-1060.5 1047,-992.5 954,-992.5"/>
<text text-anchor="start" x="962" y="-1048.5" font-family="FreeSans" font-size="10.00">std::basic_string&lt;</text>
<text text-anchor="middle" x="1000.5" y="-1037.5" font-family="FreeSans" font-size="10.00"> char &gt;</text>
<polyline fill="none" stroke="#bfbfbf" points="954,-1030.5 1047,-1030.5 "/>
<text text-anchor="middle" x="1000.5" y="-1018.5" font-family="FreeSans" font-size="10.00"> </text>
<polyline fill="none" stroke="#bfbfbf" points="954,-1011.5 1047,-1011.5 "/>
<text text-anchor="middle" x="1000.5" y="-999.5" font-family="FreeSans" font-size="10.00"> </text>
</a>
</g>
</g>
<!-- Node15&#45;&gt;Node14 -->
<g id="edge15" class="edge"><title>Node15&#45;&gt;Node14</title>
<path fill="none" stroke="midnightblue" d="M1000.5,-982.064C1000.5,-969.511 1000.5,-956.152 1000.5,-944.827"/>
<polygon fill="none" stroke="midnightblue" points="997,-982.357 1000.5,-992.357 1004,-982.357 997,-982.357"/>
</g>
<!-- Node16 -->
<g id="node16" class="node"><title>Node16</title>
<polygon fill="white" stroke="#bfbfbf" points="359.5,-887.5 359.5,-944.5 437.5,-944.5 437.5,-887.5 359.5,-887.5"/>
<text text-anchor="middle" x="398.5" y="-932.5" font-family="FreeSans" font-size="10.00">ColourSpaceT</text>
<polyline fill="none" stroke="#bfbfbf" points="359.5,-925.5 437.5,-925.5 "/>
<text text-anchor="middle" x="398.5" y="-913.5" font-family="FreeSans" font-size="10.00"> </text>
<polyline fill="none" stroke="#bfbfbf" points="359.5,-906.5 437.5,-906.5 "/>
<text text-anchor="middle" x="398.5" y="-894.5" font-family="FreeSans" font-size="10.00"> </text>
</g>
<!-- Node16&#45;&gt;Node12 -->
<g id="edge17" class="edge"><title>Node16&#45;&gt;Node12</title>
<path fill="none" stroke="#404040" d="M378.434,-887.417C375.161,-881.596 372.267,-875.301 370.5,-869 359.94,-831.341 344.181,-809.931 370.5,-781 399.04,-749.628 523.753,-784.174 560.5,-763 582.476,-750.337 599.408,-727.81 611.216,-707.39"/>
<polygon fill="none" stroke="#404040" points="611.329,-707.183 610.697,-699.999 617.085,-696.653 617.717,-703.837 611.329,-707.183"/>
<text text-anchor="middle" x="402" y="-822.5" font-family="FreeSans" font-size="10.00"> +colourSpace</text>
</g>
<!-- Node17&#45;&gt;Node6 -->
<g id="edge19" class="edge"><title>Node17&#45;&gt;Node6</title>
<path fill="none" stroke="#404040" d="M397.432,-562.387C398.289,-552.234 400.47,-542.259 404.5,-533 415.206,-508.401 433.199,-486.384 452.717,-467.815"/>
<polygon fill="none" stroke="#404040" points="452.919,-467.631 454.644,-460.63 461.771,-459.53 460.045,-466.531 452.919,-467.631"/>
<text text-anchor="middle" x="452.5" y="-536" font-family="FreeSans" font-size="10.00"> &#45;frameGrabberSource</text>
</g>
<!-- Node18&#45;&gt;Node1 -->
<g id="edge21" class="edge"><title>Node18&#45;&gt;Node1</title>
<path fill="none" stroke="#404040" d="M1330.64,-363.999C1243.61,-318.015 1096.87,-240.473 993.576,-185.893"/>
<polygon fill="none" stroke="#404040" points="993.388,-185.793 986.214,-186.526 982.778,-180.187 989.952,-179.453 993.388,-185.793"/>
<text text-anchor="middle" x="1183" y="-266" font-family="FreeSans" font-size="10.00"> &#45;parameters</text>
</g>
<!-- Node19 -->
<g id="node19" class="node"><title>Node19</title>
<polygon fill="white" stroke="#bfbfbf" points="1900.5,-634 1900.5,-691 2026.5,-691 2026.5,-634 1900.5,-634"/>
<text text-anchor="middle" x="1963.5" y="-679" font-family="FreeSans" font-size="10.00">SfMPipelineParametersC</text>
<polyline fill="none" stroke="#bfbfbf" points="1900.5,-672 2026.5,-672 "/>
<text text-anchor="middle" x="1963.5" y="-660" font-family="FreeSans" font-size="10.00"> </text>
<polyline fill="none" stroke="#bfbfbf" points="1900.5,-653 2026.5,-653 "/>
<text text-anchor="middle" x="1963.5" y="-641" font-family="FreeSans" font-size="10.00"> </text>
</g>
<!-- Node19&#45;&gt;Node18 -->
<g id="edge23" class="edge"><title>Node19&#45;&gt;Node18</title>
<path fill="none" stroke="#404040" d="M1949.65,-633.806C1937.22,-611.533 1917.01,-580.933 1891.5,-562 1773.39,-474.353 1604.49,-434.237 1499.54,-416.807"/>
<polygon fill="none" stroke="#404040" points="1499.22,-416.756 1492.66,-419.748 1487.38,-414.841 1493.94,-411.85 1499.22,-416.756"/>
<text text-anchor="middle" x="1895.5" y="-536" font-family="FreeSans" font-size="10.00"> +sfmParameters</text>
</g>
<!-- Node20&#45;&gt;Node18 -->
<g id="edge24" class="edge"><title>Node20&#45;&gt;Node18</title>
<path fill="none" stroke="#404040" d="M1567.3,-628.443C1554.6,-608.915 1537.96,-583.82 1522.5,-562 1496.13,-524.78 1465.02,-483.689 1441.22,-452.813"/>
<polygon fill="none" stroke="#404040" points="1441.1,-452.661 1434.26,-450.359 1433.76,-443.165 1440.6,-445.468 1441.1,-452.661"/>
<text text-anchor="middle" x="1547" y="-536" font-family="FreeSans" font-size="10.00"> +kazeParameters</text>
</g>
<!-- Node21 -->
<g id="node21" class="node"><title>Node21</title>
<polygon fill="white" stroke="#bfbfbf" points="1302,-634 1302,-691 1397,-691 1397,-634 1302,-634"/>
<text text-anchor="middle" x="1349.5" y="-679" font-family="FreeSans" font-size="10.00">optional&lt; double &gt;</text>
<polyline fill="none" stroke="#bfbfbf" points="1302,-672 1397,-672 "/>
<text text-anchor="middle" x="1349.5" y="-660" font-family="FreeSans" font-size="10.00"> </text>
<polyline fill="none" stroke="#bfbfbf" points="1302,-653 1397,-653 "/>
<text text-anchor="middle" x="1349.5" y="-641" font-family="FreeSans" font-size="10.00"> </text>
</g>
<!-- Node21&#45;&gt;Node18 -->
<g id="edge28" class="edge"><title>Node21&#45;&gt;Node18</title>
<path fill="none" stroke="#404040" d="M1351.97,-633.726C1354.58,-607.563 1359.32,-567.363 1366.5,-533 1371.96,-506.853 1379.99,-478.251 1387.17,-454.684"/>
<polygon fill="none" stroke="#404040" points="1387.18,-454.669 1385.13,-447.755 1390.72,-443.206 1392.77,-450.12 1387.18,-454.669"/>
<text text-anchor="middle" x="1396.5" y="-536" font-family="FreeSans" font-size="10.00"> +focalLength</text>
</g>
<!-- Node22 -->
<g id="node22" class="node"><title>Node22</title>
<polygon fill="white" stroke="#bfbfbf" points="1359.5,-887.5 1359.5,-944.5 1409.5,-944.5 1409.5,-887.5 1359.5,-887.5"/>
<text text-anchor="middle" x="1384.5" y="-932.5" font-family="FreeSans" font-size="10.00">optional</text>
<polyline fill="none" stroke="#bfbfbf" points="1359.5,-925.5 1409.5,-925.5 "/>
<text text-anchor="middle" x="1384.5" y="-913.5" font-family="FreeSans" font-size="10.00"> </text>
<polyline fill="none" stroke="#bfbfbf" points="1359.5,-906.5 1409.5,-906.5 "/>
<text text-anchor="middle" x="1384.5" y="-894.5" font-family="FreeSans" font-size="10.00"> </text>
</g>
<!-- Node22&#45;&gt;Node21 -->
<g id="edge29" class="edge"><title>Node22&#45;&gt;Node21</title>
<path fill="none" stroke="orange" d="M1354.69,-878.736C1353.03,-875.567 1351.6,-872.304 1350.5,-869 1330.31,-808.224 1337.94,-731.644 1344.31,-691.303"/>
<polygon fill="orange" stroke="orange" points="1351.73,-880.599 1359.87,-887.381 1357.73,-877.003 1351.73,-880.599"/>
<text text-anchor="middle" x="1374.5" y="-822.5" font-family="FreeSans" font-size="10.00"> &lt; double &gt;</text>
</g>
<!-- Node24 -->
<g id="node24" class="node"><title>Node24</title>
<polygon fill="white" stroke="#bfbfbf" points="1415.5,-628.5 1415.5,-696.5 1513.5,-696.5 1513.5,-628.5 1415.5,-628.5"/>
<text text-anchor="start" x="1423.5" y="-684.5" font-family="FreeSans" font-size="10.00">optional&lt; unsigned</text>
<text text-anchor="middle" x="1464.5" y="-673.5" font-family="FreeSans" font-size="10.00"> int &gt;</text>
<polyline fill="none" stroke="#bfbfbf" points="1415.5,-666.5 1513.5,-666.5 "/>
<text text-anchor="middle" x="1464.5" y="-654.5" font-family="FreeSans" font-size="10.00"> </text>
<polyline fill="none" stroke="#bfbfbf" points="1415.5,-647.5 1513.5,-647.5 "/>
<text text-anchor="middle" x="1464.5" y="-635.5" font-family="FreeSans" font-size="10.00"> </text>
</g>
<!-- Node22&#45;&gt;Node24 -->
<g id="edge36" class="edge"><title>Node22&#45;&gt;Node24</title>
<path fill="none" stroke="orange" d="M1396.03,-877.552C1396.88,-874.662 1397.71,-871.786 1398.5,-869 1409.5,-830.1 1409.43,-819.581 1421.5,-781 1430.52,-752.183 1442.42,-720.019 1451.41,-696.638"/>
<polygon fill="orange" stroke="orange" points="1392.62,-876.739 1393.12,-887.322 1399.33,-878.74 1392.62,-876.739"/>
<text text-anchor="middle" x="1457" y="-822.5" font-family="FreeSans" font-size="10.00"> &lt; unsigned int &gt;</text>
</g>
<!-- Node23 -->
<g id="node23" class="node"><title>Node23</title>
<polygon fill="white" stroke="#bfbfbf" points="1125,-628.5 1125,-696.5 1284,-696.5 1284,-628.5 1125,-628.5"/>
<text text-anchor="start" x="1133" y="-684.5" font-family="FreeSans" font-size="10.00">Sparse3DReconstructionPipeline</text>
<text text-anchor="middle" x="1204.5" y="-673.5" font-family="FreeSans" font-size="10.00">ParametersC</text>
<polyline fill="none" stroke="#bfbfbf" points="1125,-666.5 1284,-666.5 "/>
<text text-anchor="middle" x="1204.5" y="-654.5" font-family="FreeSans" font-size="10.00"> </text>
<polyline fill="none" stroke="#bfbfbf" points="1125,-647.5 1284,-647.5 "/>
<text text-anchor="middle" x="1204.5" y="-635.5" font-family="FreeSans" font-size="10.00"> </text>
</g>
<!-- Node23&#45;&gt;Node18 -->
<g id="edge34" class="edge"><title>Node23&#45;&gt;Node18</title>
<path fill="none" stroke="#404040" d="M1223.09,-628.472C1238.59,-601.854 1261.88,-563.904 1285.5,-533 1307.11,-504.728 1333.74,-475.34 1356.23,-451.816"/>
<polygon fill="none" stroke="#404040" points="1356.3,-451.743 1357.58,-444.647 1364.63,-443.102 1363.34,-450.198 1356.3,-451.743"/>
<text text-anchor="middle" x="1323" y="-536" font-family="FreeSans" font-size="10.00"> +s3dParameters</text>
</g>
<!-- Node24&#45;&gt;Node18 -->
<g id="edge35" class="edge"><title>Node24&#45;&gt;Node18</title>
<path fill="none" stroke="#404040" d="M1456.65,-628.428C1446.22,-584.5 1427.71,-506.487 1415.52,-455.125"/>
<polygon fill="none" stroke="#404040" points="1415.48,-454.993 1410.21,-450.078 1412.71,-443.317 1417.99,-448.231 1415.48,-454.993"/>
<text text-anchor="middle" x="1451.5" y="-536" font-family="FreeSans" font-size="10.00"> +seed</text>
</g>
<!-- Node25&#45;&gt;Node18 -->
<g id="edge37" class="edge"><title>Node25&#45;&gt;Node18</title>
<path fill="none" stroke="#404040" d="M1807.55,-628.254C1794.89,-607.198 1776.34,-580.542 1754.5,-562 1679.47,-498.296 1574.51,-455.743 1498.94,-431.1"/>
<polygon fill="none" stroke="#404040" points="1498.5,-430.959 1491.57,-432.938 1487.07,-427.298 1494.01,-425.319 1498.5,-430.959"/>
<text text-anchor="middle" x="1767" y="-536" font-family="FreeSans" font-size="10.00"> +orbParameters</text>
</g>
<!-- Node26 -->
<g id="node26" class="node"><title>Node26</title>
<polygon fill="white" stroke="#bfbfbf" points="2072,-887.5 2072,-944.5 2107,-944.5 2107,-887.5 2072,-887.5"/>
<text text-anchor="middle" x="2089.5" y="-932.5" font-family="FreeSans" font-size="10.00">float</text>
<polyline fill="none" stroke="#bfbfbf" points="2072,-925.5 2107,-925.5 "/>
<text text-anchor="middle" x="2089.5" y="-913.5" font-family="FreeSans" font-size="10.00"> </text>
<polyline fill="none" stroke="#bfbfbf" points="2072,-906.5 2107,-906.5 "/>
<text text-anchor="middle" x="2089.5" y="-894.5" font-family="FreeSans" font-size="10.00"> </text>
</g>
<!-- Node26&#45;&gt;Node25 -->
<g id="edge38" class="edge"><title>Node26&#45;&gt;Node25</title>
<path fill="none" stroke="#404040" d="M2075.67,-887.286C2058.66,-856.218 2026.74,-806.819 1984.5,-781 1948.58,-759.043 1926.53,-786.358 1891.5,-763 1871.27,-749.512 1855.73,-727.499 1844.82,-707.603"/>
<polygon fill="none" stroke="#404040" points="1844.76,-707.488 1838.45,-704.003 1839.24,-696.835 1845.55,-700.32 1844.76,-707.488"/>
<text text-anchor="middle" x="2093.5" y="-822.5" font-family="FreeSans" font-size="10.00"> +scaleFactor</text>
</g>
<!-- Node27&#45;&gt;Node1 -->
<g id="edge40" class="edge"><title>Node27&#45;&gt;Node1</title>
<path fill="none" stroke="#404040" d="M2222.99,-633.732C2209.48,-611.717 2188.08,-581.51 2162.5,-562 1794.96,-281.685 1236.67,-173.64 994.498,-138.332"/>
<polygon fill="none" stroke="#404040" points="994.383,-138.316 987.874,-141.42 982.505,-136.606 989.014,-133.501 994.383,-138.316"/>
<text text-anchor="middle" x="2113.5" y="-401" font-family="FreeSans" font-size="10.00"> &#45;logger</text>
</g>
<!-- Node28&#45;&gt;Node27 -->
<g id="edge43" class="edge"><title>Node28&#45;&gt;Node27</title>
<path fill="none" stroke="orange" d="M2220.42,-877.504C2221.21,-874.649 2221.92,-871.793 2222.5,-869 2235.62,-806.302 2238.21,-730.813 2238.59,-691.074"/>
<polygon fill="orange" stroke="orange" points="2217.06,-876.518 2217.48,-887.104 2223.75,-878.564 2217.06,-876.518"/>
<text text-anchor="middle" x="2273" y="-822.5" font-family="FreeSans" font-size="10.00"> &lt; string, double &gt;</text>
</g>
<!-- Node29 -->
<g id="node29" class="node"><title>Node29</title>
<polygon fill="white" stroke="#bfbfbf" points="2192,-998 2192,-1055 2221,-1055 2221,-998 2192,-998"/>
<text text-anchor="middle" x="2206.5" y="-1043" font-family="FreeSans" font-size="10.00">K</text>
<polyline fill="none" stroke="#bfbfbf" points="2192,-1036 2221,-1036 "/>
<text text-anchor="middle" x="2206.5" y="-1024" font-family="FreeSans" font-size="10.00"> </text>
<polyline fill="none" stroke="#bfbfbf" points="2192,-1017 2221,-1017 "/>
<text text-anchor="middle" x="2206.5" y="-1005" font-family="FreeSans" font-size="10.00"> </text>
</g>
<!-- Node29&#45;&gt;Node28 -->
<g id="edge44" class="edge"><title>Node29&#45;&gt;Node28</title>
<path fill="none" stroke="#404040" d="M2206.5,-997.84C2206.5,-985.342 2206.5,-970.342 2206.5,-956.676"/>
<polygon fill="none" stroke="#404040" points="2206.5,-956.609 2202.5,-950.609 2206.5,-944.609 2210.5,-950.609 2206.5,-956.609"/>
<text text-anchor="middle" x="2221" y="-966" font-family="FreeSans" font-size="10.00"> +keys</text>
</g>
</g>
</svg>
        <g id="navigator" transform="translate(0 0)" fill="#404254">
                <rect fill="#f2f5e9" fill-opacity="0.5" stroke="#606060" stroke-width=".5" x="0" y="0" width="60" height="60"/>
                <use id="zoomplus" xlink:href="#zoomPlus" x="17" y="9" onmousedown="handleZoom(evt,'in')"/>
                <use id="zoomminus" xlink:href="#zoomMin" x="42" y="9" onmousedown="handleZoom(evt,'out')"/>
                <use id="reset" xlink:href="#resetDef" x="30" y="36" onmousedown="handleReset()"/>
                <g id="arrowUp" xlink:href="#dirArrow" transform="translate(30 24)" onmousedown="handlePan(0,-1)">
                  <use xlink:href="#rim" fill="#404040">
                        <set attributeName="fill" to="#808080" begin="arrowUp.mouseover" end="arrowUp.mouseout"/>
                  </use>
                  <path fill="none" stroke="white" stroke-width="1.5" d="M0,-3.0v7 M-2.5,-0.5L0,-3.0L2.5,-0.5"/>
                </g>
                <g id="arrowRight" xlink:href="#dirArrow" transform="rotate(90) translate(36 -43)" onmousedown="handlePan(1,0)">
                  <use xlink:href="#rim" fill="#404040">
                        <set attributeName="fill" to="#808080" begin="arrowRight.mouseover" end="arrowRight.mouseout"/>
                  </use>
                  <path fill="none" stroke="white" stroke-width="1.5" d="M0,-3.0v7 M-2.5,-0.5L0,-3.0L2.5,-0.5"/>
                </g>
                <g id="arrowDown" xlink:href="#dirArrow" transform="rotate(180) translate(-30 -48)" onmousedown="handlePan(0,1)">
                  <use xlink:href="#rim" fill="#404040">
                        <set attributeName="fill" to="#808080" begin="arrowDown.mouseover" end="arrowDown.mouseout"/>
                  </use>
                  <path fill="none" stroke="white" stroke-width="1.5" d="M0,-3.0v7 M-2.5,-0.5L0,-3.0L2.5,-0.5"/>
                </g>
                <g id="arrowLeft" xlink:href="#dirArrow" transform="rotate(270) translate(-36 17)" onmousedown="handlePan(-1,0)">
                  <use xlink:href="#rim" fill="#404040">
                        <set attributeName="fill" to="#808080" begin="arrowLeft.mouseover" end="arrowLeft.mouseout"/>
                  </use>
                  <path fill="none" stroke="white" stroke-width="1.5" d="M0,-3.0v7 M-2.5,-0.5L0,-3.0L2.5,-0.5"/>
                </g>
        </g>
        <svg viewBox="0 0 15 15" width="100%" height="30px" preserveAspectRatio="xMaxYMin meet">
         <g id="arrow_out" transform="scale(0.3 0.3)">
          <a xlink:href="classVisualMediaN_1_1App3DSceneModelBuilderN_1_1App3dSceneModelBuilderImplementationC__coll__graph_org.svg" target="_base">
           <rect id="button" ry="5" rx="5" y="6" x="6" height="38" width="38"
                fill="#f2f5e9" fill-opacity="0.5" stroke="#606060" stroke-width="1.0"/>
           <path id="arrow"
             d="M 11.500037,31.436501 C 11.940474,20.09759 22.043105,11.32322 32.158766,21.979434 L 37.068811,17.246167 C 37.068811,17.246167 37.088388,32 37.088388,32 L 22.160133,31.978069 C 22.160133,31.978069 26.997745,27.140456 26.997745,27.140456 C 18.528582,18.264221 13.291696,25.230495 11.500037,31.436501 z"
             style="fill:#404040;"/>
          </a>
         </g>
        </svg>
</svg>
