<?xml version="1.0" encoding="UTF-8" standalone="no"?>
<!DOCTYPE svg PUBLIC "-//W3C//DTD SVG 1.1//EN"
 "http://www.w3.org/Graphics/SVG/1.1/DTD/svg11.dtd">
<!-- Generated by graphviz version 2.38.0 (20140413.2041)
 -->
<!-- Title: BlackmagicFrameGrabberCallbackC::Release Pages: 1 -->
<svg width="378pt" height="39pt"
 viewBox="0.00 0.00 378.00 39.00" xmlns="http://www.w3.org/2000/svg" xmlns:xlink="http://www.w3.org/1999/xlink">
<g id="graph0" class="graph" transform="scale(1 1) rotate(0) translate(4 35)">
<title>BlackmagicFrameGrabberCallbackC::Release</title>
<polygon fill="white" stroke="none" points="-4,4 -4,-35 374,-35 374,4 -4,4"/>
<!-- Node14 -->
<g id="node1" class="node"><title>Node14</title>
<polygon fill="#bfbfbf" stroke="black" points="0,-0.5 0,-30.5 167,-30.5 167,-0.5 0,-0.5"/>
<text text-anchor="start" x="8" y="-18.5" font-family="FreeSans" font-size="10.00">BlackmagicFrameGrabberCallback</text>
<text text-anchor="middle" x="83.5" y="-7.5" font-family="FreeSans" font-size="10.00">C::Release</text>
</g>
<!-- Node15 -->
<g id="node2" class="node"><title>Node15</title>
<g id="a_node2"><a xlink:href="classBlackmagicFrameGrabberCallbackC.html#a3b4d13cbd4da399a762a9e0560808851" target="_top" xlink:title="BlackmagicFrameGrabberCallback\lC::QueryInterface">
<polygon fill="white" stroke="black" points="203,-0.5 203,-30.5 370,-30.5 370,-0.5 203,-0.5"/>
<text text-anchor="start" x="211" y="-18.5" font-family="FreeSans" font-size="10.00">BlackmagicFrameGrabberCallback</text>
<text text-anchor="middle" x="286.5" y="-7.5" font-family="FreeSans" font-size="10.00">C::QueryInterface</text>
</a>
</g>
</g>
<!-- Node14&#45;&gt;Node15 -->
<g id="edge1" class="edge"><title>Node14&#45;&gt;Node15</title>
<path fill="none" stroke="midnightblue" d="M177.148,-15.5C185.73,-15.5 194.389,-15.5 202.872,-15.5"/>
<polygon fill="midnightblue" stroke="midnightblue" points="177.125,-12.0001 167.125,-15.5 177.124,-19.0001 177.125,-12.0001"/>
</g>
</g>
</svg>
