<?xml version="1.0" encoding="UTF-8" standalone="no"?>
<!DOCTYPE svg PUBLIC "-//W3C//DTD SVG 1.1//EN"
 "http://www.w3.org/Graphics/SVG/1.1/DTD/svg11.dtd">
<!-- Generated by graphviz version 2.38.0 (20140413.2041)
 -->
<!-- Title: VisualMediaN::UtilityN::PoseFilterC::Update Pages: 1 -->
<svg width="295pt" height="50pt"
 viewBox="0.00 0.00 295.00 50.00" xmlns="http://www.w3.org/2000/svg" xmlns:xlink="http://www.w3.org/1999/xlink">
<g id="graph0" class="graph" transform="scale(1 1) rotate(0) translate(4 46)">
<title>VisualMediaN::UtilityN::PoseFilterC::Update</title>
<polygon fill="white" stroke="none" points="-4,4 -4,-46 291,-46 291,4 -4,4"/>
<!-- Node3 -->
<g id="node1" class="node"><title>Node3</title>
<polygon fill="#bfbfbf" stroke="black" points="0,-6 0,-36 114,-36 114,-6 0,-6"/>
<text text-anchor="start" x="8" y="-24" font-family="FreeSans" font-size="10.00">VisualMediaN::UtilityN</text>
<text text-anchor="middle" x="57" y="-13" font-family="FreeSans" font-size="10.00">::PoseFilterC::Update</text>
</g>
<!-- Node4 -->
<g id="node2" class="node"><title>Node4</title>
<g id="a_node2"><a xlink:href="classVisualMediaN_1_1UtilityN_1_1PoseFilterC.html#a8d225975881f4a57abee5cd73dcdc486" target="_top" xlink:title="Applies the filter to the buffer. ">
<polygon fill="white" stroke="black" points="150,-0.5 150,-41.5 287,-41.5 287,-0.5 150,-0.5"/>
<text text-anchor="start" x="158" y="-29.5" font-family="FreeSans" font-size="10.00">VisualMediaN::UtilityN</text>
<text text-anchor="start" x="158" y="-18.5" font-family="FreeSans" font-size="10.00">::PoseFilterC&lt; P2PfSolverC</text>
<text text-anchor="middle" x="218.5" y="-7.5" font-family="FreeSans" font-size="10.00"> &gt;::Apply</text>
</a>
</g>
</g>
<!-- Node3&#45;&gt;Node4 -->
<g id="edge1" class="edge"><title>Node3&#45;&gt;Node4</title>
<path fill="none" stroke="midnightblue" d="M124.342,-21C132.734,-21 141.329,-21 149.742,-21"/>
<polygon fill="midnightblue" stroke="midnightblue" points="124.234,-17.5001 114.234,-21 124.234,-24.5001 124.234,-17.5001"/>
</g>
</g>
</svg>
