<?xml version="1.0" encoding="UTF-8" standalone="no"?>
<!DOCTYPE svg PUBLIC "-//W3C//DTD SVG 1.1//EN"
 "http://www.w3.org/Graphics/SVG/1.1/DTD/svg11.dtd">
<!-- Generated by graphviz version 2.38.0 (20140413.2041)
 -->
<!-- Title: VisualMediaN::UtilityN::DecklinkWrapperC::GetLastFrame Pages: 1 -->
<svg width="365pt" height="39pt"
 viewBox="0.00 0.00 365.00 39.00" xmlns="http://www.w3.org/2000/svg" xmlns:xlink="http://www.w3.org/1999/xlink">
<g id="graph0" class="graph" transform="scale(1 1) rotate(0) translate(4 35)">
<title>VisualMediaN::UtilityN::DecklinkWrapperC::GetLastFrame</title>
<polygon fill="white" stroke="none" points="-4,4 -4,-35 361,-35 361,4 -4,4"/>
<!-- Node16 -->
<g id="node1" class="node"><title>Node16</title>
<polygon fill="#bfbfbf" stroke="black" points="0,-0.5 0,-30.5 169,-30.5 169,-0.5 0,-0.5"/>
<text text-anchor="start" x="8" y="-18.5" font-family="FreeSans" font-size="10.00">VisualMediaN::UtilityN</text>
<text text-anchor="middle" x="84.5" y="-7.5" font-family="FreeSans" font-size="10.00">::DecklinkWrapperC::GetLastFrame</text>
</g>
<!-- Node17 -->
<g id="node2" class="node"><title>Node17</title>
<g id="a_node2"><a xlink:href="classVisualMediaN_1_1UtilityN_1_1VideoInputDeviceC.html#a07ef6c1388f17c2404e9b382fbd9a8b6" target="_top" xlink:title="Reads the current frame from the source. ">
<polygon fill="white" stroke="black" points="205,-0.5 205,-30.5 357,-30.5 357,-0.5 205,-0.5"/>
<text text-anchor="start" x="213" y="-18.5" font-family="FreeSans" font-size="10.00">VisualMediaN::UtilityN</text>
<text text-anchor="middle" x="281" y="-7.5" font-family="FreeSans" font-size="10.00">::VideoInputDeviceC::GetFrame</text>
</a>
</g>
</g>
<!-- Node16&#45;&gt;Node17 -->
<g id="edge1" class="edge"><title>Node16&#45;&gt;Node17</title>
<path fill="none" stroke="midnightblue" d="M179.154,-15.5C187.735,-15.5 196.353,-15.5 204.74,-15.5"/>
<polygon fill="midnightblue" stroke="midnightblue" points="179.114,-12.0001 169.114,-15.5 179.114,-19.0001 179.114,-12.0001"/>
</g>
</g>
</svg>
