<?xml version="1.0" encoding="UTF-8" standalone="no"?>
<!DOCTYPE svg PUBLIC "-//W3C//DTD SVG 1.1//EN"
 "http://www.w3.org/Graphics/SVG/1.1/DTD/svg11.dtd">
<!-- Generated by graphviz version 2.38.0 (20140413.2041)
 -->
<!-- Title: VisualMediaN::UtilityN::VideoAppConfigInterfaceC::MakeParameterTree Pages: 1 -->
<svg width="396pt" height="230pt"
 viewBox="0.00 0.00 396.00 230.00" xmlns="http://www.w3.org/2000/svg" xmlns:xlink="http://www.w3.org/1999/xlink">
<g id="graph0" class="graph" transform="scale(1 1) rotate(0) translate(4 226)">
<title>VisualMediaN::UtilityN::VideoAppConfigInterfaceC::MakeParameterTree</title>
<polygon fill="white" stroke="none" points="-4,4 -4,-226 392,-226 392,4 -4,4"/>
<!-- Node9 -->
<g id="node1" class="node"><title>Node9</title>
<polygon fill="#bfbfbf" stroke="black" points="0,-90.5 0,-131.5 135,-131.5 135,-90.5 0,-90.5"/>
<text text-anchor="start" x="8" y="-119.5" font-family="FreeSans" font-size="10.00">VisualMediaN::UtilityN</text>
<text text-anchor="start" x="8" y="-108.5" font-family="FreeSans" font-size="10.00">::VideoAppConfigInterfaceC</text>
<text text-anchor="middle" x="67.5" y="-97.5" font-family="FreeSans" font-size="10.00">::MakeParameterTree</text>
</g>
<!-- Node10 -->
<g id="node2" class="node"><title>Node10</title>
<g id="a_node2"><a xlink:href="classVisualMediaN_1_1App3DSceneModelBuilderN_1_1App3dSceneModelBuilderImplementationC.html#a3f9048b44ebf0a9dcdb2716fd794ae96" target="_top" xlink:title="Generates a configuration file with default parameters. ">
<polygon fill="white" stroke="black" points="176,-180.5 176,-221.5 383,-221.5 383,-180.5 176,-180.5"/>
<text text-anchor="start" x="184" y="-209.5" font-family="FreeSans" font-size="10.00">VisualMediaN::App3DScene</text>
<text text-anchor="start" x="184" y="-198.5" font-family="FreeSans" font-size="10.00">ModelBuilderN::App3dSceneModel</text>
<text text-anchor="middle" x="279.5" y="-187.5" font-family="FreeSans" font-size="10.00">BuilderImplementationC::GenerateConfigFile</text>
</a>
</g>
</g>
<!-- Node9&#45;&gt;Node10 -->
<g id="edge1" class="edge"><title>Node9&#45;&gt;Node10</title>
<path fill="none" stroke="midnightblue" d="M107.332,-136.929C125.995,-148.545 149.038,-161.692 171,-171 179.117,-174.44 187.745,-177.605 196.445,-180.484"/>
<polygon fill="midnightblue" stroke="midnightblue" points="109.139,-133.93 98.816,-131.546 105.399,-139.848 109.139,-133.93"/>
</g>
<!-- Node11 -->
<g id="node3" class="node"><title>Node11</title>
<g id="a_node3"><a xlink:href="classVisualMediaN_1_1AppRoamingCameraTrackerN_1_1AppRoamingCameraTrackerImplementationC.html#a2280e557d431c61c070962b947a6c68d" target="_top" xlink:title="Generates a configuration file with default parameters. ">
<polygon fill="white" stroke="black" points="174.5,-120.5 174.5,-161.5 384.5,-161.5 384.5,-120.5 174.5,-120.5"/>
<text text-anchor="start" x="182.5" y="-149.5" font-family="FreeSans" font-size="10.00">VisualMediaN::AppRoaming</text>
<text text-anchor="start" x="182.5" y="-138.5" font-family="FreeSans" font-size="10.00">CameraTrackerN::AppRoamingCamera</text>
<text text-anchor="middle" x="279.5" y="-127.5" font-family="FreeSans" font-size="10.00">TrackerImplementationC::GenerateConfigFile</text>
</a>
</g>
</g>
<!-- Node9&#45;&gt;Node11 -->
<g id="edge2" class="edge"><title>Node9&#45;&gt;Node11</title>
<path fill="none" stroke="midnightblue" d="M145.348,-121.978C154.803,-123.329 164.587,-124.727 174.36,-126.123"/>
<polygon fill="midnightblue" stroke="midnightblue" points="145.628,-118.483 135.234,-120.533 144.638,-125.413 145.628,-118.483"/>
</g>
<!-- Node12 -->
<g id="node4" class="node"><title>Node12</title>
<g id="a_node4"><a xlink:href="classVisualMediaN_1_1AppPanoramaBuilderN_1_1AppPanoramaBuilderImplementationC.html#aeedf6a648785805b47884cfed062e6a7" target="_top" xlink:title="Generates a configuration file with default parameters. ">
<polygon fill="white" stroke="black" points="171,-60.5 171,-101.5 388,-101.5 388,-60.5 171,-60.5"/>
<text text-anchor="start" x="179" y="-89.5" font-family="FreeSans" font-size="10.00">VisualMediaN::AppPanorama</text>
<text text-anchor="start" x="179" y="-78.5" font-family="FreeSans" font-size="10.00">BuilderN::AppPanoramaBuilderImplementation</text>
<text text-anchor="middle" x="279.5" y="-67.5" font-family="FreeSans" font-size="10.00">C::GenerateConfigFile</text>
</a>
</g>
</g>
<!-- Node9&#45;&gt;Node12 -->
<g id="edge3" class="edge"><title>Node9&#45;&gt;Node12</title>
<path fill="none" stroke="midnightblue" d="M145.287,-100.03C153.647,-98.8361 162.264,-97.6051 170.905,-96.3707"/>
<polygon fill="midnightblue" stroke="midnightblue" points="144.638,-96.5875 135.234,-101.467 145.628,-103.517 144.638,-96.5875"/>
</g>
<!-- Node13 -->
<g id="node5" class="node"><title>Node13</title>
<g id="a_node5"><a xlink:href="classVisualMediaN_1_1AppNodalCameraTrackerN_1_1AppNodalCameraTrackerImplementationC.html#a7a1b000ddfe398d6c0d4fa1146174c86" target="_top" xlink:title="Generates a configuration file with default parameters. ">
<polygon fill="white" stroke="black" points="191,-0.5 191,-41.5 368,-41.5 368,-0.5 191,-0.5"/>
<text text-anchor="start" x="199" y="-29.5" font-family="FreeSans" font-size="10.00">VisualMediaN::AppNodalCamera</text>
<text text-anchor="start" x="199" y="-18.5" font-family="FreeSans" font-size="10.00">TrackerN::AppNodalCameraTracker</text>
<text text-anchor="middle" x="279.5" y="-7.5" font-family="FreeSans" font-size="10.00">ImplementationC::GenerateConfigFile</text>
</a>
</g>
</g>
<!-- Node9&#45;&gt;Node13 -->
<g id="edge4" class="edge"><title>Node9&#45;&gt;Node13</title>
<path fill="none" stroke="midnightblue" d="M107.332,-85.0714C125.995,-73.4551 149.038,-60.3078 171,-51 179.117,-47.5598 187.745,-44.3947 196.445,-41.5158"/>
<polygon fill="midnightblue" stroke="midnightblue" points="105.399,-82.1524 98.816,-90.4539 109.139,-88.0696 105.399,-82.1524"/>
</g>
</g>
</svg>
