<?xml version="1.0" encoding="UTF-8" standalone="no"?>
<!DOCTYPE svg PUBLIC "-//W3C//DTD SVG 1.1//EN"
 "http://www.w3.org/Graphics/SVG/1.1/DTD/svg11.dtd">
<!-- Generated by graphviz version 2.38.0 (20140413.2041)
 -->
<!-- Title: VisualMediaN::UtilityN::VideoInputDeviceC::GetFrame Pages: 1 -->
<svg width="365pt" height="39pt"
 viewBox="0.00 0.00 365.00 39.00" xmlns="http://www.w3.org/2000/svg" xmlns:xlink="http://www.w3.org/1999/xlink">
<g id="graph0" class="graph" transform="scale(1 1) rotate(0) translate(4 35)">
<title>VisualMediaN::UtilityN::VideoInputDeviceC::GetFrame</title>
<polygon fill="white" stroke="none" points="-4,4 -4,-35 361,-35 361,4 -4,4"/>
<!-- Node6 -->
<g id="node1" class="node"><title>Node6</title>
<polygon fill="#bfbfbf" stroke="black" points="0,-0.5 0,-30.5 152,-30.5 152,-0.5 0,-0.5"/>
<text text-anchor="start" x="8" y="-18.5" font-family="FreeSans" font-size="10.00">VisualMediaN::UtilityN</text>
<text text-anchor="middle" x="76" y="-7.5" font-family="FreeSans" font-size="10.00">::VideoInputDeviceC::GetFrame</text>
</g>
<!-- Node7 -->
<g id="node2" class="node"><title>Node7</title>
<g id="a_node2"><a xlink:href="classVisualMediaN_1_1UtilityN_1_1DecklinkWrapperC.html#ad456114d07322840c6c6e71bcc4efd8b" target="_top" xlink:title="Returns the last frame captured by the frame grabber. ">
<polygon fill="white" stroke="black" points="188,-0.5 188,-30.5 357,-30.5 357,-0.5 188,-0.5"/>
<text text-anchor="start" x="196" y="-18.5" font-family="FreeSans" font-size="10.00">VisualMediaN::UtilityN</text>
<text text-anchor="middle" x="272.5" y="-7.5" font-family="FreeSans" font-size="10.00">::DecklinkWrapperC::GetLastFrame</text>
</a>
</g>
</g>
<!-- Node6&#45;&gt;Node7 -->
<g id="edge1" class="edge"><title>Node6&#45;&gt;Node7</title>
<path fill="none" stroke="midnightblue" d="M152.199,-15.5C160.574,-15.5 169.179,-15.5 177.748,-15.5"/>
<polygon fill="midnightblue" stroke="midnightblue" points="177.774,-19.0001 187.774,-15.5 177.774,-12.0001 177.774,-19.0001"/>
</g>
</g>
</svg>
