<?xml version="1.0" encoding="UTF-8" standalone="no"?>
<!DOCTYPE svg PUBLIC "-//W3C//DTD SVG 1.1//EN"
 "http://www.w3.org/Graphics/SVG/1.1/DTD/svg11.dtd">
<!-- Generated by graphviz version 2.38.0 (20140413.2041)
 -->
<!-- Title: VisualMediaN::AppNodalCameraTrackerN::AppNodalCameraTrackerImplementationC::ExtractORB Pages: 1 -->
<svg width="368pt" height="88pt"
 viewBox="0.00 0.00 368.00 88.00" xmlns="http://www.w3.org/2000/svg" xmlns:xlink="http://www.w3.org/1999/xlink">
<g id="graph0" class="graph" transform="scale(1 1) rotate(0) translate(4 84)">
<title>VisualMediaN::AppNodalCameraTrackerN::AppNodalCameraTrackerImplementationC::ExtractORB</title>
<polygon fill="white" stroke="none" points="-4,4 -4,-84 364,-84 364,4 -4,4"/>
<!-- Node6 -->
<g id="node1" class="node"><title>Node6</title>
<polygon fill="#bfbfbf" stroke="black" points="0,-19 0,-60 171,-60 171,-19 0,-19"/>
<text text-anchor="start" x="8" y="-48" font-family="FreeSans" font-size="10.00">VisualMediaN::AppNodalCamera</text>
<text text-anchor="start" x="8" y="-37" font-family="FreeSans" font-size="10.00">TrackerN::AppNodalCameraTracker</text>
<text text-anchor="middle" x="85.5" y="-26" font-family="FreeSans" font-size="10.00">ImplementationC::ExtractORB</text>
</g>
<!-- Node7 -->
<g id="node2" class="node"><title>Node7</title>
<g id="a_node2"><a xlink:href="namespaceVisualMediaN_1_1UtilityN.html#a4b0d45c861a0a09cb18b10b1a7d89d75" target="_top" xlink:title="Converts a set of keypoints and descriptors into SeeSaw descriptors. ">
<polygon fill="white" stroke="black" points="207,-49.5 207,-79.5 360,-79.5 360,-49.5 207,-49.5"/>
<text text-anchor="start" x="215" y="-67.5" font-family="FreeSans" font-size="10.00">VisualMediaN::UtilityN</text>
<text text-anchor="middle" x="283.5" y="-56.5" font-family="FreeSans" font-size="10.00">::ConvertToBinaryImageFeature</text>
</a>
</g>
</g>
<!-- Node6&#45;&gt;Node7 -->
<g id="edge1" class="edge"><title>Node6&#45;&gt;Node7</title>
<path fill="none" stroke="midnightblue" d="M171.044,-50.2836C179.608,-51.376 188.311,-52.4861 196.886,-53.5799"/>
<polygon fill="midnightblue" stroke="midnightblue" points="196.515,-57.0608 206.877,-54.8543 197.401,-50.117 196.515,-57.0608"/>
</g>
<!-- Node8 -->
<g id="node3" class="node"><title>Node8</title>
<g id="a_node3"><a xlink:href="namespaceVisualMediaN_1_1UtilityN.html#a6fb239d5eef983fb29f3819c02bcad79" target="_top" xlink:title="Performs subpixel refinement on corner features. ">
<polygon fill="white" stroke="black" points="213,-0.5 213,-30.5 354,-30.5 354,-0.5 213,-0.5"/>
<text text-anchor="start" x="221" y="-18.5" font-family="FreeSans" font-size="10.00">VisualMediaN::UtilityN</text>
<text text-anchor="middle" x="283.5" y="-7.5" font-family="FreeSans" font-size="10.00">::PerformSubpixelRefinement</text>
</a>
</g>
</g>
<!-- Node6&#45;&gt;Node8 -->
<g id="edge2" class="edge"><title>Node6&#45;&gt;Node8</title>
<path fill="none" stroke="midnightblue" d="M171.044,-29.1477C181.643,-27.8498 192.457,-26.5257 202.976,-25.2376"/>
<polygon fill="midnightblue" stroke="midnightblue" points="203.454,-28.7054 212.954,-24.0158 202.603,-21.7573 203.454,-28.7054"/>
</g>
</g>
</svg>
