<?xml version="1.0" encoding="UTF-8" standalone="no"?>
<!DOCTYPE svg PUBLIC "-//W3C//DTD SVG 1.1//EN"
 "http://www.w3.org/Graphics/SVG/1.1/DTD/svg11.dtd">
<!-- Generated by graphviz version 2.38.0 (20140413.2041)
 -->
<!-- Title: VisualMediaN::AppPanoramaBuilderN::AppPanoramaBuilderImplementationC::SetParameters Pages: 1 -->
<svg width="426pt" height="170pt"
 viewBox="0.00 0.00 426.00 170.00" xmlns="http://www.w3.org/2000/svg" xmlns:xlink="http://www.w3.org/1999/xlink">
<g id="graph0" class="graph" transform="scale(1 1) rotate(0) translate(4 166)">
<title>VisualMediaN::AppPanoramaBuilderN::AppPanoramaBuilderImplementationC::SetParameters</title>
<polygon fill="white" stroke="none" points="-4,4 -4,-166 422,-166 422,4 -4,4"/>
<!-- Node34 -->
<g id="node1" class="node"><title>Node34</title>
<polygon fill="#bfbfbf" stroke="black" points="0,-60.5 0,-101.5 217,-101.5 217,-60.5 0,-60.5"/>
<text text-anchor="start" x="8" y="-89.5" font-family="FreeSans" font-size="10.00">VisualMediaN::AppPanorama</text>
<text text-anchor="start" x="8" y="-78.5" font-family="FreeSans" font-size="10.00">BuilderN::AppPanoramaBuilderImplementation</text>
<text text-anchor="middle" x="108.5" y="-67.5" font-family="FreeSans" font-size="10.00">C::SetParameters</text>
</g>
<!-- Node35 -->
<g id="node2" class="node"><title>Node35</title>
<g id="a_node2"><a xlink:href="classVisualMediaN_1_1UtilityN_1_1VideoAppConfigInterfaceC.html#a2dc932f9e0394b21e2b821ab899c086e" target="_top" xlink:title="Makes a parameter object from a property tree. ">
<polygon fill="white" stroke="black" points="268,-120.5 268,-161.5 403,-161.5 403,-120.5 268,-120.5"/>
<text text-anchor="start" x="276" y="-149.5" font-family="FreeSans" font-size="10.00">VisualMediaN::UtilityN</text>
<text text-anchor="start" x="276" y="-138.5" font-family="FreeSans" font-size="10.00">::VideoAppConfigInterfaceC</text>
<text text-anchor="middle" x="335.5" y="-127.5" font-family="FreeSans" font-size="10.00">::MakeParameterObject</text>
</a>
</g>
</g>
<!-- Node34&#45;&gt;Node35 -->
<g id="edge1" class="edge"><title>Node34&#45;&gt;Node35</title>
<path fill="none" stroke="midnightblue" d="M186.617,-101.565C209.77,-107.739 235.149,-114.506 258.246,-120.665"/>
<polygon fill="midnightblue" stroke="midnightblue" points="257.427,-124.069 267.991,-123.264 259.231,-117.306 257.427,-124.069"/>
</g>
<!-- Node36 -->
<g id="node3" class="node"><title>Node36</title>
<g id="a_node3"><a xlink:href="classVisualMediaN_1_1UtilityN_1_1InterfaceORBC.html#a129faaca1b42dfa24dc32b079199194e" target="_top" xlink:title="Makes a parameter object from a property tree. ">
<polygon fill="white" stroke="black" points="255,-60.5 255,-101.5 416,-101.5 416,-60.5 255,-60.5"/>
<text text-anchor="start" x="263" y="-89.5" font-family="FreeSans" font-size="10.00">VisualMediaN::UtilityN</text>
<text text-anchor="start" x="263" y="-78.5" font-family="FreeSans" font-size="10.00">::InterfaceORBC::MakeParameter</text>
<text text-anchor="middle" x="335.5" y="-67.5" font-family="FreeSans" font-size="10.00">Object</text>
</a>
</g>
</g>
<!-- Node34&#45;&gt;Node36 -->
<g id="edge2" class="edge"><title>Node34&#45;&gt;Node36</title>
<path fill="none" stroke="midnightblue" d="M217.058,-81C226.334,-81 235.655,-81 244.768,-81"/>
<polygon fill="midnightblue" stroke="midnightblue" points="244.955,-84.5001 254.955,-81 244.955,-77.5001 244.955,-84.5001"/>
</g>
<!-- Node37 -->
<g id="node4" class="node"><title>Node37</title>
<g id="a_node4"><a xlink:href="classVisualMediaN_1_1UtilityN_1_1InterfaceKAZEC.html#a4483c5a38d9f98d7f1fe826697dbbbf0" target="_top" xlink:title="Makes a parameter object from a property tree. ">
<polygon fill="white" stroke="black" points="253,-0.5 253,-41.5 418,-41.5 418,-0.5 253,-0.5"/>
<text text-anchor="start" x="261" y="-29.5" font-family="FreeSans" font-size="10.00">VisualMediaN::UtilityN</text>
<text text-anchor="start" x="261" y="-18.5" font-family="FreeSans" font-size="10.00">::InterfaceKAZEC::MakeParameter</text>
<text text-anchor="middle" x="335.5" y="-7.5" font-family="FreeSans" font-size="10.00">Object</text>
</a>
</g>
</g>
<!-- Node34&#45;&gt;Node37 -->
<g id="edge3" class="edge"><title>Node34&#45;&gt;Node37</title>
<path fill="none" stroke="midnightblue" d="M186.617,-60.4353C206.296,-55.1878 227.582,-49.5115 247.708,-44.1444"/>
<polygon fill="midnightblue" stroke="midnightblue" points="248.723,-47.4963 257.483,-41.5378 246.919,-40.7327 248.723,-47.4963"/>
</g>
</g>
</svg>
