<?xml version="1.0" encoding="UTF-8" standalone="no"?>
<!DOCTYPE svg PUBLIC "-//W3C//DTD SVG 1.1//EN"
 "http://www.w3.org/Graphics/SVG/1.1/DTD/svg11.dtd">
<!-- Generated by graphviz version 2.38.0 (20140413.2041)
 -->
<!-- Title: BlackmagicFrameGrabberCallbackC::BlackmagicFrameGrabberCallbackC Pages: 1 -->
<svg width="469pt" height="39pt"
 viewBox="0.00 0.00 469.00 39.00" xmlns="http://www.w3.org/2000/svg" xmlns:xlink="http://www.w3.org/1999/xlink">
<g id="graph0" class="graph" transform="scale(1 1) rotate(0) translate(4 35)">
<title>BlackmagicFrameGrabberCallbackC::BlackmagicFrameGrabberCallbackC</title>
<polygon fill="white" stroke="none" points="-4,4 -4,-35 465,-35 465,4 -4,4"/>
<!-- Node1 -->
<g id="node1" class="node"><title>Node1</title>
<polygon fill="#bfbfbf" stroke="black" points="0,-0.5 0,-30.5 185,-30.5 185,-0.5 0,-0.5"/>
<text text-anchor="start" x="8" y="-18.5" font-family="FreeSans" font-size="10.00">BlackmagicFrameGrabberCallback</text>
<text text-anchor="middle" x="92.5" y="-7.5" font-family="FreeSans" font-size="10.00">C::BlackmagicFrameGrabberCallbackC</text>
</g>
<!-- Node2 -->
<g id="node2" class="node"><title>Node2</title>
<g id="a_node2"><a xlink:href="classBlackmagicFrameGrabberWrapperC.html#a46d56fbc8571d5c7cdcfa4d6c44c6d16" target="_top" xlink:title="BlackmagicFrameGrabberWrapper\lC::Initialise">
<polygon fill="white" stroke="black" points="221,-0.5 221,-30.5 387,-30.5 387,-0.5 221,-0.5"/>
<text text-anchor="start" x="229" y="-18.5" font-family="FreeSans" font-size="10.00">BlackmagicFrameGrabberWrapper</text>
<text text-anchor="middle" x="304" y="-7.5" font-family="FreeSans" font-size="10.00">C::Initialise</text>
</a>
</g>
</g>
<!-- Node1&#45;&gt;Node2 -->
<g id="edge1" class="edge"><title>Node1&#45;&gt;Node2</title>
<path fill="none" stroke="midnightblue" d="M195.159,-15.5C203.763,-15.5 212.395,-15.5 220.822,-15.5"/>
<polygon fill="midnightblue" stroke="midnightblue" points="195.085,-12.0001 185.085,-15.5 195.085,-19.0001 195.085,-12.0001"/>
</g>
<!-- Node3 -->
<g id="node3" class="node"><title>Node3</title>
<g id="a_node3"><a xlink:href="FramegrabberTest_8cpp.html#a0ddf1224851353fc92bfbff6f499fa97" target="_top" xlink:title="main">
<polygon fill="white" stroke="black" points="423,-6 423,-25 461,-25 461,-6 423,-6"/>
<text text-anchor="middle" x="442" y="-13" font-family="FreeSans" font-size="10.00">main</text>
</a>
</g>
</g>
<!-- Node2&#45;&gt;Node3 -->
<g id="edge2" class="edge"><title>Node2&#45;&gt;Node3</title>
<path fill="none" stroke="midnightblue" d="M397.44,-15.5C406.998,-15.5 415.812,-15.5 422.975,-15.5"/>
<polygon fill="midnightblue" stroke="midnightblue" points="397.249,-12.0001 387.249,-15.5 397.249,-19.0001 397.249,-12.0001"/>
</g>
</g>
</svg>
