<?xml version="1.0" encoding="UTF-8" standalone="no"?>
<!DOCTYPE svg PUBLIC "-//W3C//DTD SVG 1.1//EN"
 "http://www.w3.org/Graphics/SVG/1.1/DTD/svg11.dtd">
<!-- Generated by graphviz version 2.38.0 (20140413.2041)
 -->
<!-- Title: VisualMediaN::AppNodalCameraTrackerN::AppNodalCameraTrackerImplementationC::SetParameters Pages: 1 -->
<svg width="376pt" height="110pt"
 viewBox="0.00 0.00 376.00 110.00" xmlns="http://www.w3.org/2000/svg" xmlns:xlink="http://www.w3.org/1999/xlink">
<g id="graph0" class="graph" transform="scale(1 1) rotate(0) translate(4 106)">
<title>VisualMediaN::AppNodalCameraTrackerN::AppNodalCameraTrackerImplementationC::SetParameters</title>
<polygon fill="white" stroke="none" points="-4,4 -4,-106 372,-106 372,4 -4,4"/>
<!-- Node44 -->
<g id="node1" class="node"><title>Node44</title>
<polygon fill="#bfbfbf" stroke="black" points="0,-30.5 0,-71.5 171,-71.5 171,-30.5 0,-30.5"/>
<text text-anchor="start" x="8" y="-59.5" font-family="FreeSans" font-size="10.00">VisualMediaN::AppNodalCamera</text>
<text text-anchor="start" x="8" y="-48.5" font-family="FreeSans" font-size="10.00">TrackerN::AppNodalCameraTracker</text>
<text text-anchor="middle" x="85.5" y="-37.5" font-family="FreeSans" font-size="10.00">ImplementationC::SetParameters</text>
</g>
<!-- Node45 -->
<g id="node2" class="node"><title>Node45</title>
<g id="a_node2"><a xlink:href="classVisualMediaN_1_1UtilityN_1_1VideoAppConfigInterfaceC.html#a2dc932f9e0394b21e2b821ab899c086e" target="_top" xlink:title="Makes a parameter object from a property tree. ">
<polygon fill="white" stroke="black" points="220,-60.5 220,-101.5 355,-101.5 355,-60.5 220,-60.5"/>
<text text-anchor="start" x="228" y="-89.5" font-family="FreeSans" font-size="10.00">VisualMediaN::UtilityN</text>
<text text-anchor="start" x="228" y="-78.5" font-family="FreeSans" font-size="10.00">::VideoAppConfigInterfaceC</text>
<text text-anchor="middle" x="287.5" y="-67.5" font-family="FreeSans" font-size="10.00">::MakeParameterObject</text>
</a>
</g>
</g>
<!-- Node44&#45;&gt;Node45 -->
<g id="edge1" class="edge"><title>Node44&#45;&gt;Node45</title>
<path fill="none" stroke="midnightblue" d="M171.028,-63.6792C183.899,-65.6098 197.12,-67.593 209.811,-69.4966"/>
<polygon fill="midnightblue" stroke="midnightblue" points="209.449,-72.9815 219.858,-71.0037 210.488,-66.0589 209.449,-72.9815"/>
</g>
<!-- Node46 -->
<g id="node3" class="node"><title>Node46</title>
<g id="a_node3"><a xlink:href="classVisualMediaN_1_1UtilityN_1_1InterfaceORBC.html#a129faaca1b42dfa24dc32b079199194e" target="_top" xlink:title="Makes a parameter object from a property tree. ">
<polygon fill="white" stroke="black" points="207,-0.5 207,-41.5 368,-41.5 368,-0.5 207,-0.5"/>
<text text-anchor="start" x="215" y="-29.5" font-family="FreeSans" font-size="10.00">VisualMediaN::UtilityN</text>
<text text-anchor="start" x="215" y="-18.5" font-family="FreeSans" font-size="10.00">::InterfaceORBC::MakeParameter</text>
<text text-anchor="middle" x="287.5" y="-7.5" font-family="FreeSans" font-size="10.00">Object</text>
</a>
</g>
</g>
<!-- Node44&#45;&gt;Node46 -->
<g id="edge2" class="edge"><title>Node44&#45;&gt;Node46</title>
<path fill="none" stroke="midnightblue" d="M171.028,-38.3208C179.534,-37.045 188.192,-35.7462 196.75,-34.4626"/>
<polygon fill="midnightblue" stroke="midnightblue" points="197.363,-37.9097 206.733,-32.965 196.325,-30.9872 197.363,-37.9097"/>
</g>
</g>
</svg>
