<?xml version="1.0" encoding="UTF-8" standalone="no"?>
<!DOCTYPE svg PUBLIC "-//W3C//DTD SVG 1.1//EN"
 "http://www.w3.org/Graphics/SVG/1.1/DTD/svg11.dtd">
<!-- Generated by graphviz version 2.38.0 (20140413.2041)
 -->
<!-- Title: VisualMediaN::App3DSceneModelBuilderN::App3dSceneModelBuilderImplementationC::SetParameters Pages: 1 -->
<svg width="399pt" height="170pt"
 viewBox="0.00 0.00 399.00 170.00" xmlns="http://www.w3.org/2000/svg" xmlns:xlink="http://www.w3.org/1999/xlink">
<g id="graph0" class="graph" transform="scale(1 1) rotate(0) translate(4 166)">
<title>VisualMediaN::App3DSceneModelBuilderN::App3dSceneModelBuilderImplementationC::SetParameters</title>
<polygon fill="white" stroke="none" points="-4,4 -4,-166 395,-166 395,4 -4,4"/>
<!-- Node30 -->
<g id="node1" class="node"><title>Node30</title>
<polygon fill="#bfbfbf" stroke="black" points="0,-60.5 0,-101.5 190,-101.5 190,-60.5 0,-60.5"/>
<text text-anchor="start" x="8" y="-89.5" font-family="FreeSans" font-size="10.00">VisualMediaN::App3DScene</text>
<text text-anchor="start" x="8" y="-78.5" font-family="FreeSans" font-size="10.00">ModelBuilderN::App3dSceneModel</text>
<text text-anchor="middle" x="95" y="-67.5" font-family="FreeSans" font-size="10.00">BuilderImplementationC::SetParameters</text>
</g>
<!-- Node31 -->
<g id="node2" class="node"><title>Node31</title>
<g id="a_node2"><a xlink:href="classVisualMediaN_1_1UtilityN_1_1VideoAppConfigInterfaceC.html#a2dc932f9e0394b21e2b821ab899c086e" target="_top" xlink:title="Makes a parameter object from a property tree. ">
<polygon fill="white" stroke="black" points="241,-120.5 241,-161.5 376,-161.5 376,-120.5 241,-120.5"/>
<text text-anchor="start" x="249" y="-149.5" font-family="FreeSans" font-size="10.00">VisualMediaN::UtilityN</text>
<text text-anchor="start" x="249" y="-138.5" font-family="FreeSans" font-size="10.00">::VideoAppConfigInterfaceC</text>
<text text-anchor="middle" x="308.5" y="-127.5" font-family="FreeSans" font-size="10.00">::MakeParameterObject</text>
</a>
</g>
</g>
<!-- Node30&#45;&gt;Node31 -->
<g id="edge1" class="edge"><title>Node30&#45;&gt;Node31</title>
<path fill="none" stroke="midnightblue" d="M168.49,-101.565C188.632,-107.279 210.566,-113.501 230.933,-119.279"/>
<polygon fill="midnightblue" stroke="midnightblue" points="230.215,-122.713 240.791,-122.075 232.126,-115.979 230.215,-122.713"/>
</g>
<!-- Node32 -->
<g id="node3" class="node"><title>Node32</title>
<g id="a_node3"><a xlink:href="classVisualMediaN_1_1UtilityN_1_1InterfaceORBC.html#a129faaca1b42dfa24dc32b079199194e" target="_top" xlink:title="Makes a parameter object from a property tree. ">
<polygon fill="white" stroke="black" points="228,-60.5 228,-101.5 389,-101.5 389,-60.5 228,-60.5"/>
<text text-anchor="start" x="236" y="-89.5" font-family="FreeSans" font-size="10.00">VisualMediaN::UtilityN</text>
<text text-anchor="start" x="236" y="-78.5" font-family="FreeSans" font-size="10.00">::InterfaceORBC::MakeParameter</text>
<text text-anchor="middle" x="308.5" y="-67.5" font-family="FreeSans" font-size="10.00">Object</text>
</a>
</g>
</g>
<!-- Node30&#45;&gt;Node32 -->
<g id="edge2" class="edge"><title>Node30&#45;&gt;Node32</title>
<path fill="none" stroke="midnightblue" d="M190.307,-81C199.431,-81 208.67,-81 217.748,-81"/>
<polygon fill="midnightblue" stroke="midnightblue" points="217.914,-84.5001 227.914,-81 217.914,-77.5001 217.914,-84.5001"/>
</g>
<!-- Node33 -->
<g id="node4" class="node"><title>Node33</title>
<g id="a_node4"><a xlink:href="classVisualMediaN_1_1UtilityN_1_1InterfaceKAZEC.html#a4483c5a38d9f98d7f1fe826697dbbbf0" target="_top" xlink:title="Makes a parameter object from a property tree. ">
<polygon fill="white" stroke="black" points="226,-0.5 226,-41.5 391,-41.5 391,-0.5 226,-0.5"/>
<text text-anchor="start" x="234" y="-29.5" font-family="FreeSans" font-size="10.00">VisualMediaN::UtilityN</text>
<text text-anchor="start" x="234" y="-18.5" font-family="FreeSans" font-size="10.00">::InterfaceKAZEC::MakeParameter</text>
<text text-anchor="middle" x="308.5" y="-7.5" font-family="FreeSans" font-size="10.00">Object</text>
</a>
</g>
</g>
<!-- Node30&#45;&gt;Node33 -->
<g id="edge3" class="edge"><title>Node30&#45;&gt;Node33</title>
<path fill="none" stroke="midnightblue" d="M168.49,-60.4353C186.82,-55.2355 206.633,-49.6147 225.4,-44.2909"/>
<polygon fill="midnightblue" stroke="midnightblue" points="226.439,-47.6342 235.104,-41.5378 224.529,-40.8999 226.439,-47.6342"/>
</g>
</g>
</svg>
