<?xml version="1.0" encoding="UTF-8" standalone="no"?>
<!DOCTYPE svg PUBLIC "-//W3C//DTD SVG 1.1//EN"
 "http://www.w3.org/Graphics/SVG/1.1/DTD/svg11.dtd">
<!-- Generated by graphviz version 2.38.0 (20140413.2041)
 -->
<!-- Title: IDeckLinkInputCallback Pages: 1 -->
<svg width="128pt" height="66pt"
 viewBox="0.00 0.00 128.00 66.00" xmlns="http://www.w3.org/2000/svg" xmlns:xlink="http://www.w3.org/1999/xlink">
<g id="graph0" class="graph" transform="scale(1 1) rotate(0) translate(4 62)">
<title>IDeckLinkInputCallback</title>
<polygon fill="white" stroke="none" points="-4,4 -4,-62 124,-62 124,4 -4,4"/>
<!-- Node2 -->
<g id="node1" class="node"><title>Node2</title>
<polygon fill="#bfbfbf" stroke="black" points="-7.10543e-15,-0.5 -7.10543e-15,-57.5 120,-57.5 120,-0.5 -7.10543e-15,-0.5"/>
<text text-anchor="middle" x="60" y="-45.5" font-family="FreeSans" font-size="10.00">IDeckLinkInputCallback</text>
<polyline fill="none" stroke="black" points="-7.10543e-15,-38.5 120,-38.5 "/>
<text text-anchor="middle" x="60" y="-26.5" font-family="FreeSans" font-size="10.00"> </text>
<polyline fill="none" stroke="black" points="-7.10543e-15,-19.5 120,-19.5 "/>
<text text-anchor="middle" x="60" y="-7.5" font-family="FreeSans" font-size="10.00"> </text>
</g>
</g>
</svg>
