<?xml version="1.0" encoding="UTF-8" standalone="no"?>
<!DOCTYPE svg PUBLIC "-//W3C//DTD SVG 1.1//EN"
 "http://www.w3.org/Graphics/SVG/1.1/DTD/svg11.dtd">
<!-- Generated by graphviz version 2.38.0 (20140413.2041)
 -->
<!-- Title: VisualMediaN::AppPanoramaBuilderN::AppPanoramaBuilderImplementationC::ProcessKeyframes Pages: 1 -->
<svg width="402pt" height="50pt"
 viewBox="0.00 0.00 402.00 50.00" xmlns="http://www.w3.org/2000/svg" xmlns:xlink="http://www.w3.org/1999/xlink">
<g id="graph0" class="graph" transform="scale(1 1) rotate(0) translate(4 46)">
<title>VisualMediaN::AppPanoramaBuilderN::AppPanoramaBuilderImplementationC::ProcessKeyframes</title>
<polygon fill="white" stroke="none" points="-4,4 -4,-46 398,-46 398,4 -4,4"/>
<!-- Node19 -->
<g id="node1" class="node"><title>Node19</title>
<polygon fill="#bfbfbf" stroke="black" points="0,-0.5 0,-41.5 217,-41.5 217,-0.5 0,-0.5"/>
<text text-anchor="start" x="8" y="-29.5" font-family="FreeSans" font-size="10.00">VisualMediaN::AppPanorama</text>
<text text-anchor="start" x="8" y="-18.5" font-family="FreeSans" font-size="10.00">BuilderN::AppPanoramaBuilderImplementation</text>
<text text-anchor="middle" x="108.5" y="-7.5" font-family="FreeSans" font-size="10.00">C::ProcessKeyframes</text>
</g>
<!-- Node20 -->
<g id="node2" class="node"><title>Node20</title>
<g id="a_node2"><a xlink:href="namespaceVisualMediaN_1_1UtilityN.html#a6fb239d5eef983fb29f3819c02bcad79" target="_top" xlink:title="Performs subpixel refinement on corner features. ">
<polygon fill="white" stroke="black" points="253,-6 253,-36 394,-36 394,-6 253,-6"/>
<text text-anchor="start" x="261" y="-24" font-family="FreeSans" font-size="10.00">VisualMediaN::UtilityN</text>
<text text-anchor="middle" x="323.5" y="-13" font-family="FreeSans" font-size="10.00">::PerformSubpixelRefinement</text>
</a>
</g>
</g>
<!-- Node19&#45;&gt;Node20 -->
<g id="edge1" class="edge"><title>Node19&#45;&gt;Node20</title>
<path fill="none" stroke="midnightblue" d="M217.248,-21C225.831,-21 234.403,-21 242.741,-21"/>
<polygon fill="midnightblue" stroke="midnightblue" points="242.781,-24.5001 252.781,-21 242.781,-17.5001 242.781,-24.5001"/>
</g>
</g>
</svg>
