<?xml version="1.0" encoding="UTF-8" standalone="no"?>
<!DOCTYPE svg PUBLIC "-//W3C//DTD SVG 1.1//EN"
 "http://www.w3.org/Graphics/SVG/1.1/DTD/svg11.dtd">
<!-- Generated by graphviz version 2.38.0 (20140413.2041)
 -->
<!-- Title: VisualMediaN::UtilityN::VideoInputDeviceC::Initialise Pages: 1 -->
<svg width="363pt" height="247pt"
 viewBox="0.00 0.00 363.00 246.50" xmlns="http://www.w3.org/2000/svg" xmlns:xlink="http://www.w3.org/1999/xlink">
<g id="graph0" class="graph" transform="scale(1 1) rotate(0) translate(4 242.5)">
<title>VisualMediaN::UtilityN::VideoInputDeviceC::Initialise</title>
<polygon fill="white" stroke="none" points="-4,4 -4,-242.5 359,-242.5 359,4 -4,4"/>
<!-- Node19 -->
<g id="node1" class="node"><title>Node19</title>
<polygon fill="#bfbfbf" stroke="black" points="0,-98.5 0,-128.5 145,-128.5 145,-98.5 0,-98.5"/>
<text text-anchor="start" x="8" y="-116.5" font-family="FreeSans" font-size="10.00">VisualMediaN::UtilityN</text>
<text text-anchor="middle" x="72.5" y="-105.5" font-family="FreeSans" font-size="10.00">::VideoInputDeviceC::Initialise</text>
</g>
<!-- Node20 -->
<g id="node2" class="node"><title>Node20</title>
<g id="a_node2"><a xlink:href="classVisualMediaN_1_1UtilityN_1_1DecklinkWrapperC.html#ab0fd7688f15b17f1b766b88f3ac786dd" target="_top" xlink:title="Returns the frame height. ">
<polygon fill="white" stroke="black" points="193.5,-197 193.5,-238 342.5,-238 342.5,-197 193.5,-197"/>
<text text-anchor="start" x="201.5" y="-226" font-family="FreeSans" font-size="10.00">VisualMediaN::UtilityN</text>
<text text-anchor="start" x="201.5" y="-215" font-family="FreeSans" font-size="10.00">::DecklinkWrapperC::GetFrame</text>
<text text-anchor="middle" x="268" y="-204" font-family="FreeSans" font-size="10.00">Height</text>
</a>
</g>
</g>
<!-- Node19&#45;&gt;Node20 -->
<g id="edge1" class="edge"><title>Node19&#45;&gt;Node20</title>
<path fill="none" stroke="midnightblue" d="M92.3313,-128.791C113.061,-145.053 147.858,-170.696 181,-187.5 184.729,-189.391 188.604,-191.211 192.557,-192.954"/>
<polygon fill="midnightblue" stroke="midnightblue" points="191.312,-196.228 201.886,-196.883 194.028,-189.776 191.312,-196.228"/>
</g>
<!-- Node21 -->
<g id="node3" class="node"><title>Node21</title>
<g id="a_node3"><a xlink:href="classVisualMediaN_1_1UtilityN_1_1DecklinkWrapperC.html#ad002c472e2a9fbbbd7e5a13858531fbf" target="_top" xlink:title="Returns the frame rate. ">
<polygon fill="white" stroke="black" points="183,-147.5 183,-177.5 353,-177.5 353,-147.5 183,-147.5"/>
<text text-anchor="start" x="191" y="-165.5" font-family="FreeSans" font-size="10.00">VisualMediaN::UtilityN</text>
<text text-anchor="middle" x="268" y="-154.5" font-family="FreeSans" font-size="10.00">::DecklinkWrapperC::GetFrameRate</text>
</a>
</g>
</g>
<!-- Node19&#45;&gt;Node21 -->
<g id="edge2" class="edge"><title>Node19&#45;&gt;Node21</title>
<path fill="none" stroke="midnightblue" d="M132.871,-128.535C153.395,-133.732 176.571,-139.601 197.812,-144.98"/>
<polygon fill="midnightblue" stroke="midnightblue" points="197.188,-148.432 207.741,-147.494 198.906,-141.646 197.188,-148.432"/>
</g>
<!-- Node22 -->
<g id="node4" class="node"><title>Node22</title>
<g id="a_node4"><a xlink:href="classVisualMediaN_1_1UtilityN_1_1DecklinkWrapperC.html#a73cd6f04277b952f8476be31ebdae651" target="_top" xlink:title="Returns the frame width. ">
<polygon fill="white" stroke="black" points="181,-98.5 181,-128.5 355,-128.5 355,-98.5 181,-98.5"/>
<text text-anchor="start" x="189" y="-116.5" font-family="FreeSans" font-size="10.00">VisualMediaN::UtilityN</text>
<text text-anchor="middle" x="268" y="-105.5" font-family="FreeSans" font-size="10.00">::DecklinkWrapperC::GetFrameWidth</text>
</a>
</g>
</g>
<!-- Node19&#45;&gt;Node22 -->
<g id="edge3" class="edge"><title>Node19&#45;&gt;Node22</title>
<path fill="none" stroke="midnightblue" d="M145.002,-113.5C153.359,-113.5 161.987,-113.5 170.61,-113.5"/>
<polygon fill="midnightblue" stroke="midnightblue" points="170.715,-117 180.715,-113.5 170.715,-110 170.715,-117"/>
</g>
<!-- Node23 -->
<g id="node5" class="node"><title>Node23</title>
<g id="a_node5"><a xlink:href="classVisualMediaN_1_1UtilityN_1_1DecklinkWrapperC.html#a26fbde92cb6ea4ed90176cdab2b4fc59" target="_top" xlink:title="Initialisation. ">
<polygon fill="white" stroke="black" points="197,-49.5 197,-79.5 339,-79.5 339,-49.5 197,-49.5"/>
<text text-anchor="start" x="205" y="-67.5" font-family="FreeSans" font-size="10.00">VisualMediaN::UtilityN</text>
<text text-anchor="middle" x="268" y="-56.5" font-family="FreeSans" font-size="10.00">::DecklinkWrapperC::Initialise</text>
</a>
</g>
</g>
<!-- Node19&#45;&gt;Node23 -->
<g id="edge4" class="edge"><title>Node19&#45;&gt;Node23</title>
<path fill="none" stroke="midnightblue" d="M132.871,-98.4654C153.395,-93.2682 176.571,-87.3994 197.812,-82.0204"/>
<polygon fill="midnightblue" stroke="midnightblue" points="198.906,-85.354 207.741,-79.5062 197.188,-78.5682 198.906,-85.354"/>
</g>
<!-- Node24 -->
<g id="node6" class="node"><title>Node24</title>
<g id="a_node6"><a xlink:href="classVisualMediaN_1_1UtilityN_1_1DecklinkWrapperC.html#a89d2baf729627fd01e3823313b894161" target="_top" xlink:title="Starts the capture. ">
<polygon fill="white" stroke="black" points="187.5,-0.5 187.5,-30.5 348.5,-30.5 348.5,-0.5 187.5,-0.5"/>
<text text-anchor="start" x="195.5" y="-18.5" font-family="FreeSans" font-size="10.00">VisualMediaN::UtilityN</text>
<text text-anchor="middle" x="268" y="-7.5" font-family="FreeSans" font-size="10.00">::DecklinkWrapperC::StartCapture</text>
</a>
</g>
</g>
<!-- Node19&#45;&gt;Node24 -->
<g id="edge5" class="edge"><title>Node19&#45;&gt;Node24</title>
<path fill="none" stroke="midnightblue" d="M91.8254,-98.392C112.396,-82.0908 147.318,-56.3455 181,-40.5 185.924,-38.1834 191.11,-36.033 196.393,-34.0465"/>
<polygon fill="midnightblue" stroke="midnightblue" points="197.718,-37.2901 205.972,-30.6476 195.377,-30.693 197.718,-37.2901"/>
</g>
</g>
</svg>
