<?xml version="1.0" encoding="UTF-8" standalone="no"?>
<!DOCTYPE svg PUBLIC "-//W3C//DTD SVG 1.1//EN"
 "http://www.w3.org/Graphics/SVG/1.1/DTD/svg11.dtd">
<!-- Generated by graphviz version 2.38.0 (20140413.2041)
 -->
<!-- Title: src/RoamingCameraTracker Pages: 1 -->
<svg width="162pt" height="151pt"
 viewBox="0.00 0.00 162.00 151.00" xmlns="http://www.w3.org/2000/svg" xmlns:xlink="http://www.w3.org/1999/xlink">
<g id="graph0" class="graph" transform="scale(1 1) rotate(0) translate(4 147)">
<title>src/RoamingCameraTracker</title>
<polygon fill="white" stroke="none" points="-4,4 -4,-147 158,-147 158,4 -4,4"/>
<g id="clust1" class="cluster"><title>clusterdir_68267d1309a1af8e8297ef4c3efbcdba</title>
<g id="a_clust1"><a xlink:href="dir_68267d1309a1af8e8297ef4c3efbcdba.html" target="_top" xlink:title="src">
<polygon fill="#ddddee" stroke="black" points="8,-64 8,-135 146,-135 146,-64 8,-64"/>
<text text-anchor="middle" x="77" y="-123" font-family="FreeSans" font-size="10.00">src</text>
</a>
</g>
</g>
<!-- dir_75fee26187d4c5982a7522141a00d07a -->
<g id="node1" class="node"><title>dir_75fee26187d4c5982a7522141a00d07a</title>
<g id="a_node1"><a xlink:href="dir_75fee26187d4c5982a7522141a00d07a.html" target="_top" xlink:title="RoamingCameraTracker">
<polygon fill="#eeeeff" stroke="black" points="138,-108 16,-108 16,-72 138,-72 138,-108"/>
<text text-anchor="middle" x="77" y="-87.5" font-family="FreeSans" font-size="10.00">RoamingCameraTracker</text>
</a>
</g>
</g>
<!-- dir_9761b53e3d9349800c0cb59b71c8cd3d -->
<g id="node2" class="node"><title>dir_9761b53e3d9349800c0cb59b71c8cd3d</title>
<g id="a_node2"><a xlink:href="dir_9761b53e3d9349800c0cb59b71c8cd3d.html" target="_top" xlink:title="Utility">
<polygon fill="none" stroke="black" points="104,-36 50,-36 50,-0 104,-0 104,-36"/>
<text text-anchor="middle" x="77" y="-15.5" font-family="FreeSans" font-size="10.00">Utility</text>
</a>
</g>
</g>
<!-- dir_75fee26187d4c5982a7522141a00d07a&#45;&gt;dir_9761b53e3d9349800c0cb59b71c8cd3d -->
<g id="edge1" class="edge"><title>dir_75fee26187d4c5982a7522141a00d07a&#45;&gt;dir_9761b53e3d9349800c0cb59b71c8cd3d</title>
<path fill="none" stroke="black" d="M77,-71.6966C77,-63.9827 77,-54.7125 77,-46.1124"/>
<polygon fill="black" stroke="black" points="80.5001,-46.1043 77,-36.1043 73.5001,-46.1044 80.5001,-46.1043"/>
<g id="a_edge1&#45;headlabel"><a xlink:href="dir_000005_000007.html" target="_top" xlink:title="5">
<text text-anchor="middle" x="83.3393" y="-47.199" font-family="FreeSans" font-size="10.00">5</text>
</a>
</g>
</g>
</g>
</svg>
