<?xml version="1.0" encoding="UTF-8" standalone="no"?>
<!DOCTYPE svg PUBLIC "-//W3C//DTD SVG 1.1//EN"
 "http://www.w3.org/Graphics/SVG/1.1/DTD/svg11.dtd">
<!-- Generated by graphviz version 2.38.0 (20140413.2041)
 -->
<!-- Title: src Pages: 1 -->
<svg width="778pt" height="148pt"
 viewBox="0.00 0.00 778.00 148.00" xmlns="http://www.w3.org/2000/svg" xmlns:xlink="http://www.w3.org/1999/xlink">
<g id="graph0" class="graph" transform="scale(1 1) rotate(0) translate(4 144)">
<title>src</title>
<polygon fill="white" stroke="none" points="-4,4 -4,-144 774,-144 774,4 -4,4"/>
<g id="clust1" class="cluster"><title>clusterdir_68267d1309a1af8e8297ef4c3efbcdba</title>
<g id="a_clust1"><a xlink:href="dir_68267d1309a1af8e8297ef4c3efbcdba.html" target="_top">
<polygon fill="#eeeeff" stroke="black" points="8,-8 8,-132 762,-132 762,-8 8,-8"/>
</a>
</g>
</g>
<!-- dir_68267d1309a1af8e8297ef4c3efbcdba -->
<g id="node1" class="node"><title>dir_68267d1309a1af8e8297ef4c3efbcdba</title>
<text text-anchor="middle" x="727" y="-103.5" font-family="FreeSans" font-size="10.00">src</text>
</g>
<!-- dir_c79510cd2e921511c46d6dbb6ed90977 -->
<g id="node2" class="node"><title>dir_c79510cd2e921511c46d6dbb6ed90977</title>
<g id="a_node2"><a xlink:href="dir_c79510cd2e921511c46d6dbb6ed90977.html" target="_top" xlink:title="3dSceneModelBuilder">
<polygon fill="white" stroke="black" points="681.5,-124 570.5,-124 570.5,-88 681.5,-88 681.5,-124"/>
<text text-anchor="middle" x="626" y="-103.5" font-family="FreeSans" font-size="10.00">3dSceneModelBuilder</text>
</a>
</g>
</g>
<!-- dir_9761b53e3d9349800c0cb59b71c8cd3d -->
<g id="node8" class="node"><title>dir_9761b53e3d9349800c0cb59b71c8cd3d</title>
<g id="a_node8"><a xlink:href="dir_9761b53e3d9349800c0cb59b71c8cd3d.html" target="_top" xlink:title="Utility">
<polygon fill="white" stroke="black" points="360,-52 306,-52 306,-16 360,-16 360,-52"/>
<text text-anchor="middle" x="333" y="-31.5" font-family="FreeSans" font-size="10.00">Utility</text>
</a>
</g>
</g>
<!-- dir_c79510cd2e921511c46d6dbb6ed90977&#45;&gt;dir_9761b53e3d9349800c0cb59b71c8cd3d -->
<g id="edge2" class="edge"><title>dir_c79510cd2e921511c46d6dbb6ed90977&#45;&gt;dir_9761b53e3d9349800c0cb59b71c8cd3d</title>
<path fill="none" stroke="black" d="M570.18,-90.0595C567.416,-89.3553 564.678,-88.6653 562,-88 494.579,-71.2483 415.559,-53.3385 370.181,-43.2189"/>
<polygon fill="black" stroke="black" points="370.733,-39.756 360.211,-41.0001 369.212,-46.5889 370.733,-39.756"/>
<g id="a_edge2&#45;headlabel"><a xlink:href="dir_000001_000007.html" target="_top" xlink:title="3">
<text text-anchor="middle" x="374.858" y="-35.2653" font-family="FreeSans" font-size="10.00">3</text>
</a>
</g>
</g>
<!-- dir_f952cc8685dc294f0800defa7cb24307 -->
<g id="node3" class="node"><title>dir_f952cc8685dc294f0800defa7cb24307</title>
<g id="a_node3"><a xlink:href="dir_f952cc8685dc294f0800defa7cb24307.html" target="_top" xlink:title="FeatureExtractor">
<polygon fill="white" stroke="black" points="553,-124 465,-124 465,-88 553,-88 553,-124"/>
<text text-anchor="middle" x="509" y="-103.5" font-family="FreeSans" font-size="10.00">FeatureExtractor</text>
</a>
</g>
</g>
<!-- dir_d8955e98211090c59ba4fdc394cbb585 -->
<g id="node4" class="node"><title>dir_d8955e98211090c59ba4fdc394cbb585</title>
<g id="a_node4"><a xlink:href="dir_d8955e98211090c59ba4fdc394cbb585.html" target="_top" xlink:title="NodalCameraTracker">
<polygon fill="white" stroke="black" points="446.5,-124 337.5,-124 337.5,-88 446.5,-88 446.5,-124"/>
<text text-anchor="middle" x="392" y="-103.5" font-family="FreeSans" font-size="10.00">NodalCameraTracker</text>
</a>
</g>
</g>
<!-- dir_d8955e98211090c59ba4fdc394cbb585&#45;&gt;dir_9761b53e3d9349800c0cb59b71c8cd3d -->
<g id="edge3" class="edge"><title>dir_d8955e98211090c59ba4fdc394cbb585&#45;&gt;dir_9761b53e3d9349800c0cb59b71c8cd3d</title>
<path fill="none" stroke="black" d="M377.416,-87.6966C370.342,-79.3046 361.717,-69.0705 353.955,-59.8613"/>
<polygon fill="black" stroke="black" points="356.537,-57.495 347.417,-52.1043 351.185,-62.0063 356.537,-57.495"/>
<g id="a_edge3&#45;headlabel"><a xlink:href="dir_000003_000007.html" target="_top" xlink:title="5">
<text text-anchor="middle" x="361.025" y="-55.9137" font-family="FreeSans" font-size="10.00">5</text>
</a>
</g>
</g>
<!-- dir_d5a34bbe0779e6428e10d74cb0ebe3f3 -->
<g id="node5" class="node"><title>dir_d5a34bbe0779e6428e10d74cb0ebe3f3</title>
<g id="a_node5"><a xlink:href="dir_d5a34bbe0779e6428e10d74cb0ebe3f3.html" target="_top" xlink:title="PanoramaBuilder">
<polygon fill="white" stroke="black" points="319.5,-124 228.5,-124 228.5,-88 319.5,-88 319.5,-124"/>
<text text-anchor="middle" x="274" y="-103.5" font-family="FreeSans" font-size="10.00">PanoramaBuilder</text>
</a>
</g>
</g>
<!-- dir_d5a34bbe0779e6428e10d74cb0ebe3f3&#45;&gt;dir_9761b53e3d9349800c0cb59b71c8cd3d -->
<g id="edge1" class="edge"><title>dir_d5a34bbe0779e6428e10d74cb0ebe3f3&#45;&gt;dir_9761b53e3d9349800c0cb59b71c8cd3d</title>
<path fill="none" stroke="black" d="M288.584,-87.6966C295.658,-79.3046 304.283,-69.0705 312.045,-59.8613"/>
<polygon fill="black" stroke="black" points="314.815,-62.0063 318.583,-52.1043 309.463,-57.495 314.815,-62.0063"/>
<g id="a_edge1&#45;headlabel"><a xlink:href="dir_000004_000007.html" target="_top" xlink:title="3">
<text text-anchor="middle" x="314.669" y="-64.0846" font-family="FreeSans" font-size="10.00">3</text>
</a>
</g>
</g>
<!-- dir_75fee26187d4c5982a7522141a00d07a -->
<g id="node6" class="node"><title>dir_75fee26187d4c5982a7522141a00d07a</title>
<g id="a_node6"><a xlink:href="dir_75fee26187d4c5982a7522141a00d07a.html" target="_top" xlink:title="RoamingCameraTracker">
<polygon fill="white" stroke="black" points="210,-124 88,-124 88,-88 210,-88 210,-124"/>
<text text-anchor="middle" x="149" y="-103.5" font-family="FreeSans" font-size="10.00">RoamingCameraTracker</text>
</a>
</g>
</g>
<!-- dir_75fee26187d4c5982a7522141a00d07a&#45;&gt;dir_9761b53e3d9349800c0cb59b71c8cd3d -->
<g id="edge4" class="edge"><title>dir_75fee26187d4c5982a7522141a00d07a&#45;&gt;dir_9761b53e3d9349800c0cb59b71c8cd3d</title>
<path fill="none" stroke="black" d="M194.011,-87.8761C225.46,-75.9121 266.921,-60.1389 296.352,-48.9421"/>
<polygon fill="black" stroke="black" points="297.738,-52.1596 305.84,-45.3326 295.249,-45.6171 297.738,-52.1596"/>
<g id="a_edge4&#45;headlabel"><a xlink:href="dir_000005_000007.html" target="_top" xlink:title="5">
<text text-anchor="middle" x="295.388" y="-53.5914" font-family="FreeSans" font-size="10.00">5</text>
</a>
</g>
</g>
<!-- dir_34af0959eb28c822354cf2f8de93f1a0 -->
<g id="node7" class="node"><title>dir_34af0959eb28c822354cf2f8de93f1a0</title>
<g id="a_node7"><a xlink:href="dir_34af0959eb28c822354cf2f8de93f1a0.html" target="_top" xlink:title="Sandbox">
<polygon fill="white" stroke="black" points="70,-124 16,-124 16,-88 70,-88 70,-124"/>
<text text-anchor="middle" x="43" y="-103.5" font-family="FreeSans" font-size="10.00">Sandbox</text>
</a>
</g>
</g>
</g>
</svg>
