<?xml version="1.0" encoding="UTF-8" standalone="no"?>
<!DOCTYPE svg PUBLIC "-//W3C//DTD SVG 1.1//EN"
 "http://www.w3.org/Graphics/SVG/1.1/DTD/svg11.dtd">
<!-- Generated by graphviz version 2.38.0 (20140413.2041)
 -->
<!-- Title: Graphical Class Hierarchy Pages: 1 -->
<svg width="175pt" height="50pt"
 viewBox="0.00 0.00 175.00 50.00" xmlns="http://www.w3.org/2000/svg" xmlns:xlink="http://www.w3.org/1999/xlink">
<g id="graph0" class="graph" transform="scale(1 1) rotate(0) translate(4 46)">
<title>Graphical Class Hierarchy</title>
<polygon fill="white" stroke="none" points="-4,4 -4,-46 171,-46 171,4 -4,4"/>
<!-- Node0 -->
<g id="node1" class="node"><title>Node0</title>
<g id="a_node1"><a xlink:href="structVisualMediaN_1_1App3DSceneModelBuilderN_1_1App3dSceneModelBuilderParametersC.html" target="_top" xlink:title="Parameters for sceneModelBuiler3d. ">
<polygon fill="white" stroke="black" points="-1.42109e-14,-0.5 -1.42109e-14,-41.5 167,-41.5 167,-0.5 -1.42109e-14,-0.5"/>
<text text-anchor="start" x="8" y="-29.5" font-family="FreeSans" font-size="10.00">VisualMediaN::App3DScene</text>
<text text-anchor="start" x="8" y="-18.5" font-family="FreeSans" font-size="10.00">ModelBuilderN::App3dSceneModel</text>
<text text-anchor="middle" x="83.5" y="-7.5" font-family="FreeSans" font-size="10.00">BuilderParametersC</text>
</a>
</g>
</g>
</g>
</svg>
