<?xml version="1.0" encoding="UTF-8" standalone="no"?>
<!DOCTYPE svg PUBLIC "-//W3C//DTD SVG 1.1//EN"
 "http://www.w3.org/Graphics/SVG/1.1/DTD/svg11.dtd">
<!-- Generated by graphviz version 2.38.0 (20140413.2041)
 -->
<!-- Title: VisualMediaN::UtilityN::ConvertToImageFeature Pages: 1 -->
<svg width="387pt" height="110pt"
 viewBox="0.00 0.00 387.00 110.00" xmlns="http://www.w3.org/2000/svg" xmlns:xlink="http://www.w3.org/1999/xlink">
<g id="graph0" class="graph" transform="scale(1 1) rotate(0) translate(4 106)">
<title>VisualMediaN::UtilityN::ConvertToImageFeature</title>
<polygon fill="white" stroke="none" points="-4,4 -4,-106 383,-106 383,4 -4,4"/>
<!-- Node9 -->
<g id="node1" class="node"><title>Node9</title>
<polygon fill="#bfbfbf" stroke="black" points="0,-36 0,-66 126,-66 126,-36 0,-36"/>
<text text-anchor="start" x="8" y="-54" font-family="FreeSans" font-size="10.00">VisualMediaN::UtilityN</text>
<text text-anchor="middle" x="63" y="-43" font-family="FreeSans" font-size="10.00">::ConvertToImageFeature</text>
</g>
<!-- Node10 -->
<g id="node2" class="node"><title>Node10</title>
<g id="a_node2"><a xlink:href="classVisualMediaN_1_1App3DSceneModelBuilderN_1_1App3dSceneModelBuilderImplementationC.html#a5fe705b26784df9b2db2bfa4cc410870" target="_top" xlink:title="Runs the application. ">
<polygon fill="white" stroke="black" points="187,-60.5 187,-101.5 354,-101.5 354,-60.5 187,-60.5"/>
<text text-anchor="start" x="195" y="-89.5" font-family="FreeSans" font-size="10.00">VisualMediaN::App3DScene</text>
<text text-anchor="start" x="195" y="-78.5" font-family="FreeSans" font-size="10.00">ModelBuilderN::App3dSceneModel</text>
<text text-anchor="middle" x="270.5" y="-67.5" font-family="FreeSans" font-size="10.00">BuilderImplementationC::Run</text>
</a>
</g>
</g>
<!-- Node9&#45;&gt;Node10 -->
<g id="edge1" class="edge"><title>Node9&#45;&gt;Node10</title>
<path fill="none" stroke="midnightblue" d="M136.2,-61.5402C152.499,-63.9196 169.926,-66.4636 186.624,-68.9014"/>
<polygon fill="midnightblue" stroke="midnightblue" points="136.615,-58.0637 126.214,-60.0824 135.604,-64.9903 136.615,-58.0637"/>
</g>
<!-- Node11 -->
<g id="node3" class="node"><title>Node11</title>
<g id="a_node3"><a xlink:href="classVisualMediaN_1_1AppPanoramaBuilderN_1_1AppPanoramaBuilderImplementationC.html#a441f549e7c1752fffd0f7f62f45d85b8" target="_top" xlink:title="Runs the application. ">
<polygon fill="white" stroke="black" points="162,-0.5 162,-41.5 379,-41.5 379,-0.5 162,-0.5"/>
<text text-anchor="start" x="170" y="-29.5" font-family="FreeSans" font-size="10.00">VisualMediaN::AppPanorama</text>
<text text-anchor="start" x="170" y="-18.5" font-family="FreeSans" font-size="10.00">BuilderN::AppPanoramaBuilderImplementation</text>
<text text-anchor="middle" x="270.5" y="-7.5" font-family="FreeSans" font-size="10.00">C::Run</text>
</a>
</g>
</g>
<!-- Node9&#45;&gt;Node11 -->
<g id="edge2" class="edge"><title>Node9&#45;&gt;Node11</title>
<path fill="none" stroke="midnightblue" d="M136.229,-40.4556C144.573,-39.2375 153.212,-37.9763 161.898,-36.7084"/>
<polygon fill="midnightblue" stroke="midnightblue" points="135.604,-37.0097 126.214,-41.9176 136.615,-43.9363 135.604,-37.0097"/>
</g>
</g>
</svg>
