<?xml version="1.0" encoding="UTF-8" standalone="no"?>
<!DOCTYPE svg PUBLIC "-//W3C//DTD SVG 1.1//EN"
 "http://www.w3.org/Graphics/SVG/1.1/DTD/svg11.dtd">
<!-- Generated by graphviz version 2.38.0 (20140413.2041)
 -->
<!-- Title: src/Utility/OCVFeatures2d.ipp Pages: 1 -->
<svg width="815pt" height="151pt"
 viewBox="0.00 0.00 815.00 151.00" xmlns="http://www.w3.org/2000/svg" xmlns:xlink="http://www.w3.org/1999/xlink">
<g id="graph0" class="graph" transform="scale(1 1) rotate(0) translate(4 147)">
<title>src/Utility/OCVFeatures2d.ipp</title>
<polygon fill="white" stroke="none" points="-4,4 -4,-147 811,-147 811,4 -4,4"/>
<!-- Node12 -->
<g id="node1" class="node"><title>Node12</title>
<polygon fill="#bfbfbf" stroke="black" points="323.5,-123.5 323.5,-142.5 469.5,-142.5 469.5,-123.5 323.5,-123.5"/>
<text text-anchor="middle" x="396.5" y="-130.5" font-family="FreeSans" font-size="10.00">src/Utility/OCVFeatures2d.ipp</text>
</g>
<!-- Node13 -->
<g id="node2" class="node"><title>Node13</title>
<g id="a_node2"><a xlink:href="OCVFeatures2d_8h.html" target="_top" xlink:title="src/Utility/OCVFeatures2d.h">
<polygon fill="white" stroke="black" points="327.5,-67.5 327.5,-86.5 465.5,-86.5 465.5,-67.5 327.5,-67.5"/>
<text text-anchor="middle" x="396.5" y="-74.5" font-family="FreeSans" font-size="10.00">src/Utility/OCVFeatures2d.h</text>
</a>
</g>
</g>
<!-- Node12&#45;&gt;Node13 -->
<g id="edge1" class="edge"><title>Node12&#45;&gt;Node13</title>
<path fill="none" stroke="midnightblue" d="M396.5,-112.805C396.5,-103.91 396.5,-93.7798 396.5,-86.7511"/>
<polygon fill="midnightblue" stroke="midnightblue" points="393,-113.083 396.5,-123.083 400,-113.083 393,-113.083"/>
</g>
<!-- Node14 -->
<g id="node3" class="node"><title>Node14</title>
<g id="a_node3"><a xlink:href="App3dSceneModelBuilder_8cpp.html" target="_top" xlink:title="src/3dSceneModelBuilder\l/App3dSceneModelBuilder.cpp">
<polygon fill="white" stroke="black" points="0,-0.5 0,-30.5 149,-30.5 149,-0.5 0,-0.5"/>
<text text-anchor="start" x="8" y="-18.5" font-family="FreeSans" font-size="10.00">src/3dSceneModelBuilder</text>
<text text-anchor="middle" x="74.5" y="-7.5" font-family="FreeSans" font-size="10.00">/App3dSceneModelBuilder.cpp</text>
</a>
</g>
</g>
<!-- Node13&#45;&gt;Node14 -->
<g id="edge2" class="edge"><title>Node13&#45;&gt;Node14</title>
<path fill="none" stroke="midnightblue" d="M340.465,-65.6457C287.458,-55.8509 207.544,-41.0841 149.151,-30.2942"/>
<polygon fill="midnightblue" stroke="midnightblue" points="339.896,-69.0997 350.365,-67.4751 341.168,-62.2162 339.896,-69.0997"/>
</g>
<!-- Node15 -->
<g id="node4" class="node"><title>Node15</title>
<g id="a_node4"><a xlink:href="AppNodalCameraTracker_8cpp.html" target="_top" xlink:title="src/NodalCameraTracker\l/AppNodalCameraTracker.cpp">
<polygon fill="white" stroke="black" points="167,-0.5 167,-30.5 314,-30.5 314,-0.5 167,-0.5"/>
<text text-anchor="start" x="175" y="-18.5" font-family="FreeSans" font-size="10.00">src/NodalCameraTracker</text>
<text text-anchor="middle" x="240.5" y="-7.5" font-family="FreeSans" font-size="10.00">/AppNodalCameraTracker.cpp</text>
</a>
</g>
</g>
<!-- Node13&#45;&gt;Node15 -->
<g id="edge3" class="edge"><title>Node13&#45;&gt;Node15</title>
<path fill="none" stroke="midnightblue" d="M364.638,-63.8475C339.296,-54.1817 303.81,-40.6471 277.266,-30.523"/>
<polygon fill="midnightblue" stroke="midnightblue" points="363.558,-67.1816 374.149,-67.4751 366.053,-60.6411 363.558,-67.1816"/>
</g>
<!-- Node16 -->
<g id="node5" class="node"><title>Node16</title>
<g id="a_node5"><a xlink:href="AppPanoramaBuilder_8cpp.html" target="_top" xlink:title="src/PanoramaBuilder\l/AppPanoramaBuilder.cpp">
<polygon fill="white" stroke="black" points="332,-0.5 332,-30.5 461,-30.5 461,-0.5 332,-0.5"/>
<text text-anchor="start" x="340" y="-18.5" font-family="FreeSans" font-size="10.00">src/PanoramaBuilder</text>
<text text-anchor="middle" x="396.5" y="-7.5" font-family="FreeSans" font-size="10.00">/AppPanoramaBuilder.cpp</text>
</a>
</g>
</g>
<!-- Node13&#45;&gt;Node16 -->
<g id="edge4" class="edge"><title>Node13&#45;&gt;Node16</title>
<path fill="none" stroke="midnightblue" d="M396.5,-57.2349C396.5,-48.5864 396.5,-38.4969 396.5,-30.523"/>
<polygon fill="midnightblue" stroke="midnightblue" points="393,-57.4751 396.5,-67.4751 400,-57.4751 393,-57.4751"/>
</g>
<!-- Node17 -->
<g id="node6" class="node"><title>Node17</title>
<g id="a_node6"><a xlink:href="AppRoamingCameraTracker_8cpp.html" target="_top" xlink:title="src/RoamingCameraTracker\l/AppRoamingCameraTracker.cpp">
<polygon fill="white" stroke="black" points="479.5,-0.5 479.5,-30.5 639.5,-30.5 639.5,-0.5 479.5,-0.5"/>
<text text-anchor="start" x="487.5" y="-18.5" font-family="FreeSans" font-size="10.00">src/RoamingCameraTracker</text>
<text text-anchor="middle" x="559.5" y="-7.5" font-family="FreeSans" font-size="10.00">/AppRoamingCameraTracker.cpp</text>
</a>
</g>
</g>
<!-- Node13&#45;&gt;Node17 -->
<g id="edge5" class="edge"><title>Node13&#45;&gt;Node17</title>
<path fill="none" stroke="midnightblue" d="M429.441,-63.9755C455.943,-54.3016 493.226,-40.6919 521.084,-30.523"/>
<polygon fill="midnightblue" stroke="midnightblue" points="428.047,-60.7582 419.854,-67.4751 430.448,-67.3338 428.047,-60.7582"/>
</g>
<!-- Node18 -->
<g id="node7" class="node"><title>Node18</title>
<g id="a_node7"><a xlink:href="OCVFeatures2d_8cpp.html" target="_top" xlink:title="src/Utility/OCVFeatures2d.cpp">
<polygon fill="white" stroke="black" points="658,-6 658,-25 807,-25 807,-6 658,-6"/>
<text text-anchor="middle" x="732.5" y="-13" font-family="FreeSans" font-size="10.00">src/Utility/OCVFeatures2d.cpp</text>
</a>
</g>
</g>
<!-- Node13&#45;&gt;Node18 -->
<g id="edge6" class="edge"><title>Node13&#45;&gt;Node18</title>
<path fill="none" stroke="midnightblue" d="M454.732,-65.6881C519.775,-54.17 623.861,-35.7381 684.449,-25.0091"/>
<polygon fill="midnightblue" stroke="midnightblue" points="453.877,-62.2849 444.641,-67.4751 455.098,-69.1777 453.877,-62.2849"/>
</g>
</g>
</svg>
