<?xml version="1.0" encoding="UTF-8" standalone="no"?>
<!DOCTYPE svg PUBLIC "-//W3C//DTD SVG 1.1//EN"
 "http://www.w3.org/Graphics/SVG/1.1/DTD/svg11.dtd">
<!-- Generated by graphviz version 2.38.0 (20140413.2041)
 -->
<!-- Title: src/Utility/PoseFilter.ipp Pages: 1 -->
<!--zoomable 95 -->
<svg id="main" version="1.1" xmlns="http://www.w3.org/2000/svg" xmlns:xlink="http://www.w3.org/1999/xlink" xml:space="preserve" onload="init(evt)">
<style type="text/css"><![CDATA[
.edge:hover path { stroke: red; }
.edge:hover polygon { stroke: red; fill: red; }
]]></style>
<script type="text/javascript"><![CDATA[
var edges = document.getElementsByTagName('g');
if (edges && edges.length) {
  for (var i=0;i<edges.length;i++) {
    if (edges[i].id.substr(0,4)=='edge') {
      edges[i].setAttribute('class','edge');
    }
  }
}
]]></script>
        <defs>
                <circle id="rim" cx="0" cy="0" r="7"/>
                <circle id="rim2" cx="0" cy="0" r="3.5"/>
                <g id="zoomPlus">
                        <use xlink:href="#rim" fill="#404040">
                                <set attributeName="fill" to="#808080" begin="zoomplus.mouseover" end="zoomplus.mouseout"/>
                        </use>
                        <path d="M-4,0h8M0,-4v8" fill="none" stroke="white" stroke-width="1.5" pointer-events="none"/>
                </g>
                <g id="zoomMin">
                        <use xlink:href="#rim" fill="#404040">
                                <set attributeName="fill" to="#808080" begin="zoomminus.mouseover" end="zoomminus.mouseout"/>
                        </use>
                        <path d="M-4,0h8" fill="none" stroke="white" stroke-width="1.5" pointer-events="none"/>
                </g>
                <g id="dirArrow">
                        <path fill="none" stroke="white" stroke-width="1.5" d="M0,-3.0v7 M-2.5,-0.5L0,-3.0L2.5,-0.5"/>
                </g>
               <g id="resetDef">
                       <use xlink:href="#rim2" fill="#404040">
                               <set attributeName="fill" to="#808080" begin="reset.mouseover" end="reset.mouseout"/>
                       </use>
               </g>
        </defs>

<script type="text/javascript">
var viewWidth = 1290;
var viewHeight = 95;
var sectionId = 'dynsection-0';
</script>
<script xlink:href="svgpan.js"/>
<svg id="graph" class="graph">
<g id="viewport">
<title>src/Utility/PoseFilter.ipp</title>
<polygon fill="white" stroke="none" points="-4,4 -4,-91 1285.5,-91 1285.5,4 -4,4"/>
<!-- Node0 -->
<g id="node1" class="node"><title>Node0</title>
<polygon fill="#bfbfbf" stroke="black" points="411,-67.5 411,-86.5 531,-86.5 531,-67.5 411,-67.5"/>
<text text-anchor="middle" x="471" y="-74.5" font-family="FreeSans" font-size="10.00">src/Utility/PoseFilter.ipp</text>
</g>
<!-- Node1 -->
<g id="node2" class="node"><title>Node1</title>
<polygon fill="white" stroke="#bfbfbf" points="0,-6 0,-25 38,-25 38,-6 0,-6"/>
<text text-anchor="middle" x="19" y="-13" font-family="FreeSans" font-size="10.00">array</text>
</g>
<!-- Node0&#45;&gt;Node1 -->
<g id="edge1" class="edge"><title>Node0&#45;&gt;Node1</title>
<path fill="none" stroke="midnightblue" d="M410.991,-76.5598C327.575,-75.7939 172.663,-68.7436 47,-31 45.5254,-30.5571 44.0369,-30.0365 42.5553,-29.4606"/>
<polygon fill="midnightblue" stroke="midnightblue" points="43.6454,-26.109 33.0991,-25.0959 40.7118,-32.4646 43.6454,-26.109"/>
</g>
<!-- Node2 -->
<g id="node3" class="node"><title>Node2</title>
<polygon fill="white" stroke="#bfbfbf" points="56.5,-6 56.5,-25 95.5,-25 95.5,-6 56.5,-6"/>
<text text-anchor="middle" x="76" y="-13" font-family="FreeSans" font-size="10.00">utility</text>
</g>
<!-- Node0&#45;&gt;Node2 -->
<g id="edge2" class="edge"><title>Node0&#45;&gt;Node2</title>
<path fill="none" stroke="midnightblue" d="M410.848,-75.1261C337.013,-72.5872 208.716,-63.3831 104,-31 102.529,-30.5451 101.043,-30.0152 99.564,-29.4322"/>
<polygon fill="midnightblue" stroke="midnightblue" points="100.658,-26.0815 90.1139,-25.0476 97.712,-32.4313 100.658,-26.0815"/>
</g>
<!-- Node3 -->
<g id="node4" class="node"><title>Node3</title>
<polygon fill="white" stroke="#bfbfbf" points="113.5,-6 113.5,-25 172.5,-25 172.5,-6 113.5,-6"/>
<text text-anchor="middle" x="143" y="-13" font-family="FreeSans" font-size="10.00">functional</text>
</g>
<!-- Node0&#45;&gt;Node3 -->
<g id="edge3" class="edge"><title>Node0&#45;&gt;Node3</title>
<path fill="none" stroke="midnightblue" d="M410.78,-70.2007C351.813,-63.6877 259.754,-51.2861 182,-31 179.182,-30.2649 176.285,-29.4017 173.403,-28.469"/>
<polygon fill="midnightblue" stroke="midnightblue" points="174.396,-25.1085 163.801,-25.1155 172.088,-31.7171 174.396,-25.1085"/>
</g>
<!-- Node4 -->
<g id="node5" class="node"><title>Node4</title>
<polygon fill="white" stroke="#bfbfbf" points="191,-6 191,-25 319,-25 319,-6 191,-6"/>
<text text-anchor="middle" x="255" y="-13" font-family="FreeSans" font-size="10.00">boost/range/algorithm.hpp</text>
</g>
<!-- Node0&#45;&gt;Node4 -->
<g id="edge4" class="edge"><title>Node0&#45;&gt;Node4</title>
<path fill="none" stroke="midnightblue" d="M440.052,-67.4751C402.119,-57.0257 337.722,-39.2868 295.78,-27.7332"/>
<polygon fill="midnightblue" stroke="midnightblue" points="296.461,-24.2906 285.89,-25.0091 294.602,-31.0392 296.461,-24.2906"/>
</g>
<!-- Node5 -->
<g id="node6" class="node"><title>Node5</title>
<polygon fill="white" stroke="#bfbfbf" points="337.5,-6 337.5,-25 460.5,-25 460.5,-6 337.5,-6"/>
<text text-anchor="middle" x="399" y="-13" font-family="FreeSans" font-size="10.00">boost/range/numeric.hpp</text>
</g>
<!-- Node0&#45;&gt;Node5 -->
<g id="edge5" class="edge"><title>Node0&#45;&gt;Node5</title>
<path fill="none" stroke="midnightblue" d="M460.684,-67.4751C449.349,-58.1082 430.927,-42.8839 417.161,-31.5081"/>
<polygon fill="midnightblue" stroke="midnightblue" points="419.235,-28.6813 409.297,-25.0091 414.776,-34.0773 419.235,-28.6813"/>
</g>
<!-- Node6 -->
<g id="node7" class="node"><title>Node6</title>
<polygon fill="white" stroke="#bfbfbf" points="479,-6 479,-25 607,-25 607,-6 479,-6"/>
<text text-anchor="middle" x="543" y="-13" font-family="FreeSans" font-size="10.00">boost/concept_check.hpp</text>
</g>
<!-- Node0&#45;&gt;Node6 -->
<g id="edge6" class="edge"><title>Node0&#45;&gt;Node6</title>
<path fill="none" stroke="midnightblue" d="M481.316,-67.4751C492.651,-58.1082 511.073,-42.8839 524.839,-31.5081"/>
<polygon fill="midnightblue" stroke="midnightblue" points="527.224,-34.0773 532.703,-25.0091 522.765,-28.6813 527.224,-34.0773"/>
</g>
<!-- Node7 -->
<g id="node8" class="node"><title>Node7</title>
<polygon fill="white" stroke="#bfbfbf" points="625.5,-0.5 625.5,-30.5 770.5,-30.5 770.5,-0.5 625.5,-0.5"/>
<text text-anchor="start" x="633.5" y="-18.5" font-family="FreeSans" font-size="10.00">SeeSaw/Elements/Geometric</text>
<text text-anchor="middle" x="698" y="-7.5" font-family="FreeSans" font-size="10.00">Entity.h</text>
</g>
<!-- Node0&#45;&gt;Node7 -->
<g id="edge7" class="edge"><title>Node0&#45;&gt;Node7</title>
<path fill="none" stroke="midnightblue" d="M503.524,-67.4751C537.644,-58.5317 592.136,-44.2486 634.769,-33.0738"/>
<polygon fill="midnightblue" stroke="midnightblue" points="635.715,-36.4442 644.501,-30.523 633.94,-29.6729 635.715,-36.4442"/>
</g>
<!-- Node8 -->
<g id="node9" class="node"><title>Node8</title>
<polygon fill="white" stroke="#bfbfbf" points="788.5,-0.5 788.5,-30.5 931.5,-30.5 931.5,-0.5 788.5,-0.5"/>
<text text-anchor="start" x="796.5" y="-18.5" font-family="FreeSans" font-size="10.00">SeeSaw/Geometry/Geometry</text>
<text text-anchor="middle" x="860" y="-7.5" font-family="FreeSans" font-size="10.00">SolverConcept.h</text>
</g>
<!-- Node0&#45;&gt;Node8 -->
<g id="edge8" class="edge"><title>Node0&#45;&gt;Node8</title>
<path fill="none" stroke="midnightblue" d="M531.199,-67.8628C591.35,-59.5897 686.73,-46.087 778.479,-31.2183"/>
<polygon fill="midnightblue" stroke="midnightblue" points="779.184,-34.6496 788.492,-29.5877 778.059,-27.7406 779.184,-34.6496"/>
</g>
<!-- Node9 -->
<g id="node10" class="node"><title>Node9</title>
<polygon fill="white" stroke="#bfbfbf" points="950,-6 950,-25 1108,-25 1108,-6 950,-6"/>
<text text-anchor="middle" x="1029" y="-13" font-family="FreeSans" font-size="10.00">SeeSaw/Geometry/P2PfSolver.h</text>
</g>
<!-- Node0&#45;&gt;Node9 -->
<g id="edge9" class="edge"><title>Node0&#45;&gt;Node9</title>
<path fill="none" stroke="midnightblue" d="M531.243,-71.5476C620.805,-64.6307 794.28,-50.0892 941,-31 950.572,-29.7546 960.702,-28.2558 970.549,-26.7009"/>
<polygon fill="midnightblue" stroke="midnightblue" points="971.357,-30.1158 980.673,-25.0685 970.243,-23.205 971.357,-30.1158"/>
</g>
<!-- Node10 -->
<g id="node11" class="node"><title>Node10</title>
<polygon fill="white" stroke="#bfbfbf" points="1126.5,-6 1126.5,-25 1281.5,-25 1281.5,-6 1126.5,-6"/>
<text text-anchor="middle" x="1204" y="-13" font-family="FreeSans" font-size="10.00">SeeSaw/Geometry/P4PSolver.h</text>
</g>
<!-- Node0&#45;&gt;Node10 -->
<g id="edge10" class="edge"><title>Node0&#45;&gt;Node10</title>
<path fill="none" stroke="midnightblue" d="M531.296,-73.7258C645.772,-68.9815 902.35,-56.305 1117,-31 1126.92,-29.8302 1137.44,-28.3148 1147.6,-26.7058"/>
<polygon fill="midnightblue" stroke="midnightblue" points="1148.3,-30.1375 1157.61,-25.0751 1147.18,-23.2286 1148.3,-30.1375"/>
</g>
</g>
</svg>
        <g id="navigator" transform="translate(0 0)" fill="#404254">
                <rect fill="#f2f5e9" fill-opacity="0.5" stroke="#606060" stroke-width=".5" x="0" y="0" width="60" height="60"/>
                <use id="zoomplus" xlink:href="#zoomPlus" x="17" y="9" onmousedown="handleZoom(evt,'in')"/>
                <use id="zoomminus" xlink:href="#zoomMin" x="42" y="9" onmousedown="handleZoom(evt,'out')"/>
                <use id="reset" xlink:href="#resetDef" x="30" y="36" onmousedown="handleReset()"/>
                <g id="arrowUp" xlink:href="#dirArrow" transform="translate(30 24)" onmousedown="handlePan(0,-1)">
                  <use xlink:href="#rim" fill="#404040">
                        <set attributeName="fill" to="#808080" begin="arrowUp.mouseover" end="arrowUp.mouseout"/>
                  </use>
                  <path fill="none" stroke="white" stroke-width="1.5" d="M0,-3.0v7 M-2.5,-0.5L0,-3.0L2.5,-0.5"/>
                </g>
                <g id="arrowRight" xlink:href="#dirArrow" transform="rotate(90) translate(36 -43)" onmousedown="handlePan(1,0)">
                  <use xlink:href="#rim" fill="#404040">
                        <set attributeName="fill" to="#808080" begin="arrowRight.mouseover" end="arrowRight.mouseout"/>
                  </use>
                  <path fill="none" stroke="white" stroke-width="1.5" d="M0,-3.0v7 M-2.5,-0.5L0,-3.0L2.5,-0.5"/>
                </g>
                <g id="arrowDown" xlink:href="#dirArrow" transform="rotate(180) translate(-30 -48)" onmousedown="handlePan(0,1)">
                  <use xlink:href="#rim" fill="#404040">
                        <set attributeName="fill" to="#808080" begin="arrowDown.mouseover" end="arrowDown.mouseout"/>
                  </use>
                  <path fill="none" stroke="white" stroke-width="1.5" d="M0,-3.0v7 M-2.5,-0.5L0,-3.0L2.5,-0.5"/>
                </g>
                <g id="arrowLeft" xlink:href="#dirArrow" transform="rotate(270) translate(-36 17)" onmousedown="handlePan(-1,0)">
                  <use xlink:href="#rim" fill="#404040">
                        <set attributeName="fill" to="#808080" begin="arrowLeft.mouseover" end="arrowLeft.mouseout"/>
                  </use>
                  <path fill="none" stroke="white" stroke-width="1.5" d="M0,-3.0v7 M-2.5,-0.5L0,-3.0L2.5,-0.5"/>
                </g>
        </g>
        <svg viewBox="0 0 15 15" width="100%" height="30px" preserveAspectRatio="xMaxYMin meet">
         <g id="arrow_out" transform="scale(0.3 0.3)">
          <a xlink:href="PoseFilter_8ipp__incl_org.svg" target="_base">
           <rect id="button" ry="5" rx="5" y="6" x="6" height="38" width="38"
                fill="#f2f5e9" fill-opacity="0.5" stroke="#606060" stroke-width="1.0"/>
           <path id="arrow"
             d="M 11.500037,31.436501 C 11.940474,20.09759 22.043105,11.32322 32.158766,21.979434 L 37.068811,17.246167 C 37.068811,17.246167 37.088388,32 37.088388,32 L 22.160133,31.978069 C 22.160133,31.978069 26.997745,27.140456 26.997745,27.140456 C 18.528582,18.264221 13.291696,25.230495 11.500037,31.436501 z"
             style="fill:#404040;"/>
          </a>
         </g>
        </svg>
</svg>
