<?xml version="1.0" encoding="UTF-8" standalone="no"?>
<!DOCTYPE svg PUBLIC "-//W3C//DTD SVG 1.1//EN"
 "http://www.w3.org/Graphics/SVG/1.1/DTD/svg11.dtd">
<!-- Generated by graphviz version 2.38.0 (20140413.2041)
 -->
<!-- Title: OpenCVToolsN::AppImageFeatureExtractorN::AppImageFeatureExtractorParametersC Pages: 1 -->
<svg width="457pt" height="430pt"
 viewBox="0.00 0.00 457.00 430.00" xmlns="http://www.w3.org/2000/svg" xmlns:xlink="http://www.w3.org/1999/xlink">
<g id="graph0" class="graph" transform="scale(1 1) rotate(0) translate(4 426)">
<title>OpenCVToolsN::AppImageFeatureExtractorN::AppImageFeatureExtractorParametersC</title>
<polygon fill="white" stroke="none" points="-4,4 -4,-426 453,-426 453,4 -4,4"/>
<!-- Node1 -->
<g id="node1" class="node"><title>Node1</title>
<polygon fill="#bfbfbf" stroke="black" points="159,-0.5 159,-90.5 341,-90.5 341,-0.5 159,-0.5"/>
<text text-anchor="start" x="167" y="-78.5" font-family="FreeSans" font-size="10.00">OpenCVToolsN::AppImageFeature</text>
<text text-anchor="start" x="167" y="-67.5" font-family="FreeSans" font-size="10.00">ExtractorN::AppImageFeatureExtractor</text>
<text text-anchor="middle" x="250" y="-56.5" font-family="FreeSans" font-size="10.00">ParametersC</text>
<polyline fill="none" stroke="black" points="159,-49.5 341,-49.5 "/>
<text text-anchor="middle" x="250" y="-37.5" font-family="FreeSans" font-size="10.00"> </text>
<polyline fill="none" stroke="black" points="159,-30.5 341,-30.5 "/>
<text text-anchor="start" x="167" y="-18.5" font-family="FreeSans" font-size="10.00">+ AppImageFeatureExtractor</text>
<text text-anchor="start" x="167" y="-7.5" font-family="FreeSans" font-size="10.00">ParametersC()</text>
</g>
<!-- Node2 -->
<g id="node2" class="node"><title>Node2</title>
<g id="a_node2"><a xlink:href="structOpenCVToolsN_1_1AppImageFeatureExtractorN_1_1AppImageFeatureExtractorParametersC_1_1ORBParameters.html" target="_top" xlink:title="{OpenCVToolsN::AppImageFeature\lExtractorN::AppImageFeatureExtractor\lParametersC::ORBParameters\n||+ ORBParameters()\l}">
<polygon fill="white" stroke="black" points="0,-149.5 0,-228.5 182,-228.5 182,-149.5 0,-149.5"/>
<text text-anchor="start" x="8" y="-216.5" font-family="FreeSans" font-size="10.00">OpenCVToolsN::AppImageFeature</text>
<text text-anchor="start" x="8" y="-205.5" font-family="FreeSans" font-size="10.00">ExtractorN::AppImageFeatureExtractor</text>
<text text-anchor="middle" x="91" y="-194.5" font-family="FreeSans" font-size="10.00">ParametersC::ORBParameters</text>
<polyline fill="none" stroke="black" points="0,-187.5 182,-187.5 "/>
<text text-anchor="middle" x="91" y="-175.5" font-family="FreeSans" font-size="10.00"> </text>
<polyline fill="none" stroke="black" points="0,-168.5 182,-168.5 "/>
<text text-anchor="start" x="8" y="-156.5" font-family="FreeSans" font-size="10.00">+ ORBParameters()</text>
</a>
</g>
</g>
<!-- Node2&#45;&gt;Node1 -->
<g id="edge1" class="edge"><title>Node2&#45;&gt;Node1</title>
<path fill="none" stroke="#404040" d="M104.877,-149.162C111.242,-135.271 119.887,-120.28 131,-109 136.374,-103.545 142.325,-98.4623 148.617,-93.7451"/>
<polygon fill="none" stroke="#404040" points="148.93,-93.5259 151.543,-86.8051 158.752,-86.6326 156.139,-93.3535 148.93,-93.5259"/>
<text text-anchor="middle" x="167.5" y="-117.5" font-family="FreeSans" font-size="10.00"> +orbParameters</text>
</g>
<!-- Node3 -->
<g id="node3" class="node"><title>Node3</title>
<polygon fill="white" stroke="#bfbfbf" points="32.5,-359 32.5,-416 67.5,-416 67.5,-359 32.5,-359"/>
<text text-anchor="middle" x="50" y="-404" font-family="FreeSans" font-size="10.00">float</text>
<polyline fill="none" stroke="#bfbfbf" points="32.5,-397 67.5,-397 "/>
<text text-anchor="middle" x="50" y="-385" font-family="FreeSans" font-size="10.00"> </text>
<polyline fill="none" stroke="#bfbfbf" points="32.5,-378 67.5,-378 "/>
<text text-anchor="middle" x="50" y="-366" font-family="FreeSans" font-size="10.00"> </text>
</g>
<!-- Node3&#45;&gt;Node2 -->
<g id="edge2" class="edge"><title>Node3&#45;&gt;Node2</title>
<path fill="none" stroke="#404040" d="M45.4375,-358.737C41.8055,-330.024 39.0852,-284.255 51,-247 51.8228,-244.427 52.8067,-241.869 53.9174,-239.343"/>
<polygon fill="none" stroke="#404040" points="53.9951,-239.192 53.1875,-232.026 59.4915,-228.525 60.299,-235.691 53.9951,-239.192"/>
<text text-anchor="middle" x="81" y="-288.5" font-family="FreeSans" font-size="10.00"> +scaleFactor</text>
</g>
<!-- Node4 -->
<g id="node4" class="node"><title>Node4</title>
<polygon fill="white" stroke="#bfbfbf" points="160.5,-359 160.5,-416 189.5,-416 189.5,-359 160.5,-359"/>
<text text-anchor="middle" x="175" y="-404" font-family="FreeSans" font-size="10.00">int</text>
<polyline fill="none" stroke="#bfbfbf" points="160.5,-397 189.5,-397 "/>
<text text-anchor="middle" x="175" y="-385" font-family="FreeSans" font-size="10.00"> </text>
<polyline fill="none" stroke="#bfbfbf" points="160.5,-378 189.5,-378 "/>
<text text-anchor="middle" x="175" y="-366" font-family="FreeSans" font-size="10.00"> </text>
</g>
<!-- Node4&#45;&gt;Node1 -->
<g id="edge4" class="edge"><title>Node4&#45;&gt;Node1</title>
<path fill="none" stroke="#404040" d="M189.548,-365.069C194.938,-356.137 200.568,-345.429 204,-335 230.039,-255.878 212.753,-231.069 227,-149 229.634,-133.829 233.032,-117.516 236.404,-102.464"/>
<polygon fill="none" stroke="#404040" points="236.416,-102.408 233.852,-95.6686 239.087,-90.7094 241.652,-97.4492 236.416,-102.408"/>
<text text-anchor="middle" x="269" y="-197.5" font-family="FreeSans" font-size="10.00"> +decimationFactor</text>
<text text-anchor="middle" x="269" y="-186.5" font-family="FreeSans" font-size="10.00">+initialFrame</text>
<text text-anchor="middle" x="269" y="-175.5" font-family="FreeSans" font-size="10.00">+nFrames</text>
</g>
<!-- Node4&#45;&gt;Node2 -->
<g id="edge3" class="edge"><title>Node4&#45;&gt;Node2</title>
<path fill="none" stroke="#404040" d="M160.213,-371.452C151.441,-361.761 140.751,-348.49 134,-335 115.908,-298.849 122.813,-285.66 111,-247 110.322,-244.781 109.612,-242.52 108.88,-240.24"/>
<polygon fill="none" stroke="#404040" points="108.864,-240.192 103.18,-235.754 105.09,-228.8 110.774,-233.238 108.864,-240.192"/>
<text text-anchor="middle" x="169" y="-327" font-family="FreeSans" font-size="10.00"> +fastThreshold</text>
<text text-anchor="middle" x="169" y="-316" font-family="FreeSans" font-size="10.00">+edgeThreshold</text>
<text text-anchor="middle" x="169" y="-305" font-family="FreeSans" font-size="10.00">+WTA_K</text>
<text text-anchor="middle" x="169" y="-294" font-family="FreeSans" font-size="10.00">+firstLevel</text>
<text text-anchor="middle" x="169" y="-283" font-family="FreeSans" font-size="10.00">+patchSize</text>
<text text-anchor="middle" x="169" y="-272" font-family="FreeSans" font-size="10.00">+nFeatures</text>
<text text-anchor="middle" x="169" y="-261" font-family="FreeSans" font-size="10.00">+nLevels</text>
<text text-anchor="middle" x="169" y="-250" font-family="FreeSans" font-size="10.00">+scoreType</text>
</g>
<!-- Node5 -->
<g id="node5" class="node"><title>Node5</title>
<g id="a_node5"><a xlink:title="STL class. ">
<polygon fill="white" stroke="#bfbfbf" points="320.5,-160.5 320.5,-217.5 379.5,-217.5 379.5,-160.5 320.5,-160.5"/>
<text text-anchor="middle" x="350" y="-205.5" font-family="FreeSans" font-size="10.00">std::string</text>
<polyline fill="none" stroke="#bfbfbf" points="320.5,-198.5 379.5,-198.5 "/>
<text text-anchor="middle" x="350" y="-186.5" font-family="FreeSans" font-size="10.00"> </text>
<polyline fill="none" stroke="#bfbfbf" points="320.5,-179.5 379.5,-179.5 "/>
<text text-anchor="middle" x="350" y="-167.5" font-family="FreeSans" font-size="10.00"> </text>
</a>
</g>
</g>
<!-- Node5&#45;&gt;Node1 -->
<g id="edge5" class="edge"><title>Node5&#45;&gt;Node1</title>
<path fill="none" stroke="#404040" d="M330.482,-160.381C318.465,-143.379 302.651,-121.001 288.224,-100.586"/>
<polygon fill="none" stroke="#404040" points="288.201,-100.554 281.472,-97.963 281.275,-90.7545 288.005,-93.3459 288.201,-100.554"/>
<text text-anchor="middle" x="347" y="-123" font-family="FreeSans" font-size="10.00"> +outputFilename</text>
<text text-anchor="middle" x="347" y="-112" font-family="FreeSans" font-size="10.00">+imageFilename</text>
</g>
<!-- Node6 -->
<g id="node6" class="node"><title>Node6</title>
<g id="a_node6"><a xlink:title="STL class. ">
<polygon fill="white" stroke="#bfbfbf" points="303.5,-353.5 303.5,-421.5 396.5,-421.5 396.5,-353.5 303.5,-353.5"/>
<text text-anchor="start" x="311.5" y="-409.5" font-family="FreeSans" font-size="10.00">std::basic_string&lt;</text>
<text text-anchor="middle" x="350" y="-398.5" font-family="FreeSans" font-size="10.00"> char &gt;</text>
<polyline fill="none" stroke="#bfbfbf" points="303.5,-391.5 396.5,-391.5 "/>
<text text-anchor="middle" x="350" y="-379.5" font-family="FreeSans" font-size="10.00"> </text>
<polyline fill="none" stroke="#bfbfbf" points="303.5,-372.5 396.5,-372.5 "/>
<text text-anchor="middle" x="350" y="-360.5" font-family="FreeSans" font-size="10.00"> </text>
</a>
</g>
</g>
<!-- Node6&#45;&gt;Node5 -->
<g id="edge6" class="edge"><title>Node6&#45;&gt;Node5</title>
<path fill="none" stroke="midnightblue" d="M350,-342.852C350,-304.652 350,-250.317 350,-217.769"/>
<polygon fill="none" stroke="midnightblue" points="346.5,-343.166 350,-353.166 353.5,-343.166 346.5,-343.166"/>
</g>
<!-- Node7 -->
<g id="node7" class="node"><title>Node7</title>
<polygon fill="white" stroke="#bfbfbf" points="397.5,-160.5 397.5,-217.5 432.5,-217.5 432.5,-160.5 397.5,-160.5"/>
<text text-anchor="middle" x="415" y="-205.5" font-family="FreeSans" font-size="10.00">bool</text>
<polyline fill="none" stroke="#bfbfbf" points="397.5,-198.5 432.5,-198.5 "/>
<text text-anchor="middle" x="415" y="-186.5" font-family="FreeSans" font-size="10.00"> </text>
<polyline fill="none" stroke="#bfbfbf" points="397.5,-179.5 432.5,-179.5 "/>
<text text-anchor="middle" x="415" y="-167.5" font-family="FreeSans" font-size="10.00"> </text>
</g>
<!-- Node7&#45;&gt;Node1 -->
<g id="edge7" class="edge"><title>Node7&#45;&gt;Node1</title>
<path fill="none" stroke="#404040" d="M411.586,-160.32C408.268,-143.724 401.754,-123.163 389,-109 378.559,-97.4056 365.553,-87.8364 351.717,-79.9746"/>
<polygon fill="none" stroke="#404040" points="351.605,-79.9148 344.43,-80.636 341.004,-74.2903 348.179,-73.5691 351.605,-79.9148"/>
<text text-anchor="middle" x="426" y="-117.5" font-family="FreeSans" font-size="10.00"> +flagGPU</text>
</g>
</g>
</svg>
