<?xml version="1.0" encoding="UTF-8" standalone="no"?>
<!DOCTYPE svg PUBLIC "-//W3C//DTD SVG 1.1//EN"
 "http://www.w3.org/Graphics/SVG/1.1/DTD/svg11.dtd">
<!-- Generated by graphviz version 2.38.0 (20140413.2041)
 -->
<!-- Title: src/Utility/VideoAppConfigInterface.ipp Pages: 1 -->
<svg width="794pt" height="106pt"
 viewBox="0.00 0.00 794.00 106.00" xmlns="http://www.w3.org/2000/svg" xmlns:xlink="http://www.w3.org/1999/xlink">
<g id="graph0" class="graph" transform="scale(1 1) rotate(0) translate(4 102)">
<title>src/Utility/VideoAppConfigInterface.ipp</title>
<polygon fill="white" stroke="none" points="-4,4 -4,-102 790,-102 790,4 -4,4"/>
<!-- Node0 -->
<g id="node1" class="node"><title>Node0</title>
<polygon fill="#bfbfbf" stroke="black" points="240.5,-67.5 240.5,-97.5 370.5,-97.5 370.5,-67.5 240.5,-67.5"/>
<text text-anchor="start" x="248.5" y="-85.5" font-family="FreeSans" font-size="10.00">src/Utility/VideoAppConfig</text>
<text text-anchor="middle" x="305.5" y="-74.5" font-family="FreeSans" font-size="10.00">Interface.ipp</text>
</g>
<!-- Node1 -->
<g id="node2" class="node"><title>Node1</title>
<polygon fill="white" stroke="#bfbfbf" points="0,-6 0,-25 41,-25 41,-6 0,-6"/>
<text text-anchor="middle" x="20.5" y="-13" font-family="FreeSans" font-size="10.00">string</text>
</g>
<!-- Node0&#45;&gt;Node1 -->
<g id="edge1" class="edge"><title>Node0&#45;&gt;Node1</title>
<path fill="none" stroke="midnightblue" d="M240.397,-73.2789C188.156,-65.5762 113.414,-52.0495 50.5,-31 48.8782,-30.4574 47.231,-29.8468 45.5857,-29.191"/>
<polygon fill="midnightblue" stroke="midnightblue" points="46.9364,-25.9613 36.3764,-25.1021 44.0957,-32.359 46.9364,-25.9613"/>
</g>
<!-- Node2 -->
<g id="node3" class="node"><title>Node2</title>
<polygon fill="white" stroke="#bfbfbf" points="59.5,-6 59.5,-25 131.5,-25 131.5,-6 59.5,-6"/>
<text text-anchor="middle" x="95.5" y="-13" font-family="FreeSans" font-size="10.00">initializer_list</text>
</g>
<!-- Node0&#45;&gt;Node2 -->
<g id="edge2" class="edge"><title>Node0&#45;&gt;Node2</title>
<path fill="none" stroke="midnightblue" d="M258.859,-67.4247C225.783,-57.3943 180.37,-43.524 140.5,-31 137.71,-30.1237 134.826,-29.2105 131.926,-28.2876"/>
<polygon fill="midnightblue" stroke="midnightblue" points="132.721,-24.867 122.13,-25.1522 130.587,-31.5339 132.721,-24.867"/>
</g>
<!-- Node3 -->
<g id="node4" class="node"><title>Node3</title>
<polygon fill="white" stroke="#bfbfbf" points="150,-6 150,-25 209,-25 209,-6 150,-6"/>
<text text-anchor="middle" x="179.5" y="-13" font-family="FreeSans" font-size="10.00">functional</text>
</g>
<!-- Node0&#45;&gt;Node3 -->
<g id="edge3" class="edge"><title>Node0&#45;&gt;Node3</title>
<path fill="none" stroke="midnightblue" d="M278.16,-67.396C256.443,-56.1928 226.297,-40.6412 205.059,-29.6853"/>
<polygon fill="midnightblue" stroke="midnightblue" points="206.482,-26.4812 195.99,-25.007 203.273,-32.7022 206.482,-26.4812"/>
</g>
<!-- Node4 -->
<g id="node5" class="node"><title>Node4</title>
<polygon fill="white" stroke="#bfbfbf" points="227,-6 227,-25 286,-25 286,-6 227,-6"/>
<text text-anchor="middle" x="256.5" y="-13" font-family="FreeSans" font-size="10.00">stdexcept</text>
</g>
<!-- Node0&#45;&gt;Node4 -->
<g id="edge4" class="edge"><title>Node0&#45;&gt;Node4</title>
<path fill="none" stroke="midnightblue" d="M294.868,-67.396C287.303,-57.3614 277.109,-43.8382 269.13,-33.2535"/>
<polygon fill="midnightblue" stroke="midnightblue" points="271.869,-31.0729 263.054,-25.1945 266.279,-35.2867 271.869,-31.0729"/>
</g>
<!-- Node5 -->
<g id="node6" class="node"><title>Node5</title>
<polygon fill="white" stroke="#bfbfbf" points="304.5,-0.5 304.5,-30.5 404.5,-30.5 404.5,-0.5 304.5,-0.5"/>
<text text-anchor="start" x="312.5" y="-18.5" font-family="FreeSans" font-size="10.00">boost/property_tree</text>
<text text-anchor="middle" x="354.5" y="-7.5" font-family="FreeSans" font-size="10.00">/ptree.hpp</text>
</g>
<!-- Node0&#45;&gt;Node5 -->
<g id="edge5" class="edge"><title>Node0&#45;&gt;Node5</title>
<path fill="none" stroke="midnightblue" d="M316.132,-67.396C322.425,-59.0486 330.537,-48.2871 337.681,-38.8113"/>
<polygon fill="midnightblue" stroke="midnightblue" points="340.664,-40.6686 343.888,-30.5765 335.074,-36.4549 340.664,-40.6686"/>
</g>
<!-- Node6 -->
<g id="node7" class="node"><title>Node6</title>
<polygon fill="white" stroke="#bfbfbf" points="423,-6 423,-25 518,-25 518,-6 423,-6"/>
<text text-anchor="middle" x="470.5" y="-13" font-family="FreeSans" font-size="10.00">boost/optional.hpp</text>
</g>
<!-- Node0&#45;&gt;Node6 -->
<g id="edge6" class="edge"><title>Node0&#45;&gt;Node6</title>
<path fill="none" stroke="midnightblue" d="M341.303,-67.396C370.51,-55.8901 411.36,-39.7974 439.259,-28.8072"/>
<polygon fill="midnightblue" stroke="midnightblue" points="440.884,-31.9287 448.905,-25.007 438.318,-25.4159 440.884,-31.9287"/>
</g>
<!-- Node7 -->
<g id="node8" class="node"><title>Node7</title>
<polygon fill="white" stroke="#bfbfbf" points="536.5,-6 536.5,-25 624.5,-25 624.5,-6 536.5,-6"/>
<text text-anchor="middle" x="580.5" y="-13" font-family="FreeSans" font-size="10.00">boost/bimap.hpp</text>
</g>
<!-- Node0&#45;&gt;Node7 -->
<g id="edge7" class="edge"><title>Node0&#45;&gt;Node7</title>
<path fill="none" stroke="midnightblue" d="M370.761,-67.4354C415.085,-57.6916 474.971,-44.1536 527.5,-31 531.664,-29.9573 536.002,-28.8331 540.324,-27.6883"/>
<polygon fill="midnightblue" stroke="midnightblue" points="541.542,-30.9852 550.29,-25.0084 539.724,-24.2254 541.542,-30.9852"/>
</g>
<!-- Node8 -->
<g id="node9" class="node"><title>Node8</title>
<polygon fill="white" stroke="#bfbfbf" points="643,-0.5 643,-30.5 786,-30.5 786,-0.5 643,-0.5"/>
<text text-anchor="start" x="651" y="-18.5" font-family="FreeSans" font-size="10.00">SeeSaw/ApplicationInterface</text>
<text text-anchor="middle" x="714.5" y="-7.5" font-family="FreeSans" font-size="10.00">/InterfaceUtility.h</text>
</g>
<!-- Node0&#45;&gt;Node8 -->
<g id="edge8" class="edge"><title>Node0&#45;&gt;Node8</title>
<path fill="none" stroke="midnightblue" d="M370.608,-71.9534C434.646,-62.4553 535.457,-47.2143 632.933,-31.0699"/>
<polygon fill="midnightblue" stroke="midnightblue" points="633.672,-34.4953 642.963,-29.4036 632.524,-27.59 633.672,-34.4953"/>
</g>
</g>
</svg>
