<?xml version="1.0" encoding="UTF-8" standalone="no"?>
<!DOCTYPE svg PUBLIC "-//W3C//DTD SVG 1.1//EN"
 "http://www.w3.org/Graphics/SVG/1.1/DTD/svg11.dtd">
<!-- Generated by graphviz version 2.38.0 (20140413.2041)
 -->
<!-- Title: src/Utility/VideoInputDevice.h Pages: 1 -->
<!--zoomable 95 -->
<svg id="main" version="1.1" xmlns="http://www.w3.org/2000/svg" xmlns:xlink="http://www.w3.org/1999/xlink" xml:space="preserve" onload="init(evt)">
<style type="text/css"><![CDATA[
.edge:hover path { stroke: red; }
.edge:hover polygon { stroke: red; fill: red; }
]]></style>
<script type="text/javascript"><![CDATA[
var edges = document.getElementsByTagName('g');
if (edges && edges.length) {
  for (var i=0;i<edges.length;i++) {
    if (edges[i].id.substr(0,4)=='edge') {
      edges[i].setAttribute('class','edge');
    }
  }
}
]]></script>
        <defs>
                <circle id="rim" cx="0" cy="0" r="7"/>
                <circle id="rim2" cx="0" cy="0" r="3.5"/>
                <g id="zoomPlus">
                        <use xlink:href="#rim" fill="#404040">
                                <set attributeName="fill" to="#808080" begin="zoomplus.mouseover" end="zoomplus.mouseout"/>
                        </use>
                        <path d="M-4,0h8M0,-4v8" fill="none" stroke="white" stroke-width="1.5" pointer-events="none"/>
                </g>
                <g id="zoomMin">
                        <use xlink:href="#rim" fill="#404040">
                                <set attributeName="fill" to="#808080" begin="zoomminus.mouseover" end="zoomminus.mouseout"/>
                        </use>
                        <path d="M-4,0h8" fill="none" stroke="white" stroke-width="1.5" pointer-events="none"/>
                </g>
                <g id="dirArrow">
                        <path fill="none" stroke="white" stroke-width="1.5" d="M0,-3.0v7 M-2.5,-0.5L0,-3.0L2.5,-0.5"/>
                </g>
               <g id="resetDef">
                       <use xlink:href="#rim2" fill="#404040">
                               <set attributeName="fill" to="#808080" begin="reset.mouseover" end="reset.mouseout"/>
                       </use>
               </g>
        </defs>

<script type="text/javascript">
var viewWidth = 821;
var viewHeight = 95;
var sectionId = 'dynsection-1';
</script>
<script xlink:href="svgpan.js"/>
<svg id="graph" class="graph">
<g id="viewport">
<title>src/Utility/VideoInputDevice.h</title>
<polygon fill="white" stroke="none" points="-4,4 -4,-91 817,-91 817,4 -4,4"/>
<!-- Node22 -->
<g id="node1" class="node"><title>Node22</title>
<polygon fill="#bfbfbf" stroke="black" points="324,-67.5 324,-86.5 469,-86.5 469,-67.5 324,-67.5"/>
<text text-anchor="middle" x="396.5" y="-74.5" font-family="FreeSans" font-size="10.00">src/Utility/VideoInputDevice.h</text>
</g>
<!-- Node23 -->
<g id="node2" class="node"><title>Node23</title>
<g id="a_node2"><a xlink:href="App3dSceneModelBuilder_8cpp.html" target="_top" xlink:title="src/3dSceneModelBuilder\l/App3dSceneModelBuilder.cpp">
<polygon fill="white" stroke="black" points="0,-0.5 0,-30.5 149,-30.5 149,-0.5 0,-0.5"/>
<text text-anchor="start" x="8" y="-18.5" font-family="FreeSans" font-size="10.00">src/3dSceneModelBuilder</text>
<text text-anchor="middle" x="74.5" y="-7.5" font-family="FreeSans" font-size="10.00">/App3dSceneModelBuilder.cpp</text>
</a>
</g>
</g>
<!-- Node22&#45;&gt;Node23 -->
<g id="edge1" class="edge"><title>Node22&#45;&gt;Node23</title>
<path fill="none" stroke="midnightblue" d="M340.465,-65.6457C287.458,-55.8509 207.544,-41.0841 149.151,-30.2942"/>
<polygon fill="midnightblue" stroke="midnightblue" points="339.896,-69.0997 350.365,-67.4751 341.168,-62.2162 339.896,-69.0997"/>
</g>
<!-- Node24 -->
<g id="node3" class="node"><title>Node24</title>
<g id="a_node3"><a xlink:href="AppNodalCameraTracker_8cpp.html" target="_top" xlink:title="src/NodalCameraTracker\l/AppNodalCameraTracker.cpp">
<polygon fill="white" stroke="black" points="167,-0.5 167,-30.5 314,-30.5 314,-0.5 167,-0.5"/>
<text text-anchor="start" x="175" y="-18.5" font-family="FreeSans" font-size="10.00">src/NodalCameraTracker</text>
<text text-anchor="middle" x="240.5" y="-7.5" font-family="FreeSans" font-size="10.00">/AppNodalCameraTracker.cpp</text>
</a>
</g>
</g>
<!-- Node22&#45;&gt;Node24 -->
<g id="edge2" class="edge"><title>Node22&#45;&gt;Node24</title>
<path fill="none" stroke="midnightblue" d="M364.638,-63.8475C339.296,-54.1817 303.81,-40.6471 277.266,-30.523"/>
<polygon fill="midnightblue" stroke="midnightblue" points="363.558,-67.1816 374.149,-67.4751 366.053,-60.6411 363.558,-67.1816"/>
</g>
<!-- Node25 -->
<g id="node4" class="node"><title>Node25</title>
<g id="a_node4"><a xlink:href="AppPanoramaBuilder_8cpp.html" target="_top" xlink:title="src/PanoramaBuilder\l/AppPanoramaBuilder.cpp">
<polygon fill="white" stroke="black" points="332,-0.5 332,-30.5 461,-30.5 461,-0.5 332,-0.5"/>
<text text-anchor="start" x="340" y="-18.5" font-family="FreeSans" font-size="10.00">src/PanoramaBuilder</text>
<text text-anchor="middle" x="396.5" y="-7.5" font-family="FreeSans" font-size="10.00">/AppPanoramaBuilder.cpp</text>
</a>
</g>
</g>
<!-- Node22&#45;&gt;Node25 -->
<g id="edge3" class="edge"><title>Node22&#45;&gt;Node25</title>
<path fill="none" stroke="midnightblue" d="M396.5,-57.2349C396.5,-48.5864 396.5,-38.4969 396.5,-30.523"/>
<polygon fill="midnightblue" stroke="midnightblue" points="393,-57.4751 396.5,-67.4751 400,-57.4751 393,-57.4751"/>
</g>
<!-- Node26 -->
<g id="node5" class="node"><title>Node26</title>
<g id="a_node5"><a xlink:href="AppRoamingCameraTracker_8cpp.html" target="_top" xlink:title="src/RoamingCameraTracker\l/AppRoamingCameraTracker.cpp">
<polygon fill="white" stroke="black" points="479.5,-0.5 479.5,-30.5 639.5,-30.5 639.5,-0.5 479.5,-0.5"/>
<text text-anchor="start" x="487.5" y="-18.5" font-family="FreeSans" font-size="10.00">src/RoamingCameraTracker</text>
<text text-anchor="middle" x="559.5" y="-7.5" font-family="FreeSans" font-size="10.00">/AppRoamingCameraTracker.cpp</text>
</a>
</g>
</g>
<!-- Node22&#45;&gt;Node26 -->
<g id="edge4" class="edge"><title>Node22&#45;&gt;Node26</title>
<path fill="none" stroke="midnightblue" d="M429.441,-63.9755C455.943,-54.3016 493.226,-40.6919 521.084,-30.523"/>
<polygon fill="midnightblue" stroke="midnightblue" points="428.047,-60.7582 419.854,-67.4751 430.448,-67.3338 428.047,-60.7582"/>
</g>
<!-- Node27 -->
<g id="node6" class="node"><title>Node27</title>
<g id="a_node6"><a xlink:href="VideoInputDevice_8cpp.html" target="_top" xlink:title="src/Utility/VideoInputDevice.cpp">
<polygon fill="white" stroke="black" points="658,-6 658,-25 813,-25 813,-6 658,-6"/>
<text text-anchor="middle" x="735.5" y="-13" font-family="FreeSans" font-size="10.00">src/Utility/VideoInputDevice.cpp</text>
</a>
</g>
</g>
<!-- Node22&#45;&gt;Node27 -->
<g id="edge5" class="edge"><title>Node22&#45;&gt;Node27</title>
<path fill="none" stroke="midnightblue" d="M455.252,-65.6881C520.876,-54.17 625.891,-35.7381 687.02,-25.0091"/>
<polygon fill="midnightblue" stroke="midnightblue" points="454.315,-62.299 445.07,-67.4751 455.525,-69.1936 454.315,-62.299"/>
</g>
</g>
</svg>
        <g id="navigator" transform="translate(0 0)" fill="#404254">
                <rect fill="#f2f5e9" fill-opacity="0.5" stroke="#606060" stroke-width=".5" x="0" y="0" width="60" height="60"/>
                <use id="zoomplus" xlink:href="#zoomPlus" x="17" y="9" onmousedown="handleZoom(evt,'in')"/>
                <use id="zoomminus" xlink:href="#zoomMin" x="42" y="9" onmousedown="handleZoom(evt,'out')"/>
                <use id="reset" xlink:href="#resetDef" x="30" y="36" onmousedown="handleReset()"/>
                <g id="arrowUp" xlink:href="#dirArrow" transform="translate(30 24)" onmousedown="handlePan(0,-1)">
                  <use xlink:href="#rim" fill="#404040">
                        <set attributeName="fill" to="#808080" begin="arrowUp.mouseover" end="arrowUp.mouseout"/>
                  </use>
                  <path fill="none" stroke="white" stroke-width="1.5" d="M0,-3.0v7 M-2.5,-0.5L0,-3.0L2.5,-0.5"/>
                </g>
                <g id="arrowRight" xlink:href="#dirArrow" transform="rotate(90) translate(36 -43)" onmousedown="handlePan(1,0)">
                  <use xlink:href="#rim" fill="#404040">
                        <set attributeName="fill" to="#808080" begin="arrowRight.mouseover" end="arrowRight.mouseout"/>
                  </use>
                  <path fill="none" stroke="white" stroke-width="1.5" d="M0,-3.0v7 M-2.5,-0.5L0,-3.0L2.5,-0.5"/>
                </g>
                <g id="arrowDown" xlink:href="#dirArrow" transform="rotate(180) translate(-30 -48)" onmousedown="handlePan(0,1)">
                  <use xlink:href="#rim" fill="#404040">
                        <set attributeName="fill" to="#808080" begin="arrowDown.mouseover" end="arrowDown.mouseout"/>
                  </use>
                  <path fill="none" stroke="white" stroke-width="1.5" d="M0,-3.0v7 M-2.5,-0.5L0,-3.0L2.5,-0.5"/>
                </g>
                <g id="arrowLeft" xlink:href="#dirArrow" transform="rotate(270) translate(-36 17)" onmousedown="handlePan(-1,0)">
                  <use xlink:href="#rim" fill="#404040">
                        <set attributeName="fill" to="#808080" begin="arrowLeft.mouseover" end="arrowLeft.mouseout"/>
                  </use>
                  <path fill="none" stroke="white" stroke-width="1.5" d="M0,-3.0v7 M-2.5,-0.5L0,-3.0L2.5,-0.5"/>
                </g>
        </g>
        <svg viewBox="0 0 15 15" width="100%" height="30px" preserveAspectRatio="xMaxYMin meet">
         <g id="arrow_out" transform="scale(0.3 0.3)">
          <a xlink:href="VideoInputDevice_8h__dep__incl_org.svg" target="_base">
           <rect id="button" ry="5" rx="5" y="6" x="6" height="38" width="38"
                fill="#f2f5e9" fill-opacity="0.5" stroke="#606060" stroke-width="1.0"/>
           <path id="arrow"
             d="M 11.500037,31.436501 C 11.940474,20.09759 22.043105,11.32322 32.158766,21.979434 L 37.068811,17.246167 C 37.068811,17.246167 37.088388,32 37.088388,32 L 22.160133,31.978069 C 22.160133,31.978069 26.997745,27.140456 26.997745,27.140456 C 18.528582,18.264221 13.291696,25.230495 11.500037,31.436501 z"
             style="fill:#404040;"/>
          </a>
         </g>
        </svg>
</svg>
